<svg width="360" height="129" viewBox="0 0 360 129" fill="none" xmlns="http://www.w3.org/2000/svg">
<g clip-path="url(#clip0_5527_21876)">
<rect width="360" height="129" fill="#168AAD"/>
<path d="M345.204 111.72C345.204 113.925 343.407 115.712 341.191 115.712C338.973 115.712 337.176 113.925 337.176 111.72C337.176 109.516 338.973 107.729 341.191 107.729C343.407 107.729 345.204 109.516 345.204 111.72Z" fill="#FFB1A8"/>
<path d="M341.295 107.57C341.295 108.437 340.587 109.14 339.716 109.14C338.844 109.14 338.137 108.437 338.137 107.57C338.137 106.703 338.844 106 339.716 106C340.587 106 341.295 106.703 341.295 107.57Z" fill="#FFB1A8"/>
<path d="M338.254 111.932C338.254 112.588 337.72 113.119 337.061 113.119C336.401 113.119 335.867 112.588 335.867 111.932C335.867 111.278 336.401 110.746 337.061 110.746C337.72 110.746 338.254 111.278 338.254 111.932Z" fill="#FFB1A8"/>
<path d="M345.449 109.158C345.449 109.814 344.914 110.345 344.256 110.345C343.596 110.345 343.062 109.814 343.062 109.158C343.062 108.503 343.596 107.971 344.256 107.971C344.914 107.971 345.449 108.503 345.449 109.158Z" fill="#FFB1A8"/>
<path d="M341.777 115.913C341.777 116.568 341.242 117.1 340.584 117.1C339.925 117.1 339.391 116.568 339.391 115.913C339.391 115.257 339.925 114.726 340.584 114.726C341.242 114.726 341.777 115.257 341.777 115.913Z" fill="#FFB1A8"/>
<path d="M346.032 113.54C346.032 114.376 345.35 115.055 344.508 115.055C343.667 115.055 342.984 114.376 342.984 113.54C342.984 112.703 343.667 112.025 344.508 112.025C345.35 112.025 346.032 112.703 346.032 113.54Z" fill="#FFB1A8"/>
<path d="M360.513 3.7041C360.042 3.7041 359.66 3.32224 359.66 2.85184C359.66 2.3809 360.042 1.99957 360.513 1.99957C360.984 1.99957 361.366 2.3809 361.366 2.85184C361.366 3.32224 360.984 3.7041 360.513 3.7041Z" fill="#FEC9C1"/>
<path d="M273.984 63.7148C273.776 63.15 273.988 62.3826 274.368 61.8204C274.539 61.5655 274.757 61.3586 275.003 61.2028C274.662 62.0242 274.321 62.8636 273.984 63.7148Z" fill="#FED9D1"/>
<path d="M137.678 14.897C137.678 15.3599 137.302 15.7354 136.839 15.7354C136.375 15.7354 136 15.3599 136 14.897C136 14.4335 136.375 14.058 136.839 14.058C137.302 14.058 137.678 14.4335 137.678 14.897Z" fill="white"/>
<path d="M238.495 96.4457L218.709 96.3011C204.691 96.1987 193.41 84.7513 193.512 70.7326L193.632 54.323C193.769 35.6062 209.054 20.5438 227.771 20.6809C246.488 20.8179 261.551 36.1022 261.414 54.819L261.273 73.9982C261.182 86.4873 250.984 96.5374 238.495 96.4457Z" fill="#00B7B6"/>
<path d="M238.499 93.2457L218.714 93.1011C208.439 93.0259 200.171 84.6361 200.247 74.3619L200.289 68.5955C200.398 53.6222 212.625 41.5726 227.599 41.6825C242.572 41.7918 254.621 54.019 254.512 68.9918L254.449 77.5273C254.385 86.2723 247.244 93.3097 238.499 93.2457Z" fill="#007D7D"/>
<path d="M228.482 27.001C228.334 27.001 228.215 26.8815 228.215 26.7343V24.098C228.215 23.9503 228.334 23.8314 228.482 23.8314C228.629 23.8314 228.748 23.9503 228.748 24.098V26.7343C228.748 26.8815 228.629 27.001 228.482 27.001Z" fill="#009B9A"/>
<path d="M228.482 32.0078C228.334 32.0078 228.215 31.8883 228.215 31.7411V28.7587C228.215 28.611 228.334 28.4921 228.482 28.4921C228.629 28.4921 228.748 28.611 228.748 28.7587V31.7411C228.748 31.8883 228.629 32.0078 228.482 32.0078Z" fill="#009B9A"/>
<path d="M245.062 25.5635C244.979 25.5128 244.896 25.4632 244.812 25.4136C244.816 25.4136 244.819 25.4136 244.823 25.4136C244.919 25.4136 245.011 25.4664 245.059 25.5582C245.06 25.5598 245.061 25.5613 245.062 25.5635Z" fill="#81B4B0"/>
<path d="M238.907 33.9307L238.807 33.9109C238.67 33.8555 238.605 33.6997 238.66 33.5632L238.88 33.024C240.199 29.7829 241.24 27.2224 244.697 25.4432C244.733 25.4245 244.771 25.4149 244.809 25.4133C244.892 25.4629 244.976 25.5125 245.058 25.5632C245.122 25.6928 245.071 25.8507 244.941 25.9173C241.659 27.6064 240.701 29.9632 239.375 33.2245L239.154 33.7653C239.112 33.8683 239.012 33.9307 238.907 33.9307Z" fill="#009B9A"/>
<path d="M255.113 34.8828C255.016 34.7463 254.916 34.6092 254.816 34.4743C254.87 34.4956 254.924 34.518 254.976 34.542C255.106 34.6007 255.166 34.7516 255.113 34.8828Z" fill="#81B4B0"/>
<path d="M247.864 38.293C247.802 38.293 247.74 38.2716 247.69 38.2279C247.578 38.1319 247.567 37.9634 247.662 37.8519C248.523 36.8546 249.498 35.7244 250.757 34.982C251.616 34.4748 252.536 34.2156 253.401 34.2156C253.898 34.2156 254.377 34.301 254.816 34.4743C254.915 34.6092 255.015 34.7463 255.113 34.8828C255.111 34.8871 255.11 34.8908 255.107 34.8946C255.063 34.9932 254.967 35.0519 254.865 35.0519C254.828 35.0519 254.791 35.0439 254.754 35.0274C254.342 34.8396 253.882 34.7474 253.4 34.7474C252.63 34.7474 251.804 34.9826 251.028 35.4412C249.845 36.1394 248.899 37.2343 248.066 38.2002C248.013 38.2615 247.939 38.293 247.864 38.293Z" fill="#009B9A"/>
<path d="M253.74 45.8223C253.658 45.8223 253.578 45.786 253.526 45.7161C253.438 45.5983 253.462 45.4308 253.58 45.3428C254.32 44.7871 255.189 44.3849 256.094 44.1801C256.113 44.1759 256.134 44.1732 256.153 44.1732C256.276 44.1732 256.384 44.258 256.413 44.3817C256.445 44.5252 256.355 44.6681 256.212 44.7007C255.38 44.8889 254.581 45.258 253.899 45.7689C253.852 45.8052 253.795 45.8223 253.74 45.8223Z" fill="#009B9A"/>
<path d="M216.377 33.9307C216.273 33.9307 216.173 33.8688 216.131 33.7659C215.897 33.1995 215.71 32.6187 215.529 32.0565C215.199 31.0272 214.886 30.0549 214.304 29.1499C213.29 27.576 211.734 26.6325 210.344 25.9173C210.213 25.8501 210.161 25.6891 210.229 25.5579C210.277 25.4661 210.369 25.4128 210.465 25.4128C210.507 25.4128 210.549 25.4229 210.588 25.4432C212.04 26.1909 213.671 27.1819 214.752 28.8613C215.373 29.8251 215.711 30.8763 216.037 31.8933C216.215 32.4453 216.398 33.016 216.624 33.5627C216.68 33.6987 216.615 33.8544 216.48 33.9104L216.377 33.9307Z" fill="#009B9A"/>
<path d="M207.41 38.3105C207.336 38.3105 207.262 38.2802 207.209 38.2204C206.401 37.2993 205.566 36.3474 204.539 35.6668C203.807 35.1826 202.812 34.7788 201.822 34.7788C201.383 34.7788 200.945 34.8583 200.533 35.0455C200.497 35.0615 200.46 35.0695 200.423 35.0695C200.322 35.0695 200.224 35.0108 200.18 34.9121C200.119 34.7783 200.179 34.6199 200.313 34.5596C200.783 34.3468 201.302 34.2423 201.844 34.2423C202.813 34.2423 203.858 34.5762 204.833 35.222C205.919 35.942 206.779 36.9212 207.611 37.8679C207.707 37.9788 207.696 38.1473 207.586 38.2444C207.535 38.2887 207.472 38.3105 207.41 38.3105Z" fill="#009B9A"/>
<path d="M201.543 45.8223C201.487 45.8223 201.431 45.8052 201.383 45.7689C200.702 45.258 199.902 44.8889 199.071 44.7007C198.927 44.6681 198.837 44.5252 198.87 44.3817C198.897 44.258 199.007 44.1737 199.129 44.1737C199.149 44.1737 199.169 44.1759 199.189 44.1801C200.093 44.3849 200.962 44.7871 201.703 45.3428C201.821 45.4308 201.845 45.5983 201.757 45.7161C201.704 45.786 201.624 45.8223 201.543 45.8223Z" fill="#009B9A"/>
<path d="M251.685 67.9894L249.844 67.9766L249.896 60.7915C247.803 59.6065 242.788 55.9995 242.264 56.0683C219.083 59.1169 216.168 47.7233 216.168 47.7233C215.837 55.5777 209.521 57.0001 205.255 57.0582C205.272 56.7174 205.299 56.3793 205.334 56.0422C205.268 56.6897 205.227 57.3441 205.223 58.007L205.206 60.3222V60.3227L205.152 67.6491L204.446 67.6438C200.344 67.6139 196.995 70.9147 196.965 75.0161C196.935 79.1179 200.235 82.4667 204.337 82.4966L205.043 82.5019L205.029 84.5606C204.978 91.3297 208.17 97.3915 213.2 101.381L213.095 115.834C213.039 123.497 219.262 129.811 226.924 129.868C234.586 129.924 240.901 123.7 240.958 116.038L241.062 101.766C246.286 97.8566 249.67 91.7627 249.72 84.8875L249.735 82.8294L251.576 82.8427C255.678 82.8726 259.027 79.5723 259.057 75.4705C259.087 71.3691 255.787 68.0198 251.685 67.9894Z" fill="#FFAC79"/>
<path d="M227.951 112.073C227.317 112.073 226.673 112.016 226.026 111.897C222.794 111.3 220.178 109.291 218.699 106.625C221.092 107.419 223.891 107.89 227.166 107.923C227.284 107.925 227.401 107.926 227.517 107.926C231.506 107.926 234.782 107.226 237.473 106.061C235.738 109.701 232.03 112.073 227.951 112.073Z" fill="#FF905B"/>
<path d="M216.699 39.332C216.866 39.2424 217.033 39.1523 217.201 39.0664C217.033 39.1523 216.866 39.2424 216.699 39.332Z" fill="#FFAC79"/>
<path d="M218.625 38.4092C218.794 38.3377 218.962 38.2657 219.133 38.1985C218.962 38.2657 218.794 38.3377 218.625 38.4092Z" fill="#FFAC79"/>
<path d="M217.645 38.8486C217.812 38.7681 217.98 38.687 218.151 38.6108C217.98 38.687 217.812 38.7681 217.645 38.8486Z" fill="#FFAC79"/>
<path d="M214.879 40.4229C215.043 40.3141 215.206 40.2058 215.372 40.1007C215.206 40.2058 215.043 40.3141 214.879 40.4229Z" fill="#FFAC79"/>
<path d="M215.777 39.8564C215.942 39.7578 216.106 39.6591 216.274 39.5642C216.106 39.6591 215.942 39.7578 215.777 39.8564Z" fill="#FFAC79"/>
<path d="M211.625 43.0645C211.777 42.9151 211.931 42.7669 212.087 42.6218C211.931 42.7669 211.777 42.9151 211.625 43.0645Z" fill="#FFAC79"/>
<path d="M214.016 41.0273C214.177 40.9084 214.339 40.7906 214.503 40.6759C214.339 40.7906 214.177 40.9084 214.016 41.0273Z" fill="#FFAC79"/>
<path d="M212.387 42.3496C212.542 42.2104 212.699 42.0728 212.859 41.9379C212.699 42.0728 212.542 42.2104 212.387 42.3496Z" fill="#FFAC79"/>
<path d="M213.184 41.6709C213.343 41.5418 213.502 41.4138 213.665 41.289C213.502 41.4138 213.343 41.5418 213.184 41.6709Z" fill="#FFAC79"/>
<path d="M225.02 36.7539C225.169 36.7379 225.319 36.7176 225.47 36.7038C225.319 36.7176 225.169 36.7379 225.02 36.7539Z" fill="#FFAC79"/>
<path d="M226.207 36.6553C226.334 36.6478 226.461 36.6361 226.589 36.6307C226.461 36.6361 226.334 36.6478 226.207 36.6553Z" fill="#FFAC79"/>
<path d="M210.902 43.8125C211.05 43.6525 211.2 43.4946 211.353 43.3389C211.2 43.4946 211.05 43.6525 210.902 43.8125Z" fill="#FFAC79"/>
<path d="M222.278 78.7588C217.778 81.3188 210.626 84.0307 204.806 82.4435C204.806 82.4435 202.46 107.673 227.168 107.923C251.531 108.171 249.73 82.6302 249.73 82.6302C249.73 82.6302 242.062 82.2147 234.044 78.4441C230.273 76.6702 225.9 76.6974 222.278 78.7588Z" fill="white"/>
<path d="M237.022 82.9756C236.976 82.9756 236.929 82.9639 236.887 82.9383C236.843 82.9121 232.513 80.3703 228.942 80.0785C228.942 79.9308 228.823 79.8119 228.675 79.8119C228.536 79.8119 228.422 79.918 228.41 80.054C228.396 80.054 228.383 80.054 228.369 80.054C224.798 80.054 220.059 82.9073 220.01 82.9372L219.872 82.9756C219.782 82.9756 219.694 82.9297 219.644 82.8471C219.568 82.7212 219.608 82.5569 219.734 82.4807C219.941 82.3559 224.678 79.5212 228.375 79.5212C228.505 79.5212 228.633 79.5244 228.761 79.5319C232.501 79.7431 236.97 82.3676 237.159 82.4796C237.285 82.5543 237.327 82.718 237.253 82.8449C237.202 82.9287 237.114 82.9756 237.022 82.9756Z" fill="#E1EBF1"/>
<path d="M228.673 88.9033C228.525 88.9033 228.406 88.7844 228.406 88.6367V80.0793C228.406 80.0708 228.406 80.0628 228.407 80.0548C228.42 79.9188 228.534 79.8127 228.673 79.8127C228.82 79.8127 228.94 79.9316 228.94 80.0793V88.6367C228.94 88.7844 228.82 88.9033 228.673 88.9033Z" fill="#E1EBF1"/>
<path d="M235.132 92.8174H235.121L221.612 92.2659C221.464 92.2601 221.35 92.1358 221.356 91.9886C221.362 91.843 221.485 91.7331 221.629 91.7331C221.63 91.7331 221.632 91.7331 221.633 91.7331L235.143 92.2846C235.29 92.2905 235.405 92.4147 235.399 92.5619C235.392 92.7054 235.275 92.8174 235.132 92.8174Z" fill="#F5F8FA"/>
<path d="M234.609 96.9736H234.598L221.088 96.4222C220.941 96.4163 220.826 96.292 220.832 96.1448C220.839 96.004 220.958 95.8888 221.091 95.8888C221.097 95.8888 221.104 95.8888 221.11 95.8894L234.62 96.4408C234.767 96.4467 234.881 96.571 234.876 96.7182C234.87 96.8616 234.751 96.9736 234.609 96.9736Z" fill="#F5F8FA"/>
<path d="M223.887 36.9062C224.046 36.8807 224.205 36.8518 224.365 36.8294C224.205 36.8518 224.046 36.8807 223.887 36.9062Z" fill="#FFAC79"/>
<path d="M222.785 37.1094C222.949 37.0747 223.113 37.0374 223.278 37.0064C223.113 37.0374 222.949 37.0747 222.785 37.1094Z" fill="#FFAC79"/>
<path d="M219.629 38.0137C219.797 37.9523 219.965 37.8889 220.136 37.8307C219.965 37.8889 219.797 37.9523 219.629 38.0137Z" fill="#FFAC79"/>
<path d="M220.656 37.6641C220.824 37.6113 220.991 37.5569 221.16 37.5083C220.991 37.5569 220.824 37.6113 220.656 37.6641Z" fill="#FFAC79"/>
<path d="M221.715 37.3633C221.882 37.3195 222.047 37.2737 222.216 37.2332C222.047 37.2737 221.882 37.3195 221.715 37.3633Z" fill="#FFAC79"/>
<path d="M205.48 54.918C205.527 54.6156 205.583 54.3164 205.643 54.0182C205.583 54.3164 205.527 54.6156 205.48 54.918Z" fill="#FFAC79"/>
<path d="M205.34 55.9814C205.373 55.6614 205.415 55.3436 205.463 55.0278C205.415 55.3436 205.373 55.6614 205.34 55.9814Z" fill="#FFAC79"/>
<path d="M205.91 52.8438C205.983 52.5691 206.062 52.2981 206.144 52.0283C206.062 52.2981 205.983 52.5691 205.91 52.8438Z" fill="#FFAC79"/>
<path d="M205.668 53.8711C205.728 53.5836 205.797 53.2988 205.869 53.0156C205.796 53.2988 205.728 53.5836 205.668 53.8711Z" fill="#FFAC79"/>
<path d="M216.167 47.7237C216.167 47.7237 219.083 59.1173 242.263 56.0688C242.787 56 247.803 59.6069 249.896 60.792L249.914 58.3344C250.001 46.4272 240.067 36.7019 227.725 36.6112C227.345 36.6085 226.966 36.6155 226.59 36.6309C226.462 36.6363 226.336 36.648 226.208 36.6555C225.961 36.6693 225.714 36.6821 225.47 36.704C225.319 36.7179 225.17 36.7381 225.02 36.7541C224.801 36.7781 224.582 36.8 224.365 36.8299C224.205 36.8523 224.046 36.8811 223.887 36.9067C223.683 36.9387 223.479 36.9691 223.278 37.0069C223.112 37.0379 222.949 37.0752 222.785 37.1099C222.592 37.1504 222.4 37.1883 222.21 37.2331C222.041 37.2736 221.876 37.3195 221.709 37.3632C221.525 37.4107 221.342 37.4565 221.161 37.5088C220.992 37.5573 220.825 37.6117 220.657 37.6645C220.483 37.7195 220.307 37.7723 220.134 37.8309C219.964 37.8891 219.796 37.9525 219.628 38.0139C219.462 38.0752 219.296 38.1344 219.131 38.1989C218.96 38.2661 218.792 38.3381 218.623 38.4096C218.465 38.4757 218.307 38.5413 218.152 38.6112C217.981 38.6875 217.813 38.7685 217.645 38.8491C217.496 38.9205 217.345 38.9915 217.197 39.0661C217.029 39.152 216.862 39.2421 216.696 39.3317C216.553 39.4085 216.41 39.4843 216.269 39.5637C216.102 39.6587 215.938 39.7573 215.773 39.856C215.638 39.9371 215.504 40.0171 215.371 40.1003C215.205 40.2053 215.042 40.3136 214.878 40.4224C214.753 40.5061 214.627 40.5899 214.502 40.6763C214.338 40.7909 214.176 40.9088 214.015 41.0277C213.898 41.1141 213.78 41.2005 213.665 41.2891C213.502 41.4139 213.342 41.5419 213.184 41.6709C213.075 41.7595 212.966 41.848 212.859 41.9381C212.699 42.0731 212.542 42.2107 212.387 42.3499C212.285 42.44 212.185 42.5301 212.086 42.6219C211.93 42.7669 211.776 42.9152 211.624 43.0645C211.531 43.1552 211.439 43.2464 211.348 43.3387C211.196 43.4944 211.045 43.6523 210.898 43.8123C210.813 43.9035 210.729 43.9952 210.646 44.0875C210.498 44.2539 210.352 44.4224 210.208 44.5931C210.132 44.6837 210.057 44.7749 209.982 44.8661C209.838 45.0437 209.697 45.2229 209.558 45.4048C209.49 45.4939 209.422 45.584 209.356 45.6747C209.217 45.8629 209.081 46.0528 208.948 46.2453C208.888 46.3333 208.828 46.4219 208.769 46.5109C208.636 46.7099 208.506 46.9104 208.38 47.1141C208.326 47.2 208.275 47.2864 208.222 47.3739C208.097 47.5835 207.973 47.7952 207.854 48.0096C207.808 48.0928 207.763 48.1771 207.718 48.2608C207.6 48.4821 207.483 48.7045 207.372 48.9307C207.333 49.0107 207.296 49.0917 207.257 49.1728C207.146 49.4053 207.038 49.6389 206.936 49.8757C206.903 49.9515 206.873 50.0283 206.84 50.1045C206.738 50.3493 206.639 50.5952 206.546 50.8443C206.52 50.9147 206.495 50.9867 206.469 51.0571C206.377 51.3141 206.286 51.5723 206.204 51.8336C206.184 51.8981 206.165 51.9637 206.145 52.0283C206.062 52.2981 205.983 52.5691 205.91 52.8437C205.896 52.9008 205.882 52.9584 205.868 53.016C205.796 53.2992 205.728 53.584 205.668 53.8715C205.658 53.92 205.65 53.9696 205.64 54.0187C205.579 54.3168 205.523 54.616 205.477 54.9184L205.461 55.0277C205.413 55.3435 205.371 55.6613 205.338 55.9813L205.333 56.0427C205.299 56.3797 205.272 56.7179 205.254 57.0587C209.52 57.0005 215.836 55.5781 216.167 47.7237Z" fill="#012C2D"/>
<path d="M253.269 78.2725C253.143 78.2725 253.016 78.2277 252.914 78.137L250.746 76.1999L253.626 72.9535C253.821 72.7333 254.159 72.7135 254.379 72.9087C254.599 73.1045 254.619 73.441 254.424 73.6618L252.249 76.1125L253.624 77.3418C253.844 77.5375 253.863 77.8746 253.667 78.0943C253.562 78.2122 253.415 78.2725 253.269 78.2725Z" fill="#FF755F"/>
<path d="M201.833 78.0381C201.684 78.0381 201.536 77.9757 201.43 77.8541C201.238 77.6311 201.262 77.2946 201.484 77.1015L202.878 75.893L200.739 73.4109C200.546 73.1874 200.571 72.8509 200.795 72.6583C201.017 72.4663 201.354 72.4909 201.547 72.7143L204.379 76.0023L202.183 77.9074C202.082 77.9949 201.958 78.0381 201.833 78.0381Z" fill="#FF755F"/>
<path d="M224.107 72.8426C223.025 71.0794 221.206 69.0164 218.513 68.6527C217.931 68.5738 217.314 68.5647 216.65 68.666C212.614 69.2767 211.515 72.2788 211.238 74.3039C211.211 74.498 211.189 74.6863 211.176 74.8596C211.118 75.6202 211.677 76.289 212.435 76.3818C213.387 76.4986 214.82 76.6308 216.5 76.6543C215.582 75.9295 215.001 74.8623 215.005 73.6708C215.013 71.497 216.957 69.7418 219.348 69.7503C221.739 69.7588 223.671 71.5279 223.663 73.7012C223.66 74.6292 223.301 75.4788 222.708 76.1498C224.175 75.8314 224.898 74.1311 224.107 72.8426Z" fill="white"/>
<path d="M219.355 69.7495C216.964 69.741 215.019 71.4962 215.012 73.67C215.007 74.8615 215.589 75.9287 216.506 76.6535C218.355 76.6796 220.505 76.5735 222.66 76.1628L222.715 76.149C223.308 75.478 223.666 74.6284 223.67 73.7004C223.678 71.5271 221.746 69.758 219.355 69.7495Z" fill="#012C2D"/>
<path d="M244.535 74.4076C244.257 72.3825 243.159 69.3804 239.124 68.7692C238.459 68.6684 237.841 68.6769 237.26 68.7559C234.567 69.1201 232.749 71.1825 231.665 72.9457C230.864 74.2508 231.614 75.9804 233.118 76.2668C234.225 76.478 235.329 76.6071 236.393 76.6807C235.54 75.9649 235 74.9441 234.996 73.8044C234.989 71.6311 236.92 69.8625 239.311 69.8535C241.702 69.8455 243.647 71.6007 243.654 73.774C243.659 74.8764 243.161 75.8732 242.361 76.5905C242.724 76.5559 243.054 76.5201 243.338 76.4855C244.095 76.3921 244.655 75.7233 244.597 74.9633C244.583 74.79 244.561 74.6017 244.535 74.4076Z" fill="white"/>
<path d="M243.655 73.7734C243.647 71.6001 241.703 69.8449 239.312 69.8529C236.921 69.8619 234.989 71.6305 234.996 73.8038C235 74.9435 235.54 75.9643 236.393 76.6801C238.725 76.8422 240.855 76.7329 242.361 76.5899C243.162 75.8726 243.659 74.8758 243.655 73.7734Z" fill="#012C2D"/>
<path d="M228.424 77.4883C228.129 77.4883 227.891 77.2493 227.891 76.9549V64.931C227.891 64.6365 228.129 64.3982 228.424 64.3982C228.719 64.3982 228.957 64.6365 228.957 64.931V76.9549C228.957 77.2493 228.719 77.4883 228.424 77.4883Z" fill="#FF755F"/>
<path d="M233.589 68.5458C234.263 68.8253 235.126 68.7234 235.967 68.6738C236.812 68.6055 237.661 68.5581 238.402 68.5437C239.144 68.5282 239.995 68.541 240.842 68.5751C241.684 68.5906 242.555 68.6573 243.209 68.3506C243.839 68.0637 244.083 67.2749 243.312 66.3271C242.587 65.4034 240.717 64.421 238.263 64.4647C235.811 64.5207 234.01 65.5773 233.348 66.5287C232.643 67.5079 232.94 68.2855 233.589 68.5458Z" fill="#012C2D"/>
<path d="M249.848 68.0732H252.92V61.5659H249.848V68.0732Z" fill="#6FBDBD"/>
<path d="M245.978 79.834H237.354C236.269 79.4308 235.158 78.97 234.039 78.4441C233.225 78.0612 232.383 77.7625 231.527 77.5497C230.527 76.4862 229.928 75.13 229.928 73.6521C229.928 73.1273 229.517 72.6857 228.958 72.5545V64.9311C228.958 64.6367 228.719 64.3983 228.424 64.3983C228.129 64.3983 227.891 64.6367 227.891 64.9311V72.5151H226.707C225.981 72.5151 225.391 73.0244 225.391 73.6521C225.391 76.9929 222.26 79.7007 218.398 79.7007H206.003C205.284 79.7007 204.601 79.5695 203.984 79.3321C203.99 79.3241 203.996 79.3161 204.001 79.3071L212.807 65.4708C213.453 65.466 214.16 65.1993 214.859 64.9753C215.286 64.8276 215.716 64.6857 216.133 64.5551L207.109 78.7342C206.951 78.9833 207.024 79.3129 207.273 79.4708C207.362 79.5273 207.461 79.5545 207.559 79.5545C207.735 79.5545 207.908 79.4671 208.009 79.3071L211.253 74.2105C211.248 74.242 211.244 74.2729 211.239 74.3033C211.212 74.4975 211.19 74.6857 211.177 74.8591C211.119 75.6196 211.679 76.2884 212.436 76.3812C213.389 76.498 214.822 76.6303 216.501 76.6537C216.673 76.6564 216.847 76.6574 217.024 76.6574C218.749 76.6574 220.7 76.5358 222.655 76.163L222.71 76.1492C224.177 75.8308 224.899 74.1305 224.108 72.842C223.026 71.0788 221.207 69.0159 218.515 68.6521C218.227 68.6132 217.931 68.5913 217.625 68.5913C217.311 68.5913 216.987 68.6143 216.651 68.6655C215.716 68.8068 214.939 69.0767 214.293 69.4329L217.683 64.106C218.293 63.946 218.963 63.7876 219.633 63.6436C220.465 63.4462 221.336 63.2927 221.909 62.8239C222.27 62.5353 222.421 62.0772 222.211 61.5871L247.285 61.5684L243.747 67.1279C243.681 66.8815 243.542 66.6116 243.31 66.3273C242.6 65.4239 240.795 64.4633 238.419 64.4633C238.366 64.4633 238.314 64.4639 238.261 64.4649C235.809 64.5209 234.008 65.5775 233.346 66.5289C232.641 67.5081 232.938 68.2857 233.588 68.546C233.937 68.6916 234.34 68.7337 234.763 68.7337C235.153 68.7337 235.561 68.698 235.965 68.674C236.81 68.6057 237.66 68.5583 238.4 68.5439C238.611 68.5396 238.832 68.5374 239.059 68.5374C239.627 68.5374 240.235 68.5508 240.84 68.5753C241.133 68.5806 241.428 68.5919 241.717 68.5919C242.134 68.5919 242.537 68.5679 242.896 68.466L242.005 69.866C241.267 69.3471 240.324 68.9513 239.119 68.7689C238.783 68.7177 238.459 68.6948 238.145 68.6948C237.839 68.6948 237.543 68.7167 237.255 68.7556C234.563 69.1199 232.744 71.1823 231.661 72.9455C230.86 74.2505 231.61 75.9801 233.114 76.2665C234.221 76.4777 235.325 76.6068 236.389 76.6804C236.809 76.7097 237.223 76.73 237.628 76.7433L236.361 78.7342C236.203 78.9833 236.277 79.3129 236.525 79.4708C236.614 79.5273 236.713 79.5545 236.811 79.5545C236.987 79.5545 237.16 79.4671 237.261 79.3071L238.881 76.7609C240.216 76.7566 241.409 76.6804 242.357 76.5902C242.719 76.5556 243.05 76.5198 243.334 76.4852C244.091 76.3918 244.651 75.723 244.592 74.963C244.579 74.7897 244.557 74.6015 244.531 74.4073C244.37 73.2377 243.936 71.7428 242.821 70.57L248.233 62.0644C248.332 61.9103 248.341 61.7241 248.274 61.5679L249.889 61.5663L249.845 67.7012L242.823 78.7342C242.665 78.9833 242.739 79.3129 242.987 79.4708C243.076 79.5273 243.175 79.5545 243.273 79.5545C243.449 79.5545 243.622 79.4671 243.723 79.3071L250.929 67.9844L251.684 67.9897C252.045 67.9924 252.399 68.0207 252.746 68.0729L252.561 74.1471L250.74 76.1999L251.657 77.0201C250.513 78.706 248.395 79.834 245.978 79.834ZM219.328 69.7497C219.33 69.7497 219.332 69.7497 219.333 69.7497C219.332 69.7497 219.33 69.7497 219.328 69.7497Z" fill="#E7D3BB"/>
<path d="M237.358 79.834H237.08C234.841 79.834 232.842 78.9438 231.531 77.5497C232.387 77.7625 233.229 78.0612 234.043 78.4441C235.162 78.97 236.273 79.4308 237.358 79.834Z" fill="#E7FAFA"/>
<path d="M251.664 77.0205L250.746 76.2002L252.567 74.1474L252.563 74.293C252.533 75.2877 252.209 76.2173 251.664 77.0205Z" fill="#E7B9AF"/>
<path d="M212.809 65.4707L215.035 61.9715C215.11 61.8542 215.133 61.7192 215.111 61.5923L218.021 61.5902L216.134 64.555C215.717 64.6856 215.288 64.8275 214.86 64.9752C214.162 65.1992 213.454 65.4659 212.809 65.4707ZM217.685 64.1059L219.043 61.9715C219.118 61.8531 219.141 61.7171 219.118 61.5896L222.213 61.587C222.422 62.0771 222.272 62.5352 221.91 62.8238C221.338 63.2926 220.467 63.4462 219.635 63.6435C218.964 63.7875 218.295 63.9459 217.685 64.1059Z" fill="#709697"/>
<path d="M216.5 76.6543C214.82 76.6308 213.387 76.4986 212.435 76.3818C211.677 76.289 211.118 75.6202 211.176 74.8596C211.189 74.6863 211.211 74.498 211.238 74.3039C211.242 74.2735 211.246 74.2426 211.251 74.2111L214.292 69.4335C214.938 69.0772 215.715 68.8074 216.65 68.666C216.986 68.6148 217.31 68.5919 217.623 68.5919C217.93 68.5919 218.226 68.6138 218.513 68.6527C221.206 69.0164 223.025 71.0794 224.107 72.8426C224.898 74.1311 224.175 75.8314 222.708 76.1498C223.301 75.4788 223.66 74.6292 223.663 73.7012C223.663 73.697 223.663 73.6927 223.663 73.6884C223.663 71.521 221.734 69.7588 219.348 69.7503C219.343 69.7503 219.337 69.7503 219.332 69.7503C219.33 69.7503 219.329 69.7503 219.327 69.7503C216.946 69.7524 215.013 71.5034 215.005 73.6708C215.005 73.6751 215.005 73.6799 215.005 73.6847C215.005 74.8703 215.586 75.9322 216.5 76.6543Z" fill="#E7FAFA"/>
<path d="M234.996 73.791C234.997 71.6235 236.926 69.862 239.312 69.8529C239.318 69.8529 239.323 69.8529 239.329 69.8529C239.323 69.8529 239.318 69.8529 239.312 69.8529C236.926 69.862 234.997 71.6235 234.996 73.791ZM243.655 73.7862C243.655 73.782 243.655 73.7777 243.655 73.7734C243.651 72.7393 243.209 71.7996 242.489 71.0998C243.209 71.7996 243.651 72.7393 243.655 73.7734C243.655 73.7777 243.655 73.782 243.655 73.7862ZM241.633 70.4571C240.967 70.0747 240.178 69.854 239.334 69.8529C240.178 69.854 240.967 70.0747 241.633 70.4566V70.4571Z" fill="#E7D3BB"/>
<path d="M217.029 76.6572C216.852 76.6572 216.678 76.6562 216.506 76.6535C215.592 75.9314 215.012 74.8695 215.012 73.6839C215.012 73.6791 215.012 73.6743 215.012 73.67C215.019 71.5026 216.952 69.7516 219.333 69.7495C219.335 69.7495 219.337 69.7495 219.338 69.7495C219.343 69.7495 219.349 69.7495 219.355 69.7495C221.741 69.758 223.67 71.5202 223.67 73.6876C223.67 73.6919 223.67 73.6962 223.67 73.7004C223.666 74.6284 223.308 75.478 222.715 76.149L222.66 76.1628C220.705 76.5356 218.754 76.6572 217.029 76.6572Z" fill="#709697"/>
<path d="M228.957 72.5547C228.847 72.5291 228.731 72.5152 228.612 72.5152H227.891V64.9312C227.891 64.6368 228.129 64.3984 228.424 64.3984C228.719 64.3984 228.957 64.6368 228.957 64.9312V72.5547Z" fill="#E7B9AF"/>
<path d="M234.764 68.7334C234.341 68.7334 233.939 68.6913 233.589 68.5457C232.94 68.2854 232.643 67.5078 233.348 66.5286C234.01 65.5771 235.811 64.5206 238.263 64.4646C238.316 64.4635 238.368 64.463 238.42 64.463C240.797 64.463 242.602 65.4235 243.312 66.327C243.544 66.6113 243.683 66.8811 243.749 67.1275L242.898 68.4657C242.539 68.5675 242.136 68.5915 241.719 68.5915C241.43 68.5915 241.135 68.5803 240.842 68.575C240.237 68.5505 239.629 68.5371 239.06 68.5371C238.834 68.5371 238.613 68.5393 238.402 68.5435C237.661 68.5579 236.812 68.6054 235.967 68.6737C235.563 68.6977 235.155 68.7334 234.764 68.7334Z" fill="#709697"/>
<path d="M201.027 68.4482V63.18C201.027 62.3085 201.844 61.6024 202.851 61.6013L205.197 61.5997L205.153 67.6493L204.447 67.644C204.428 67.644 204.409 67.644 204.391 67.644C203.181 67.644 202.037 67.9336 201.027 68.4482Z" fill="#6FBDBD"/>
<path d="M203.046 78.8584C202.665 78.6147 202.326 78.3245 202.04 77.9987C202.092 77.9773 202.141 77.9469 202.187 77.908L204.383 76.0029L201.551 72.7149C201.445 72.5923 201.296 72.5299 201.146 72.5299C201.106 72.5299 201.066 72.5341 201.027 72.5432V68.4488C202.037 67.9341 203.181 67.6445 204.391 67.6445C204.409 67.6445 204.428 67.6445 204.447 67.6445L205.153 67.6499L205.197 61.6003L213.379 61.5944C212.561 62.2232 212.02 62.9251 211.79 63.516C211.509 64.2035 211.566 64.7283 211.807 65.0584L203.104 78.7347C203.079 78.7741 203.059 78.8157 203.046 78.8584ZM201.451 77.1373C201.179 76.6051 201.027 76.0157 201.027 75.3965V73.7421L202.881 75.8936L201.488 77.1021C201.475 77.1133 201.463 77.1251 201.451 77.1373Z" fill="#E7D3BB"/>
<path d="M202.04 77.998C201.807 77.733 201.609 77.4444 201.451 77.1367C201.463 77.1244 201.475 77.1127 201.488 77.1015L202.881 75.893L201.027 73.7415V72.5426C201.066 72.5335 201.106 72.5292 201.146 72.5292C201.296 72.5292 201.445 72.5916 201.551 72.7143L204.383 76.0023L202.187 77.9074C202.141 77.9463 202.092 77.9767 202.04 77.998Z" fill="#E7B9AF"/>
<path d="M211.803 65.0576C211.562 64.7275 211.505 64.2027 211.786 63.5152C212.016 62.9243 212.557 62.2224 213.375 61.5936L214.008 61.5931L211.803 65.0576Z" fill="#709697"/>
<path d="M218.02 61.5908L218.142 61.3994C218.243 61.2394 218.416 61.1524 218.592 61.1524C218.69 61.1524 218.789 61.1791 218.878 61.2356C219.008 61.3183 219.09 61.449 219.116 61.5903L218.02 61.5908Z" fill="#6C8585"/>
<path d="M207.56 79.5547C207.462 79.5547 207.364 79.5275 207.275 79.471C207.026 79.3131 206.952 78.9835 207.111 78.7344L216.134 64.5552C216.513 64.4363 216.881 64.327 217.227 64.2304C217.374 64.1888 217.527 64.1478 217.685 64.1062L214.295 69.4331C212.195 70.5915 211.482 72.664 211.254 74.2107L208.011 79.3072C207.909 79.4672 207.736 79.5547 207.56 79.5547Z" fill="#F1E5D8"/>
<path d="M216.137 64.5547L218.024 61.5899L219.12 61.5893C219.144 61.7168 219.121 61.8528 219.046 61.9712L217.687 64.1056C217.53 64.1472 217.377 64.1883 217.229 64.2299C216.883 64.3264 216.515 64.4358 216.137 64.5547Z" fill="#ACC2C3"/>
<path d="M211.254 74.2109C211.482 72.6643 212.194 70.5917 214.294 69.4333L211.254 74.2109Z" fill="#F1FCFC"/>
<path d="M203.549 79.5547C203.451 79.5547 203.352 79.5275 203.263 79.471C203.054 79.3382 202.968 79.0838 203.041 78.8582C203.332 79.0443 203.648 79.2038 203.982 79.3323C203.879 79.4763 203.715 79.5547 203.549 79.5547Z" fill="#FFCFB1"/>
<path d="M214.012 61.5938L214.135 61.3991C214.237 61.2391 214.41 61.1521 214.586 61.1521C214.684 61.1521 214.783 61.1788 214.872 61.2354C215.003 61.3191 215.086 61.4503 215.111 61.5927L214.012 61.5938Z" fill="#6C8585"/>
<path d="M203.984 79.332C203.649 79.2035 203.334 79.044 203.043 78.8579C203.056 78.8152 203.076 78.7736 203.101 78.7342L211.804 65.0579C211.966 65.2787 212.209 65.4126 212.489 65.4499C212.588 65.4643 212.687 65.4707 212.789 65.4707C212.795 65.4707 212.8 65.4707 212.806 65.4707L204.001 79.307C203.995 79.316 203.99 79.324 203.984 79.332Z" fill="#F1E5D8"/>
<path d="M212.794 65.4707C212.692 65.4707 212.592 65.4643 212.493 65.4499C212.213 65.4126 211.97 65.2787 211.809 65.0579L214.014 61.5934L215.113 61.5923C215.136 61.7192 215.112 61.8542 215.037 61.9715L212.811 65.4707C212.805 65.4707 212.8 65.4707 212.794 65.4707Z" fill="#ACC2C3"/>
<path d="M250.93 67.9844L249.844 67.9769L249.846 67.7012L251.789 64.6473C251.891 64.4878 252.063 64.4009 252.239 64.4009C252.338 64.4009 252.437 64.4276 252.525 64.4841C252.774 64.642 252.847 64.9716 252.689 65.2206L250.93 67.9844Z" fill="#ABD9D9"/>
<path d="M243.279 79.5547C243.181 79.5547 243.082 79.5275 242.993 79.471C242.745 79.3131 242.671 78.9835 242.83 78.7344L249.851 67.7014L249.849 67.9771L250.935 67.9846L243.729 79.3072C243.628 79.4672 243.455 79.5547 243.279 79.5547Z" fill="#F1E5D8"/>
<path d="M247.285 61.5684L247.334 61.4916C247.436 61.3321 247.608 61.2452 247.784 61.2452C247.882 61.2452 247.981 61.2718 248.07 61.3284C248.164 61.3881 248.233 61.4724 248.274 61.5678L247.285 61.5684Z" fill="#FFCFB1"/>
<path d="M236.814 79.5547C236.716 79.5547 236.617 79.5275 236.528 79.471C236.28 79.3131 236.206 78.9835 236.365 78.7344L237.631 76.7435C238.02 76.7558 238.401 76.7616 238.77 76.7616C238.809 76.7616 238.846 76.7616 238.885 76.7611L237.265 79.3072C237.163 79.4672 236.99 79.5547 236.814 79.5547ZM242.487 71.1003C242.234 70.8544 241.947 70.6379 241.632 70.4576V70.4571C241.947 70.6379 242.234 70.8544 242.487 71.1003ZM242.825 70.5702C242.585 70.319 242.314 70.0816 242.008 69.8662L242.899 68.4662C243.007 68.4352 243.111 68.3974 243.21 68.351C243.652 68.1504 243.903 67.7035 243.75 67.128L247.289 61.5686L248.277 61.568C248.345 61.7243 248.335 61.9104 248.237 62.0646L242.825 70.5702Z" fill="#F1E5D8"/>
<path d="M242.484 71.1006C242.231 70.8547 241.944 70.6382 241.629 70.4574L242.005 69.8665C242.311 70.0819 242.582 70.3193 242.821 70.5705L242.484 71.1006Z" fill="#F1FCFC"/>
<path d="M238.768 76.7617C238.398 76.7617 238.018 76.7559 237.629 76.7436L241.629 70.4577C241.944 70.638 242.232 70.8545 242.485 71.1004L238.882 76.7612C238.844 76.7617 238.806 76.7617 238.768 76.7617Z" fill="#ACC2C3"/>
<path d="M242.902 68.4658L243.754 67.1277C243.907 67.7031 243.655 68.1501 243.213 68.3506C243.114 68.397 243.01 68.4349 242.902 68.4658Z" fill="#ACC2C3"/>
<path d="M226.705 71.7149H228.61C229.777 71.7149 230.726 72.5842 230.726 73.6525C230.726 76.6194 233.574 79.0338 237.074 79.0338H245.976C249.082 79.0338 251.675 76.8956 251.755 74.2679L252.081 63.5591C252.091 63.2226 251.92 62.9746 251.776 62.8253C251.493 62.533 251.067 62.3655 250.608 62.3655H250.607L202.847 62.4012C202.292 62.4018 201.823 62.7586 201.823 63.1799V75.3959C201.823 77.3287 203.697 78.9005 206.001 78.9005H218.395C221.81 78.9005 224.589 76.5463 224.589 73.6525C224.589 72.5842 225.538 71.7149 226.705 71.7149ZM245.976 80.6338H237.074C232.691 80.6338 229.126 77.5021 229.126 73.6525C229.126 73.493 228.905 73.3149 228.61 73.3149H226.705C226.409 73.3149 226.189 73.493 226.189 73.6525C226.189 77.4285 222.693 80.5005 218.395 80.5005H206.001C202.815 80.5005 200.223 78.2109 200.223 75.3959V63.1799C200.223 61.8695 201.4 60.8023 202.846 60.8013L250.606 60.7655H250.608C251.497 60.7655 252.341 61.1101 252.924 61.7111C253.433 62.2354 253.701 62.909 253.68 63.6077L253.354 74.3165C253.247 77.8589 250.006 80.6338 245.976 80.6338Z" fill="#D2F5F6"/>
<path d="M249.879 65.456L249.859 65.4912L249.862 65.0933L249.879 65.456Z" fill="#B04545"/>
<path d="M226.458 173.902H228.716L243.787 137.356L253.589 112.722L241.285 112.72L227.491 127.651L212.827 112.715L201.582 112.714L211.388 137.356L226.458 173.902Z" fill="#00B7B6"/>
<path d="M253.588 112.722L250.918 112.721L253.588 112.722Z" fill="#D4C5BF"/>
<path d="M228.716 173.902H226.458L211.388 137.356L201.582 112.714L204.252 112.714L211.388 130.645L226.458 167.191H228.716L243.787 130.645L250.919 112.722L253.589 112.722L243.787 137.356L228.716 173.902Z" fill="#00AEAD"/>
<path d="M227.295 135.739C227.191 135.739 227.09 135.697 227.017 135.622L208.041 116.281C207.938 116.176 207.94 116.008 208.044 115.904C208.151 115.801 208.319 115.803 208.422 115.907L227.292 135.142L246.513 114.778C246.614 114.67 246.783 114.665 246.889 114.766C246.996 114.868 247.001 115.036 246.9 115.143L227.577 135.617C227.505 135.694 227.403 135.738 227.298 135.739H227.295Z" fill="white"/>
<path d="M201.309 112.714V112.716C201.4 112.714 201.49 112.715 201.581 112.714H201.309Z" fill="#00B7B6"/>
<path d="M277.61 121.849C270.053 113.242 265.042 112.882 253.589 112.714L253.586 112.722L243.785 137.357L228.713 173.903H226.456L211.385 137.357L201.579 112.714H201.573C201.482 112.715 201.392 112.714 201.3 112.716C200.066 112.731 198.84 112.729 197.629 112.721C183.692 112.631 171.432 121.905 167.734 135.343L150.859 202.377L175.673 202.454V202.491H179.774L193.314 202.609L193.253 202.491H274.218V176.028H283.92L304.515 163.839L277.61 121.849Z" fill="white"/>
<path d="M217.313 167.179C217.238 167.179 217.163 167.147 217.11 167.085L193.963 140.11C193.783 139.9 193.715 139.626 193.778 139.356C193.84 139.085 194.022 138.868 194.276 138.758L202.205 135.338C202.309 135.293 202.379 135.204 202.399 135.093C202.418 134.982 202.382 134.874 202.299 134.796L189.465 122.807C189.251 122.608 189.154 122.316 189.205 122.027C189.255 121.739 189.447 121.498 189.716 121.385L197.635 118.014C197.669 118 197.704 117.993 197.739 117.993C197.842 117.993 197.942 118.054 197.985 118.155C198.043 118.291 197.98 118.447 197.844 118.505L189.924 121.875C189.821 121.92 189.75 122.008 189.73 122.12C189.71 122.231 189.746 122.34 189.829 122.417L202.664 134.407C202.877 134.606 202.974 134.897 202.924 135.185C202.874 135.472 202.684 135.713 202.416 135.828L194.487 139.248C194.391 139.29 194.321 139.373 194.297 139.475C194.274 139.579 194.299 139.683 194.368 139.763L217.515 166.739C217.611 166.85 217.598 167.018 217.486 167.115C217.436 167.157 217.374 167.179 217.313 167.179Z" fill="#D6EAEA"/>
<path d="M236.247 167.179C236.186 167.179 236.124 167.157 236.074 167.115C235.962 167.018 235.949 166.85 236.045 166.739L257.441 141.804C257.387 142.139 257.334 142.473 257.282 142.809L236.45 167.085C236.397 167.147 236.322 167.179 236.247 167.179ZM257.959 138.768L251.143 135.828C250.876 135.712 250.686 135.472 250.636 135.185C250.586 134.897 250.683 134.606 250.896 134.407L260.284 125.637C260.276 125.689 260.268 125.74 260.26 125.791C260.225 126.024 260.189 126.256 260.153 126.489L251.261 134.796C251.178 134.874 251.142 134.982 251.161 135.093C251.181 135.204 251.251 135.293 251.354 135.338L258.055 138.228C258.023 138.408 257.991 138.588 257.959 138.768ZM261.021 120.762L255.716 118.505C255.58 118.447 255.517 118.291 255.574 118.155C255.617 118.054 255.717 117.993 255.82 117.993C255.855 117.993 255.89 118 255.924 118.014L261.103 120.218C261.076 120.4 261.048 120.581 261.021 120.762Z" fill="#D6EAEA"/>
<path d="M264.494 97.8525C263.082 107.166 261.666 116.478 260.259 125.791C258.836 135.21 256.323 144.73 256.217 154.291C256.164 159.191 256.946 164.186 259.208 168.532C262.513 174.885 268.711 179.328 275.337 182.043C280.317 184.084 285.788 185.284 291.098 184.421C299.191 183.106 304.424 176.914 306.373 169.207C308.964 158.966 306.766 148.124 305.027 137.944C303.852 131.06 302.676 124.176 301.5 117.291L301.492 117.243L264.494 97.8525Z" fill="white"/>
<path d="M301.489 117.243L306.399 108.946C314.543 104.01 319.733 91.7781 322.568 82.6533C322.587 82.5914 322.568 82.6533 322.568 82.6533L316.142 80.6858C316.142 80.6858 296.249 38.425 284.26 44.8944C278.821 47.8293 264.297 85.7754 264.993 98.5616L301.489 117.243Z" fill="#00B7B6"/>
<path d="M297.793 99.9873L307.184 85.0881C307.886 85.3948 308.646 85.5537 309.412 85.5537C310.453 85.5537 311.503 85.2604 312.432 84.647C312.411 84.7041 312.389 84.7617 312.368 84.8182C312.12 85.2561 311.935 85.7244 311.814 86.2081C310.641 88.9916 309.132 91.7025 307.63 94.1702C305.422 97.7985 301.781 99.6273 297.793 99.9873ZM278.25 80.1596C279.501 72.4769 284.801 66.8839 288.569 63.7857L278.25 80.1596Z" fill="#009493"/>
<path d="M262.178 99.9136L260.884 106.686C260.599 108.18 261.42 109.664 262.836 110.217L300.869 125.053C302.847 125.825 305.008 124.461 305.162 122.343L305.511 117.553C305.607 116.234 304.871 114.996 303.667 114.45L266.579 97.6325C264.72 96.7893 262.561 97.9077 262.178 99.9136Z" fill="#D2F5F6"/>
<path d="M266.581 97.6328C266.461 97.5784 266.34 97.5325 266.219 97.4941C266.34 97.532 266.461 97.5784 266.581 97.6328Z" fill="#00AAA8"/>
<path d="M304.087 116.312C303.711 116.312 303.327 116.244 302.948 116.096L295.425 113.162L295.483 112.908C295.516 112.764 295.426 112.621 295.283 112.588C295.263 112.583 295.243 112.581 295.223 112.581C295.101 112.581 294.992 112.664 294.963 112.788L294.922 112.966L289.416 110.818C290.205 110.292 290.954 109.684 291.648 108.997L303.674 114.451C304.408 114.783 304.963 115.374 305.267 116.082C304.897 116.231 304.497 116.312 304.087 116.312ZM268.872 102.803L264.916 101.26C263.721 100.794 262.959 99.6629 262.918 98.424C263.514 97.7488 264.381 97.3504 265.29 97.3504C265.599 97.3504 265.914 97.3968 266.224 97.4944C266.346 97.5328 266.467 97.5786 266.587 97.633L268.62 98.5546C268.582 98.9818 268.563 99.408 268.563 99.832C268.563 100.839 268.667 101.835 268.872 102.803Z" fill="#9CD7D7"/>
<path d="M267.372 108.579L267.312 108.572C267.169 108.54 267.08 108.396 267.112 108.252L268.324 102.976C268.353 102.853 268.462 102.769 268.584 102.769C268.604 102.769 268.624 102.771 268.644 102.775C268.787 102.809 268.877 102.952 268.844 103.095L267.632 108.372C267.604 108.496 267.494 108.579 267.372 108.579Z" fill="#B0E2E3"/>
<path d="M273.938 110.995L273.878 110.988C273.735 110.956 273.646 110.812 273.679 110.669L273.7 110.578C273.844 110.688 273.991 110.797 274.141 110.902C274.092 110.96 274.017 110.995 273.938 110.995Z" fill="#B0E2E3"/>
<path d="M287.45 115.852L287.39 115.845C287.247 115.812 287.157 115.669 287.19 115.525L288.091 111.602C288.302 111.492 288.512 111.375 288.718 111.253L287.71 115.645C287.682 115.768 287.572 115.852 287.45 115.852Z" fill="#B0E2E3"/>
<path d="M294.013 118.392L293.953 118.385C293.81 118.352 293.72 118.209 293.753 118.065L294.924 112.966L295.426 113.162L294.273 118.185C294.244 118.308 294.135 118.392 294.013 118.392Z" fill="#B0E2E3"/>
<path d="M295.42 113.161L294.918 112.965L294.959 112.787C294.987 112.664 295.097 112.581 295.219 112.581C295.239 112.581 295.259 112.583 295.279 112.587C295.422 112.62 295.512 112.764 295.479 112.907L295.42 113.161Z" fill="#83C9C9"/>
<path d="M291.649 108.997L287.084 106.927C288.541 106.494 289.894 105.746 291.029 104.707C292.767 103.579 294.325 102.027 295.538 100.103L295.578 100.039C295.818 100.049 296.059 100.054 296.298 100.054C296.802 100.054 297.302 100.032 297.797 99.9875L293.844 106.259C293.204 107.276 292.464 108.191 291.649 108.997ZM273.901 100.949L268.621 98.5544C268.823 96.2504 269.574 93.932 270.913 91.8072L278.254 80.1597C278.079 81.2333 277.983 82.348 277.982 83.5021L275.485 87.4637C274.23 89.4547 273.495 91.6072 273.25 93.7309C273 94.6179 272.878 95.5288 272.878 96.4392C272.878 97.9827 273.229 99.5251 273.901 100.949ZM288.573 63.7859L290.32 61.0136C290.33 61.0307 290.343 61.0403 290.361 61.0403C290.474 61.0403 290.77 60.6648 291.442 59.4205C292.188 58.4035 293.474 57.3864 295.074 56.3816L291.963 61.3176C291.292 61.7405 290.05 62.5715 288.573 63.7859Z" fill="#DBEEEA"/>
<path d="M344.824 25.3604C344.167 25.2441 343.508 25.1331 342.848 25.0281L343.703 23.6718L345.267 24.6579L344.824 25.3604Z" fill="#FDF7F2"/>
<path d="M341.919 29.9756C341.334 29.7447 340.744 29.5228 340.152 29.3095L342.851 25.0279C343.511 25.1329 344.17 25.2439 344.828 25.3601L341.919 29.9756Z" fill="#FDF5F0"/>
<path d="M323.453 59.2754C323.303 58.8002 323.086 58.3383 322.797 57.9031C322.789 57.8914 322.782 57.8797 322.774 57.8679C322.772 57.8653 322.771 57.8631 322.769 57.8605C322.765 57.8541 322.761 57.8477 322.756 57.8418C322.656 57.6941 322.549 57.5533 322.438 57.4189L331.893 42.4157L333.341 43.3453L335.792 39.5266L334.313 38.5762L340.153 29.3101C340.744 29.5234 341.334 29.7453 341.919 29.9762L323.453 59.2754Z" fill="#FDF3EF"/>
<path d="M307.051 37.3662C306.489 37.2606 305.925 37.1865 305.359 37.1401L310.635 28.7699L311.94 29.6083L307.051 37.3662Z" fill="#FDF3EF"/>
<path d="M296.297 100.054C296.058 100.054 295.817 100.049 295.577 100.039L305.64 84.0734C306.099 84.5028 306.624 84.843 307.186 85.0884L297.796 99.9876C297.3 100.032 296.801 100.054 296.297 100.054ZM277.98 83.5022C277.982 82.3481 278.078 81.2334 278.252 80.1598L288.572 63.786C290.049 62.5716 291.291 61.7406 291.962 61.3177L277.98 83.5022Z" fill="#DBE9E5"/>
<path d="M281.569 113.234C279.183 113.234 276.801 112.596 274.674 111.255C274.493 111.142 274.316 111.024 274.143 110.902C274.17 110.871 274.191 110.832 274.2 110.789L275.412 105.512C275.425 105.456 275.419 105.399 275.399 105.35L281.789 107.843L280.637 112.861C280.604 113.005 280.694 113.147 280.837 113.181L280.897 113.187C281.019 113.187 281.129 113.104 281.157 112.981L282.292 108.039L288.365 110.408L288.091 111.602C286.05 112.673 283.808 113.234 281.569 113.234ZM288.719 111.254L288.868 110.605L289.415 110.818C289.186 110.97 288.954 111.115 288.719 111.254ZM273.701 110.578C271.161 108.63 269.516 105.855 268.871 102.803L275.04 105.21C274.968 105.243 274.912 105.309 274.892 105.392L273.701 110.578Z" fill="#F8F6F2"/>
<path d="M289.415 110.817L288.868 110.604L288.922 110.367C288.955 110.224 288.865 110.08 288.722 110.048C288.702 110.043 288.681 110.041 288.662 110.041C288.54 110.041 288.43 110.125 288.402 110.248L288.365 110.408L282.292 108.039L282.369 107.703C282.401 107.56 282.312 107.416 282.168 107.384C282.149 107.379 282.128 107.377 282.109 107.377C281.987 107.377 281.877 107.46 281.849 107.584L281.789 107.842L275.398 105.35C275.366 105.273 275.299 105.212 275.212 105.192C275.192 105.187 275.172 105.185 275.152 105.185C275.112 105.185 275.074 105.193 275.04 105.209L268.871 102.803C268.666 101.834 268.562 100.839 268.563 99.8318C268.563 99.4078 268.581 98.9817 268.619 98.5545L273.899 100.949C274.769 102.795 276.18 104.441 278.065 105.629C279.932 106.806 282.004 107.369 284.027 107.369C285.07 107.369 286.1 107.219 287.082 106.927L291.647 108.997C290.953 109.684 290.205 110.292 289.415 110.817Z" fill="#F0F2EF"/>
<path d="M274.141 110.901C273.991 110.796 273.843 110.688 273.699 110.577L274.89 105.391C274.909 105.308 274.965 105.243 275.038 105.209L275.396 105.349C275.417 105.398 275.423 105.455 275.41 105.511L274.198 110.788C274.188 110.831 274.168 110.87 274.141 110.901Z" fill="#F3F4F0"/>
<path d="M275.394 105.35L275.035 105.209C275.069 105.193 275.108 105.185 275.147 105.185C275.167 105.185 275.187 105.187 275.207 105.192C275.294 105.211 275.362 105.273 275.394 105.35Z" fill="#EDF0EC"/>
<path d="M280.892 113.187L280.832 113.18C280.688 113.147 280.599 113.004 280.632 112.86L281.784 107.843L282.286 108.039L281.151 112.98C281.123 113.103 281.013 113.187 280.892 113.187Z" fill="#F3F4F0"/>
<path d="M282.288 108.039L281.785 107.843L281.845 107.584C281.873 107.46 281.983 107.377 282.105 107.377C282.124 107.377 282.145 107.379 282.164 107.384C282.308 107.417 282.397 107.56 282.365 107.704L282.288 108.039Z" fill="#EDF0EC"/>
<path d="M288.09 111.603L288.364 110.408L288.866 110.605L288.717 111.254C288.51 111.376 288.301 111.492 288.09 111.603Z" fill="#F3F4F0"/>
<path d="M288.862 110.604L288.359 110.408L288.396 110.248C288.424 110.125 288.534 110.041 288.656 110.041C288.676 110.041 288.696 110.043 288.716 110.048C288.859 110.081 288.949 110.224 288.916 110.368L288.862 110.604Z" fill="#EDF0EC"/>
<path d="M313.816 23.7256L322.337 10.2061L323.65 11.0333L315.717 23.62C315.083 23.6509 314.449 23.6867 313.816 23.7256Z" fill="#FDF7F2"/>
<path d="M313.479 25.2002L313.059 24.9303L313.818 23.725C314.451 23.6861 315.085 23.6503 315.719 23.6194L314.732 25.1847C314.315 25.1869 313.897 25.1922 313.479 25.2002Z" fill="#FDF5F0"/>
<path d="M314.366 25.7686L313.48 25.2C313.899 25.192 314.317 25.1867 314.734 25.1846L314.366 25.7686Z" fill="#FDF3EF"/>
<path d="M291.025 104.708C291.66 104.127 292.227 103.454 292.706 102.694L294.431 99.9565C294.814 99.996 295.194 100.024 295.574 100.04L295.534 100.103C294.321 102.028 292.763 103.579 291.025 104.708ZM273.246 93.7315C273.491 91.6078 274.226 89.4552 275.481 87.4643L277.978 83.5027C277.977 83.7123 277.98 83.9245 277.986 84.1373C277.998 84.5379 278.025 84.9336 278.068 85.3229L274.394 91.1528C273.878 91.972 273.497 92.8398 273.246 93.7315ZM291.959 61.3182L295.07 56.3821C295.682 55.9976 296.34 55.6147 297.032 55.2344L293.325 61.116C293.051 61.0739 292.775 61.0328 292.495 60.9928C292.495 60.9928 292.302 61.1022 291.959 61.3182Z" fill="#EBF5F3"/>
<path d="M322.44 57.4189C322.215 57.1491 321.969 56.9059 321.704 56.6893L329.344 44.5667L311.032 33.0259L308.143 37.6099C307.784 37.5149 307.421 37.4339 307.059 37.3661L311.948 29.6083L331.896 42.4157L322.44 57.4189Z" fill="#FEF8F5"/>
<path d="M295.577 100.039C295.197 100.023 294.816 99.9953 294.434 99.9559L304.942 83.2828C305.152 83.5729 305.386 83.8364 305.64 84.0732L295.577 100.039ZM278.071 85.3223C278.028 84.9329 278 84.5372 277.989 84.1367C277.983 83.9239 277.98 83.7116 277.981 83.502L291.962 61.3175C292.304 61.1015 292.498 60.9921 292.498 60.9921C292.778 61.0321 293.054 61.0732 293.327 61.1153L278.071 85.3223ZM306.504 82.7009C306.322 82.4988 306.153 82.2817 305.998 82.0481C305.995 82.0439 305.992 82.0391 305.989 82.0348C305.992 82.0391 305.995 82.0439 305.998 82.0481C306.153 82.2817 306.322 82.4988 306.504 82.7009ZM305.986 82.0305C305.984 82.0273 305.982 82.0241 305.98 82.0209C305.982 82.0241 305.984 82.0273 305.986 82.0305ZM305.977 82.0156C305.975 82.0129 305.973 82.0097 305.971 82.0071C305.973 82.0097 305.975 82.0129 305.977 82.0156ZM305.968 82.0017C305.966 81.9985 305.964 81.9953 305.962 81.9927C305.964 81.9953 305.966 81.9985 305.968 82.0017ZM305.959 81.9879C305.956 81.9836 305.953 81.9788 305.95 81.9745C305.953 81.9788 305.956 81.9836 305.959 81.9879ZM305.948 81.9708C305.946 81.9676 305.944 81.9639 305.942 81.9607C305.944 81.9644 305.946 81.9676 305.948 81.9708ZM305.938 81.9548C305.936 81.9521 305.935 81.95 305.933 81.9473C305.935 81.95 305.936 81.9521 305.938 81.9548ZM305.929 81.9404C305.927 81.9383 305.926 81.9361 305.925 81.9335C305.926 81.9361 305.927 81.9383 305.929 81.9404ZM305.92 81.9265C305.919 81.9244 305.918 81.9228 305.917 81.9207C305.918 81.9228 305.919 81.9249 305.92 81.9265ZM305.898 81.8908C305.897 81.8897 305.896 81.8887 305.896 81.8871C305.896 81.8881 305.897 81.8897 305.898 81.8908ZM305.889 81.8769C305.889 81.8764 305.888 81.8753 305.888 81.8743C305.888 81.8753 305.889 81.8764 305.889 81.8769ZM305.881 81.8636C305.881 81.8631 305.881 81.8625 305.88 81.862C305.881 81.8625 305.881 81.8631 305.881 81.8636Z" fill="#EBF2F0"/>
<path d="M343.707 23.6719L323.652 11.0329L323.657 11.0255L343.711 23.6644L343.707 23.6719Z" fill="#FEF8F4"/>
<path d="M342.851 25.0283C336.154 23.9601 329.312 23.4534 322.506 23.4534C322.352 23.4534 322.198 23.4534 322.045 23.4539C321.783 22.7915 321.287 22.1643 320.781 21.839C320.433 21.6161 320.041 21.5094 319.652 21.5094C318.958 21.5094 318.271 21.8465 317.855 22.4646C317.639 22.7841 317.478 23.1697 317.416 23.5467C316.849 23.5675 316.285 23.5921 315.719 23.6198L323.652 11.0331L343.706 23.6721L342.851 25.0283Z" fill="#FEFAF7"/>
<path d="M317.418 23.5469C317.479 23.1698 317.641 22.7842 317.856 22.4647C318.273 21.8466 318.96 21.5095 319.653 21.5095C320.043 21.5095 320.435 21.6162 320.782 21.8391C321.289 22.1645 321.784 22.7917 322.047 23.4541C320.501 23.4594 318.958 23.4903 317.418 23.5469Z" fill="#FEF9F6"/>
<path d="M340.151 29.3096C334.256 27.188 328.044 25.9362 321.706 25.4365C321.825 25.3682 321.929 25.2717 322.018 25.1405C322.327 24.6813 322.281 24.053 322.044 23.4536C322.197 23.453 322.351 23.453 322.504 23.453C329.311 23.453 336.152 23.9597 342.849 25.028L340.151 29.3096ZM319.652 25.301C318.169 25.2221 316.682 25.1832 315.19 25.1832C315.037 25.1832 314.884 25.1837 314.73 25.1848L315.717 23.6194C316.284 23.5917 316.847 23.5672 317.415 23.5464C317.291 24.3101 317.578 25.0392 318.66 25.1101C318.971 25.1309 319.31 25.212 319.652 25.301Z" fill="#FEF9F6"/>
<path d="M321.705 25.4365C321.023 25.3827 320.336 25.3373 319.651 25.3011C319.309 25.212 318.97 25.1309 318.659 25.1101C317.577 25.0392 317.29 24.3101 317.413 23.5464C318.953 23.4899 320.497 23.4589 322.042 23.4536C322.28 24.0531 322.326 24.6813 322.017 25.1405C321.928 25.2717 321.824 25.3683 321.705 25.4365Z" fill="#FEF8F5"/>
<path d="M334.308 38.5762L314.359 25.7692L314.727 25.1852C314.88 25.1842 315.034 25.1836 315.187 25.1836C316.679 25.1836 318.166 25.2226 319.649 25.3015C320.149 25.4316 320.656 25.5794 321.092 25.5794C321.318 25.5794 321.526 25.5399 321.703 25.437C328.041 25.9367 334.253 27.1884 340.148 29.31L334.308 38.5762Z" fill="#FEF8F5"/>
<path d="M321.096 25.5791C320.659 25.5791 320.153 25.4314 319.652 25.3012C320.338 25.3375 321.024 25.3828 321.707 25.4367C321.529 25.5396 321.322 25.5791 321.096 25.5791Z" fill="#FEF8F5"/>
<path d="M333.339 43.3447L331.891 42.4151L334.31 38.5757L335.79 39.5261L333.339 43.3447Z" fill="#D5DEE4"/>
<path d="M312.762 25.2178L312.978 24.8812L313.055 24.9308L312.876 25.2146C312.839 25.2156 312.799 25.2167 312.762 25.2178Z" fill="#D5D9DF"/>
<path d="M310.637 28.7695L310.527 28.6991L312.763 25.2175C312.8 25.2165 312.84 25.2154 312.878 25.2143L310.637 28.7695Z" fill="#D5D4D9"/>
<path d="M312.875 25.2139L313.054 24.9301L313.474 25.2C313.273 25.2043 313.076 25.2085 312.875 25.2139Z" fill="#D5DEE5"/>
<path d="M311.942 29.6084L310.637 28.77L312.877 25.2148C313.078 25.2095 313.276 25.2052 313.476 25.2009L314.362 25.7695L311.942 29.6084Z" fill="#D5DEE4"/>
<path d="M331.889 42.415L311.941 29.6076L314.361 25.7686L334.309 38.5756L331.889 42.415Z" fill="#D5DFE7"/>
<path d="M278.064 105.629C283.121 108.816 289.677 107.502 292.707 102.694L329.341 44.5667L311.029 33.0259L274.395 91.1529C271.365 95.9609 273.007 102.442 278.064 105.629Z" fill="#F97762"/>
<path d="M284.026 107.369C282.003 107.369 279.931 106.806 278.064 105.629C274.726 103.525 272.876 99.9857 272.875 96.4395C272.875 94.6139 273.365 92.7867 274.394 91.1526L297.032 55.2342C298.135 54.6273 299.322 54.0262 300.542 53.4353L282.898 81.4305C282.894 81.4358 282.891 81.4411 282.888 81.4465L276.264 91.9563C273.247 96.7419 274.494 102.948 279.048 105.819C280.596 106.794 282.327 107.259 284.056 107.259C287.414 107.259 290.764 105.508 292.755 102.35L304.851 83.1569C304.88 83.1995 304.91 83.2417 304.94 83.2833L294.432 99.9563L292.706 102.694C290.796 105.726 287.481 107.369 284.026 107.369Z" fill="#FC6A57"/>
<path d="M321.698 56.6895C321.66 56.6591 321.623 56.6292 321.585 56.5999L329.217 44.4911L325.036 41.8558L322.497 40.2558L329.338 44.5668L321.698 56.6895ZM310.095 38.2718C309.449 38.002 308.796 37.7833 308.137 37.61L311.026 33.026L312.726 34.0974L310.095 38.2718Z" fill="#FC6A57"/>
<path d="M285.881 93.2182C289.999 95.8129 295.338 94.743 297.805 90.8278L327.636 43.4945L312.725 34.0966L282.894 81.4299C280.426 85.3451 281.764 90.6225 285.881 93.2182Z" fill="#F97762"/>
<path d="M284.143 104.944C281.783 104.944 279.43 103.827 277.143 101.617C276.931 101.413 276.926 101.076 277.13 100.863C277.334 100.652 277.673 100.646 277.884 100.85C280.064 102.957 282.261 103.977 284.445 103.871C287.401 103.732 289.323 101.527 289.342 101.505C289.533 101.281 289.869 101.255 290.093 101.446C290.317 101.637 290.344 101.972 290.154 102.197C290.064 102.301 287.932 104.767 284.51 104.935C284.388 104.942 284.265 104.944 284.143 104.944Z" fill="white"/>
<path d="M334.185 39.2788L314.456 26.6126C312.495 25.3534 311.926 22.7428 313.185 20.7817L322.561 6.17852C323.82 4.21692 326.43 3.64784 328.391 4.90704L348.119 17.5732C350.081 18.8324 350.651 21.443 349.391 23.4041L340.015 38.0078C338.756 39.9689 336.145 40.538 334.185 39.2788Z" fill="#FF5E4D"/>
<path d="M333.499 9.96007C332.858 9.96007 332.229 10.2758 331.858 10.8545L321.247 27.3809C320.966 27.8187 320.872 28.3398 320.983 28.8475C321.094 29.3558 321.396 29.7905 321.834 30.0715L328.512 34.359C328.949 34.6401 329.47 34.7339 329.979 34.623C330.486 34.5121 330.921 34.2102 331.202 33.7723L341.813 17.2465C342.094 16.8086 342.188 16.2875 342.077 15.7798C341.966 15.2715 341.664 14.8369 341.227 14.5558L334.548 10.2678C334.223 10.0598 333.859 9.96007 333.499 9.96007ZM329.559 35.7334C329.001 35.7334 328.438 35.5793 327.936 35.2566L321.257 30.9686C320.58 30.5339 320.112 29.8614 319.941 29.0747C319.77 28.2881 319.915 27.4822 320.349 26.8049L330.96 10.2785C331.857 8.88059 333.726 8.47205 335.124 9.37072L341.803 13.6582C342.48 14.0934 342.948 14.7659 343.119 15.5526C343.29 16.3393 343.145 17.1451 342.71 17.8225L332.1 34.3489C331.525 35.2443 330.551 35.7334 329.559 35.7334Z" fill="#F97762"/>
<path d="M323.2 10.5615C323.151 10.5615 323.101 10.5482 323.056 10.5199C322.932 10.4399 322.896 10.2751 322.976 10.1514L324.718 7.43832C325.455 6.28899 326.991 5.95511 328.139 6.69217L332.56 9.53111C332.684 9.61057 332.72 9.77539 332.64 9.89913C332.56 10.0239 332.396 10.0591 332.272 9.97965L327.851 7.14072C326.95 6.56152 325.746 6.82552 325.167 7.72632L323.425 10.4388C323.374 10.5188 323.288 10.5615 323.2 10.5615Z" fill="white"/>
<path d="M294.555 95.0049L280.285 85.8433L308.415 42.0305L322.684 51.1921L294.555 95.0049Z" fill="white"/>
<path d="M309.093 51.4712L306.211 55.9602L311.692 59.4349L314.543 54.9261L309.093 51.4712ZM311.671 59.9629C311.577 59.9629 311.485 59.9357 311.404 59.884L305.911 56.3581C305.681 56.2098 305.614 55.9026 305.762 55.6728L308.664 51.1522C308.736 51.0402 308.847 50.9629 308.976 50.9352C309.107 50.9085 309.239 50.9309 309.35 51.0029L314.842 54.5288C314.953 54.6002 315.031 54.7112 315.059 54.8408C315.087 54.9704 315.063 55.1032 314.991 55.2146L312.089 59.7341C312.018 59.8456 311.908 59.9224 311.778 59.9512L311.671 59.9629Z" fill="#00B7B6"/>
<path d="M313.079 51.4951C313.03 51.4951 312.98 51.4818 312.935 51.453C312.811 51.3735 312.775 51.2087 312.855 51.0845L313.703 49.7634C313.783 49.6391 313.948 49.6039 314.072 49.6829C314.196 49.7629 314.232 49.9277 314.152 50.0514L313.304 51.3725C313.253 51.4519 313.167 51.4951 313.079 51.4951Z" fill="#00B7B6"/>
<path d="M314.299 51.3428C314.249 51.3428 314.199 51.3294 314.154 51.3006L312.572 50.2846C312.448 50.2052 312.412 50.0404 312.492 49.9161C312.572 49.7918 312.736 49.7561 312.86 49.8356L314.443 50.8521C314.567 50.9316 314.603 51.0964 314.524 51.2201C314.472 51.2996 314.386 51.3428 314.299 51.3428Z" fill="#00B7B6"/>
<path d="M301.827 62.7836L298.321 68.2444L303.801 71.7196L307.277 66.2391L301.827 62.7836ZM303.78 72.2471C303.688 72.2471 303.595 72.2215 303.513 72.1687L298.021 68.6428C297.91 68.5708 297.832 68.4599 297.805 68.3303C297.776 68.2007 297.8 68.0679 297.872 67.9564L301.398 62.4647C301.545 62.2348 301.854 62.1681 302.083 62.3148H302.083L307.576 65.8407C307.806 65.9884 307.873 66.2961 307.725 66.5265L304.199 72.0188C304.104 72.1665 303.943 72.2471 303.78 72.2471Z" fill="#00B7B6"/>
<path d="M305.845 62.7598C305.795 62.7598 305.745 62.7464 305.7 62.7176C305.577 62.6382 305.541 62.4734 305.62 62.3491L306.636 60.7667C306.717 60.6424 306.881 60.6067 307.006 60.6862C307.129 60.7656 307.165 60.931 307.086 61.0547L306.069 62.6371C306.018 62.7166 305.932 62.7598 305.845 62.7598Z" fill="#00B7B6"/>
<path d="M283.469 45.4671C283.469 45.4671 299.488 32.265 311.575 38.9903C311.575 38.9903 316.96 42.8964 311.003 46.481C305.045 50.0655 293.932 54.6207 291.794 58.7444C289.655 62.8682 290.434 60.1802 290.434 60.1802L283.469 45.4671Z" fill="#00B7B6"/>
<path d="M291.438 59.4209C291.546 59.2188 291.665 58.9942 291.795 58.7441C292.477 57.4289 294.072 56.07 296.122 54.7121L295.07 56.382C293.47 57.3868 292.183 58.4038 291.438 59.4209Z" fill="#81BFBD"/>
<path d="M295.066 56.3818L296.119 54.712C296.758 54.2885 297.442 53.8645 298.157 53.4426L297.028 55.2341C296.337 55.6144 295.679 55.9973 295.066 56.3818Z" fill="#8AC4C2"/>
<path d="M297.031 55.2344L298.16 53.4429C299.32 52.7576 300.56 52.0765 301.82 51.4056L300.541 53.4354C299.321 54.0264 298.134 54.6274 297.031 55.2344Z" fill="#947267"/>
<path d="M300.543 53.4355L301.822 51.4057C302.113 51.2505 302.405 51.0963 302.697 50.9422L301.344 53.0499C301.075 53.1779 300.809 53.3065 300.543 53.4355ZM313.77 45.4676L312.925 44.9246C313.304 44.4761 313.544 44.0323 313.677 43.6014C313.873 44.1753 313.945 44.8094 313.77 45.4676Z" fill="#92796D"/>
<path d="M301.344 53.0498L302.697 50.9421C305.694 49.365 308.727 47.8519 311.006 46.4807C311.122 46.4109 311.234 46.341 311.342 46.2706C311.342 46.2706 311.342 46.2706 311.343 46.2701C311.347 46.2669 311.352 46.2642 311.357 46.261C311.358 46.2599 311.359 46.2594 311.36 46.2583C311.365 46.2562 311.368 46.2535 311.372 46.2509C311.375 46.2493 311.377 46.2477 311.38 46.2461C311.382 46.2445 311.385 46.2429 311.387 46.2413C311.392 46.2381 311.396 46.2349 311.4 46.2322C311.401 46.2317 311.402 46.2311 311.402 46.2311C312.06 45.7959 312.558 45.3581 312.925 44.9245L313.77 45.4674C313.508 46.4562 312.689 47.4989 310.896 48.4706C308.29 49.8829 304.739 51.429 301.344 53.0498Z" fill="#96C9C9"/>
<path d="M291.438 59.4209C291.546 59.2182 291.665 58.9942 291.795 58.7436C291.666 58.9937 291.547 59.2182 291.438 59.4204C291.438 59.4204 291.438 59.4204 291.438 59.4209ZM311.34 46.27C311.34 46.27 311.341 46.2694 311.341 46.2694C311.34 46.27 311.34 46.27 311.34 46.27ZM311.355 46.2604C311.356 46.2593 311.358 46.2588 311.359 46.2577C311.358 46.2588 311.356 46.2593 311.355 46.2604ZM311.37 46.2502C311.373 46.2486 311.375 46.247 311.378 46.2454C311.375 46.247 311.373 46.2486 311.37 46.2502ZM311.386 46.2406C311.39 46.2374 311.394 46.2348 311.399 46.2316C311.394 46.2342 311.39 46.2374 311.386 46.2406ZM311.401 46.2305C312.741 45.3436 313.412 44.4438 313.673 43.5937C313.673 43.5958 313.674 43.5985 313.675 43.6006C313.542 44.0316 313.302 44.4753 312.923 44.9238C312.556 45.3574 312.058 45.7953 311.401 46.2305Z" fill="#009F9F"/>
<path d="M318.762 92.8047C318.86 92.5876 318.956 92.3716 319.052 92.1546C319.832 92.0666 320.604 91.81 321.309 91.3743C321.306 91.3818 321.303 91.3887 321.299 91.3962L320.187 92.1322C319.736 92.4308 319.256 92.6543 318.762 92.8047ZM323.109 90.1983C323.112 90.1919 323.115 90.186 323.119 90.1802L325.32 88.7231C325.266 88.7615 325.216 88.8031 325.161 88.8399L323.109 90.1983Z" fill="#5DA19E"/>
<path d="M321.297 91.3965C321.301 91.389 321.303 91.3821 321.307 91.3746C321.357 91.3442 321.405 91.3128 321.454 91.2808L323.116 90.1805C323.113 90.1863 323.11 90.1922 323.107 90.1986L321.297 91.3965Z" fill="#009292"/>
<path d="M317.165 93.042C315.376 93.042 313.618 92.1759 312.562 90.5807C311.678 89.2457 311.457 87.6569 311.818 86.2084C312.012 85.7471 312.198 85.2836 312.372 84.8185C312.413 84.7465 312.455 84.6756 312.499 84.6052L312.961 84.2996C312.966 84.2964 312.972 84.2937 312.977 84.29L313.734 83.8095C312.727 85.4575 312.626 87.5796 313.599 89.3455C313.599 89.346 313.599 89.346 313.599 89.3465C313.602 89.3508 313.604 89.3556 313.607 89.3599C313.607 89.3604 313.607 89.3615 313.608 89.362C313.61 89.3663 313.613 89.3705 313.615 89.3748C313.615 89.3753 313.616 89.3764 313.616 89.3775C313.619 89.3812 313.621 89.3849 313.623 89.3892C313.624 89.3903 313.624 89.3913 313.625 89.3929C313.627 89.3961 313.629 89.3999 313.631 89.4036C313.632 89.4052 313.633 89.4068 313.634 89.4084C313.636 89.4116 313.638 89.4148 313.64 89.418C313.64 89.4201 313.642 89.4217 313.643 89.4239C313.645 89.4265 313.646 89.4297 313.648 89.4329C313.649 89.4351 313.651 89.4367 313.652 89.4388C313.653 89.442 313.655 89.4447 313.656 89.4479C313.658 89.45 313.659 89.4521 313.66 89.4543C313.662 89.4569 313.663 89.4596 313.665 89.4623C313.667 89.4649 313.668 89.4671 313.669 89.4697C313.671 89.4719 313.672 89.4745 313.674 89.4772C313.675 89.4799 313.677 89.482 313.678 89.4847C313.68 89.4873 313.681 89.4895 313.683 89.4921C313.684 89.4948 313.686 89.4975 313.687 89.5001C313.688 89.5023 313.69 89.5044 313.691 89.5065C313.693 89.5097 313.695 89.5124 313.696 89.5151C313.698 89.5172 313.699 89.5193 313.7 89.5215C313.702 89.5247 313.703 89.5273 313.706 89.53C313.707 89.5321 313.708 89.5343 313.709 89.5364C313.711 89.5396 313.713 89.5428 313.715 89.5455C313.716 89.5476 313.717 89.5492 313.718 89.5513C313.72 89.5545 313.722 89.5577 313.724 89.5609C313.725 89.5625 313.726 89.5641 313.727 89.5663C313.729 89.5695 313.731 89.5727 313.733 89.5759C313.734 89.5775 313.735 89.5791 313.736 89.5807C313.738 89.5844 313.74 89.5876 313.742 89.5908C313.743 89.5924 313.744 89.594 313.746 89.5956C313.748 89.5993 313.75 89.6025 313.752 89.6063C313.753 89.6079 313.754 89.6089 313.755 89.6105C313.757 89.6137 313.759 89.6175 313.762 89.6212C313.762 89.6223 313.763 89.6239 313.764 89.6255C313.766 89.6292 313.769 89.6329 313.771 89.6367C313.772 89.6377 313.773 89.6388 313.773 89.6399C313.776 89.6441 313.778 89.6479 313.781 89.6516C313.781 89.6527 313.782 89.6537 313.783 89.6548C313.786 89.6591 313.788 89.6633 313.791 89.6676C313.791 89.6681 313.792 89.6687 313.792 89.6697C313.795 89.6735 313.798 89.6777 313.8 89.682C313.8 89.6825 313.802 89.6836 313.802 89.6847C313.804 89.6884 313.807 89.6927 313.81 89.6964C313.81 89.6975 313.811 89.6985 313.812 89.6991C313.814 89.7028 313.816 89.7065 313.819 89.7097C313.819 89.7113 313.82 89.7129 313.821 89.714C313.824 89.7188 313.828 89.7236 313.831 89.7289C314.887 91.3236 316.646 92.1897 318.435 92.1897C318.642 92.1897 318.848 92.178 319.055 92.1545C318.959 92.3716 318.863 92.5876 318.765 92.8047C318.241 92.9641 317.702 93.042 317.165 93.042Z" fill="#009292"/>
<path d="M311.812 86.208C311.933 85.7243 312.119 85.256 312.366 84.8181C312.192 85.2832 312.007 85.7467 311.812 86.208Z" fill="#008585"/>
<path d="M322.795 57.9033C324.466 60.4281 323.767 63.8606 321.243 65.5321L305.682 75.8329C303.158 77.5038 299.725 76.8057 298.054 74.2814C296.383 71.7566 297.08 68.3241 299.606 66.6526L315.166 56.3518C317.691 54.6809 321.124 55.379 322.795 57.9033Z" fill="#00B7B6"/>
<path d="M324.541 69.7745C326.212 72.2993 325.514 75.7324 322.99 77.4033L313.628 83.6001C311.104 85.2716 307.671 84.5734 305.999 82.0486C304.328 79.5244 305.026 76.0913 307.551 74.4204L316.912 68.223C319.436 66.5521 322.87 67.2502 324.541 69.7745Z" fill="#00B7B6"/>
<path d="M301.467 77.7861C301.159 77.7861 300.853 77.7605 300.551 77.7104L301.138 76.7957L300.028 76.0832C300.836 76.5163 301.741 76.7419 302.654 76.7419C303.697 76.7419 304.75 76.4475 305.679 75.8325L306.01 75.6139C306.03 75.6331 306.053 75.6485 306.078 75.6603C305.83 75.8491 305.604 76.0571 305.395 76.2784L304.491 76.8768C303.562 77.4923 302.509 77.7861 301.467 77.7861ZM299.301 75.6165L297.534 74.4821L296.93 75.424C296.907 75.3915 296.884 75.3584 296.862 75.3253C295.338 73.0219 295.786 69.9616 297.794 68.1739C297.788 68.2256 297.791 68.2779 297.803 68.3301C297.815 68.3909 297.84 68.4475 297.873 68.4981C296.923 70.1605 296.87 72.2672 297.881 74.0064C297.881 74.0069 297.882 74.008 297.882 74.0085C297.884 74.0117 297.885 74.0144 297.887 74.0171C297.888 74.0192 297.889 74.0208 297.89 74.0229C297.892 74.0256 297.893 74.0277 297.894 74.0304C297.896 74.0325 297.898 74.0352 297.899 74.0373C297.9 74.0395 297.901 74.0416 297.902 74.0437C297.904 74.0469 297.906 74.0501 297.908 74.0528C297.909 74.0544 297.91 74.056 297.911 74.0576C297.914 74.0624 297.916 74.0667 297.919 74.0715C297.919 74.0725 297.92 74.0736 297.921 74.0747C297.923 74.0784 297.925 74.0816 297.928 74.0853C297.928 74.0869 297.929 74.0885 297.93 74.0896C297.932 74.0933 297.934 74.0965 297.936 74.0997C297.937 74.1013 297.938 74.1029 297.939 74.104C297.941 74.1077 297.943 74.1109 297.945 74.1147C297.946 74.1157 297.947 74.1168 297.947 74.1179C297.953 74.128 297.959 74.1371 297.965 74.1467C297.965 74.1472 297.965 74.1477 297.965 74.1477C297.968 74.152 297.971 74.1563 297.974 74.1611C297.974 74.1616 297.975 74.1627 297.975 74.1637C297.978 74.1675 297.98 74.1712 297.982 74.1749C297.983 74.176 297.984 74.1776 297.985 74.1787C297.987 74.1824 297.99 74.1867 297.993 74.1904C297.993 74.1909 297.993 74.192 297.994 74.1925C297.999 74.2021 298.006 74.2117 298.012 74.2213C298.012 74.2219 298.013 74.2224 298.013 74.2224C298.016 74.2267 298.018 74.2309 298.021 74.2352C298.022 74.2363 298.022 74.2373 298.023 74.2384C298.026 74.2421 298.028 74.2453 298.03 74.2491C298.031 74.2507 298.032 74.2517 298.033 74.2533C298.035 74.2565 298.037 74.2597 298.04 74.2635C298.04 74.2645 298.041 74.2661 298.042 74.2672C298.045 74.272 298.048 74.2763 298.051 74.2811C298.399 74.8075 298.824 75.2544 299.301 75.6165Z" fill="#96C9C9"/>
<path d="M297.875 68.498C297.841 68.4474 297.817 68.3909 297.805 68.3301C297.793 68.2778 297.79 68.2255 297.795 68.1738C297.988 68.0026 298.195 67.8426 298.416 67.6964L298.455 67.6703C298.235 67.93 298.041 68.2068 297.875 68.498Z" fill="#009F9F"/>
<path d="M298.045 74.2676C298.044 74.2665 298.043 74.2649 298.042 74.2638C298.043 74.2649 298.044 74.266 298.045 74.2676ZM298.036 74.2537C298.035 74.2521 298.034 74.251 298.033 74.2494C298.034 74.2505 298.035 74.2521 298.036 74.2537ZM298.026 74.2388C298.025 74.2377 298.025 74.2366 298.024 74.2356C298.025 74.2366 298.025 74.2377 298.026 74.2388ZM298.016 74.2228C298.016 74.2228 298.015 74.2222 298.015 74.2217C298.015 74.2222 298.016 74.2228 298.016 74.2228ZM297.997 74.1929C297.996 74.1924 297.996 74.1913 297.996 74.1908C297.996 74.1913 297.996 74.1918 297.997 74.1929ZM297.988 74.179C297.987 74.178 297.986 74.1764 297.985 74.1753C297.986 74.1764 297.987 74.1774 297.988 74.179ZM297.978 74.1641C297.978 74.163 297.977 74.162 297.977 74.1614C297.977 74.162 297.978 74.163 297.978 74.1641ZM297.968 74.1481C297.968 74.1481 297.968 74.1476 297.968 74.147C297.968 74.1476 297.968 74.1476 297.968 74.1481ZM297.95 74.1182C297.95 74.1172 297.949 74.1161 297.948 74.115C297.949 74.1161 297.95 74.1172 297.95 74.1182ZM297.942 74.1044C297.941 74.1033 297.94 74.1017 297.939 74.1001C297.94 74.1017 297.941 74.1033 297.942 74.1044ZM297.933 74.09C297.932 74.0889 297.931 74.0873 297.93 74.0857C297.931 74.0873 297.932 74.0889 297.933 74.09ZM297.924 74.075C297.923 74.074 297.922 74.0729 297.922 74.0718C297.922 74.0729 297.923 74.074 297.924 74.075ZM297.914 74.058C297.913 74.0564 297.912 74.0548 297.911 74.0532C297.912 74.0548 297.913 74.0564 297.914 74.058ZM297.905 74.0441C297.904 74.042 297.903 74.0398 297.902 74.0377C297.903 74.0398 297.904 74.042 297.905 74.0441ZM297.897 74.0308C297.896 74.0281 297.895 74.026 297.893 74.0233C297.895 74.026 297.896 74.0281 297.897 74.0308ZM297.89 74.0174C297.888 74.0148 297.887 74.0121 297.885 74.0089C297.887 74.0121 297.888 74.0148 297.89 74.0174ZM297.884 74.0068C296.873 72.2676 296.926 70.1609 297.876 68.4985C298.042 68.2073 298.236 67.9305 298.456 67.6708L298.472 67.6612C296.982 69.4025 296.694 71.9582 297.884 74.0068Z" fill="#009F9F"/>
<path d="M312.434 84.6475C312.49 84.496 312.545 84.3445 312.598 84.1931C312.601 84.1979 312.604 84.2032 312.607 84.2085C312.632 84.248 312.666 84.2784 312.704 84.2992C312.631 84.3995 312.562 84.5013 312.497 84.6053L312.438 84.6443C312.437 84.6453 312.435 84.6464 312.434 84.6475Z" fill="#009F9F"/>
<path d="M309.411 85.5537C308.645 85.5537 307.885 85.3948 307.184 85.0881L307.966 83.8465C308.776 84.2822 309.683 84.5089 310.6 84.5089C311.265 84.5089 311.935 84.3889 312.575 84.142C312.58 84.1596 312.587 84.1761 312.596 84.1926C312.543 84.3441 312.488 84.4956 312.432 84.647C311.503 85.2604 310.452 85.5537 309.411 85.5537Z" fill="#008B8A"/>
<path d="M307.183 85.0889C306.621 84.8435 306.096 84.5033 305.637 84.0739L306.501 82.7017C306.928 83.1726 307.425 83.5566 307.966 83.8473L307.183 85.0889Z" fill="#81BDBA"/>
<path d="M305.635 84.0732C305.381 83.8364 305.148 83.573 304.938 83.2828L305.855 81.8274C305.862 81.8386 305.869 81.8503 305.876 81.862C305.876 81.8626 305.876 81.8631 305.877 81.8636C305.879 81.8674 305.881 81.8711 305.883 81.8743C305.884 81.8754 305.884 81.8764 305.885 81.877C305.887 81.8807 305.889 81.8839 305.891 81.8871C305.892 81.8887 305.892 81.8898 305.893 81.8908C305.897 81.8978 305.902 81.9052 305.907 81.9127C305.908 81.9154 305.91 81.918 305.912 81.9207C305.913 81.9228 305.914 81.9244 305.916 81.9266C305.917 81.9287 305.918 81.9314 305.92 81.9335C305.921 81.9362 305.923 81.9383 305.924 81.9404C305.926 81.9431 305.927 81.9452 305.928 81.9474C305.93 81.95 305.932 81.9522 305.933 81.9548C305.934 81.957 305.936 81.9591 305.937 81.9607C305.939 81.9639 305.941 81.9676 305.943 81.9708C305.944 81.9719 305.945 81.9735 305.945 81.9746C305.949 81.9788 305.951 81.9836 305.954 81.9879C305.955 81.9895 305.956 81.9911 305.957 81.9927C305.959 81.9954 305.961 81.9986 305.963 82.0018C305.964 82.0034 305.965 82.005 305.967 82.0071C305.968 82.0098 305.971 82.013 305.972 82.0156C305.973 82.0172 305.974 82.0194 305.975 82.021C305.977 82.0242 305.98 82.0274 305.982 82.0306C305.983 82.0316 305.984 82.0332 305.984 82.0348C305.988 82.0391 305.991 82.0439 305.993 82.0482C306.148 82.2818 306.317 82.4988 306.5 82.701L305.635 84.0732Z" fill="#8AC2C1"/>
<path d="M304.847 83.1572C304.833 83.1359 304.818 83.1146 304.804 83.0932C304.378 82.45 304.107 81.7476 303.98 81.0308L305.089 79.2724C305.126 80.1002 305.35 80.9279 305.773 81.6884L304.847 83.1572Z" fill="#92796D"/>
<path d="M304.937 83.2832C304.907 83.2416 304.877 83.1995 304.848 83.1568L305.774 81.688C305.8 81.7349 305.826 81.7813 305.854 81.8277L304.937 83.2832Z" fill="#947267"/>
<path d="M303.982 81.0303C303.947 80.8324 303.923 80.6329 303.91 80.4335L305.103 78.5759C305.084 78.8068 305.08 79.0393 305.09 79.2719L303.982 81.0303Z" fill="#92796D"/>
<path d="M303.914 80.4336C303.816 78.9253 304.34 77.4064 305.403 76.2784C305.611 76.0571 305.838 75.8491 306.086 75.6603C306.121 75.6768 306.159 75.6853 306.198 75.6853C306.2 75.6853 306.201 75.6853 306.203 75.6853C305.565 76.5307 305.191 77.5387 305.107 78.576L303.914 80.4336Z" fill="#96C9C9"/>
<path d="M322.731 77.6621C322.708 77.6445 322.683 77.6312 322.656 77.6221L322.932 77.4397C322.867 77.5154 322.8 77.5896 322.731 77.6621Z" fill="#95B6B1"/>
<path d="M312.496 84.6055C312.561 84.5015 312.63 84.3996 312.703 84.2993C312.742 84.3207 312.786 84.3319 312.831 84.3319C312.874 84.3319 312.918 84.3217 312.958 84.2999L312.496 84.6055Z" fill="#008989"/>
<path d="M305.99 82.0352C305.989 82.0336 305.988 82.032 305.987 82.0309C305.988 82.032 305.989 82.0336 305.99 82.0352ZM305.981 82.0213C305.98 82.0197 305.979 82.0176 305.978 82.016C305.979 82.0176 305.98 82.0197 305.981 82.0213ZM305.972 82.0074C305.971 82.0053 305.97 82.0037 305.969 82.0021C305.97 82.0037 305.971 82.0058 305.972 82.0074ZM305.963 81.993C305.962 81.9914 305.961 81.9898 305.96 81.9882C305.961 81.9898 305.962 81.9914 305.963 81.993ZM305.951 81.9749C305.951 81.9738 305.949 81.9722 305.949 81.9712C305.949 81.9722 305.951 81.9738 305.951 81.9749ZM305.943 81.961C305.941 81.9594 305.94 81.9573 305.939 81.9552C305.94 81.9573 305.941 81.9594 305.943 81.961ZM305.934 81.9477C305.932 81.9455 305.931 81.9434 305.93 81.9408C305.931 81.9434 305.932 81.9455 305.934 81.9477ZM305.925 81.9338C305.924 81.9317 305.922 81.929 305.921 81.9269C305.922 81.929 305.924 81.9317 305.925 81.9338ZM305.917 81.921C305.916 81.9183 305.914 81.9157 305.912 81.913C305.914 81.9157 305.915 81.9183 305.917 81.921ZM305.912 81.913C305.908 81.9056 305.903 81.8981 305.899 81.8912C305.903 81.8981 305.908 81.9056 305.912 81.913ZM305.897 81.8874C305.895 81.8842 305.892 81.881 305.89 81.8773C305.892 81.881 305.895 81.8842 305.897 81.8874ZM305.889 81.8746C305.887 81.8714 305.884 81.8677 305.882 81.864C305.884 81.8677 305.887 81.8714 305.889 81.8746ZM305.881 81.8624C305.874 81.8506 305.867 81.8389 305.86 81.8277C305.833 81.7813 305.806 81.7349 305.78 81.688C305.356 80.9274 305.132 80.0997 305.096 79.272C305.085 79.0394 305.089 78.8069 305.108 78.576C305.192 77.5386 305.567 76.5306 306.204 75.6853C306.206 75.6853 306.208 75.6853 306.21 75.6853C304.884 77.4405 304.691 79.8976 305.881 81.8624ZM322.658 77.6224C322.658 77.6224 322.658 77.6224 322.658 77.6224L322.934 77.4394C322.934 77.44 322.934 77.44 322.934 77.44L322.658 77.6224Z" fill="#009F9F"/>
<path d="M327.982 80.3591C329.653 82.8834 328.954 86.3164 326.43 87.9874L321.456 91.2802C318.931 92.9511 315.499 92.253 313.827 89.7287C312.156 87.2039 312.855 83.7714 315.379 82.0999L320.353 78.8076C322.878 77.1362 326.31 77.8343 327.982 80.3591Z" fill="#00B7B6"/>
<path d="M320.746 65.8633C320.747 65.8627 320.747 65.8627 320.747 65.8627L321.246 65.5321C322.844 64.4745 323.71 62.7113 323.707 60.9193C323.71 62.7113 322.844 64.4745 321.246 65.5321L320.746 65.8633Z" fill="#E6D5CF"/>
<path d="M319.861 55.6982C319.86 55.6982 319.858 55.6977 319.857 55.6972C319.859 55.6977 319.859 55.6982 319.861 55.6982ZM319.85 55.695C319.846 55.694 319.842 55.6924 319.838 55.6913C319.842 55.6924 319.846 55.694 319.85 55.695ZM319.838 55.6913C319.825 55.6876 319.813 55.6839 319.801 55.6801C319.813 55.6839 319.825 55.6876 319.838 55.6913Z" fill="#E37865"/>
<path d="M299.41 66.7881C299.474 66.7417 299.539 66.6969 299.605 66.6526L303.677 63.9566L303.678 63.9572L299.605 66.6526C299.539 66.6969 299.474 66.7417 299.41 66.7881ZM304.152 63.6425L305.638 62.659L304.152 63.6425ZM306.369 62.1753L306.369 62.1748L310.604 59.3721L306.369 62.1753ZM311.086 59.0526L312.54 58.09H312.54L311.086 59.0526ZM313.588 57.3961L315.165 56.3518L313.588 57.3961ZM319.802 55.6809C319.28 55.523 318.737 55.4425 318.19 55.4425C318.737 55.4425 319.28 55.523 319.802 55.6809Z" fill="#E8F4F4"/>
<path d="M310.605 59.3721L311.088 59.0526L310.605 59.3721ZM312.541 58.0899H312.542L313.59 57.3961L312.541 58.0899Z" fill="#00B2B1"/>
<path d="M303.684 63.957L303.684 63.9565L304.158 63.6424L303.684 63.957Z" fill="#00B2B1"/>
<path d="M305.641 62.6582L306.372 62.1739L306.371 62.1745L305.641 62.6582Z" fill="#00B2B1"/>
<path d="M298.223 67.9746C298.55 67.5303 298.944 67.1271 299.409 66.7879C299.473 66.7415 299.537 66.6968 299.604 66.6525L303.677 63.957L304.151 63.6423L305.637 62.6589L306.367 62.1751L310.602 59.372L311.085 59.0525L312.538 58.0898L313.587 57.396L315.164 56.3517C316.094 55.7362 317.146 55.4423 318.189 55.4423C318.735 55.4423 319.279 55.5229 319.8 55.6808C319.813 55.6845 319.825 55.6882 319.837 55.692C319.841 55.693 319.846 55.6946 319.85 55.6957C319.852 55.6967 319.855 55.6973 319.857 55.6978C319.858 55.6983 319.859 55.6989 319.861 55.6989C321.001 56.0578 322.032 56.7858 322.752 57.8418C322.756 57.8477 322.76 57.8541 322.764 57.8605C322.766 57.8631 322.768 57.8653 322.769 57.8679C322.777 57.8797 322.785 57.8914 322.793 57.9032C323.407 58.8301 323.701 59.8797 323.702 60.9192C323.705 62.7112 322.839 64.4744 321.241 65.532L320.742 65.8626C322.071 64.0546 322.218 61.5298 320.912 59.5565C319.856 57.9613 318.097 57.0957 316.308 57.0957C315.266 57.0957 314.213 57.3895 313.283 58.005L298.223 67.9746Z" fill="#00B2B1"/>
<path d="M324.537 69.7744C324.508 69.7312 324.479 69.688 324.449 69.6459C324.479 69.688 324.508 69.7312 324.537 69.7744Z" fill="#E6D5CF"/>
<path d="M322.655 77.6221C322.63 77.6135 322.603 77.6087 322.576 77.6082C323.822 75.8103 323.934 73.3554 322.657 71.4279C321.602 69.8343 319.846 68.9714 318.059 68.9714C317.417 68.9714 316.771 69.0823 316.152 69.3111L319.057 67.3885C319.35 67.341 319.644 67.3181 319.938 67.3181C321.677 67.3181 323.387 68.1341 324.45 69.6455C324.48 69.6877 324.51 69.7309 324.538 69.7741C325.155 70.7063 325.449 71.7618 325.448 72.8071C325.445 74.5933 324.58 76.3485 322.987 77.4029L322.932 77.4391C322.932 77.4391 322.932 77.4391 322.932 77.4391L322.655 77.6221Z" fill="#00B2B1"/>
<path d="M322.652 77.6221L322.929 77.4391C322.929 77.4391 322.929 77.4391 322.929 77.4391L322.652 77.6221Z" fill="#009C9C"/>
<path d="M325.93 88.3193C327.26 86.5113 327.407 83.9865 326.101 82.0127C325.046 80.4191 323.289 79.5556 321.501 79.5556C321.055 79.5556 320.607 79.6095 320.168 79.7188L322.714 78.1007C322.777 78.0607 322.818 77.9983 322.831 77.93C323.015 77.9119 323.199 77.9028 323.382 77.9028C325.17 77.9028 326.927 78.7657 327.982 80.3599C328.599 81.2916 328.893 82.3471 328.892 83.3924C328.889 85.1785 328.023 86.9337 326.431 87.9881L325.93 88.3193Z" fill="#00B2B1"/>
<path d="M318.215 67.5898L318.269 67.5029L318.668 67.2395C318.682 67.2533 318.694 67.2688 318.706 67.2864C318.737 67.3344 318.751 67.3893 318.749 67.4432C318.569 67.4826 318.391 67.5317 318.215 67.5898Z" fill="#81AEAA"/>
<path d="M318.047 67.6455L318.262 67.5026L318.207 67.5895C318.154 67.6071 318.1 67.6258 318.047 67.6455Z" fill="#81BAB7"/>
<path d="M306.012 75.6143C306.012 75.6143 306.012 75.6143 306.012 75.6143L306.567 75.2468L306.566 75.2473L306.012 75.6143Z" fill="#82BFBF"/>
<path d="M306.018 75.6143C306.003 75.5999 305.989 75.5828 305.977 75.5641C305.897 75.4409 305.931 75.2761 306.055 75.1956L318.338 67.2084C318.382 67.1791 318.433 67.1652 318.483 67.1652C318.551 67.1652 318.618 67.1913 318.669 67.2399L318.27 67.5033L318.056 67.6463C317.661 67.7903 317.277 67.9823 316.913 68.2233L307.551 74.4207C307.187 74.6617 306.86 74.9401 306.573 75.2468L306.018 75.6143Z" fill="#009B9A"/>
<path d="M306.203 75.6855C306.269 75.5981 306.338 75.5122 306.41 75.4285L306.395 75.4386L306.41 75.4285C306.467 75.3623 306.525 75.2978 306.585 75.2343L306.565 75.2471L306.566 75.2466C306.852 74.9399 307.179 74.6615 307.543 74.4205L316.905 68.2232C317.27 67.9821 317.653 67.7901 318.048 67.6461C318.101 67.6263 318.155 67.6077 318.208 67.5901C318.384 67.5319 318.563 67.4829 318.742 67.4434C318.739 67.5261 318.696 67.6066 318.621 67.6551L306.338 75.6423C306.296 75.6695 306.25 75.6834 306.203 75.6855Z" fill="#009B9A"/>
<path d="M306.081 75.6602C306.055 75.6484 306.032 75.633 306.012 75.6138L306.566 75.2468C306.507 75.3092 306.451 75.3732 306.395 75.4383L306.356 75.4639C306.261 75.5268 306.17 75.5924 306.081 75.6602Z" fill="#4CA4A4"/>
<path d="M306.402 75.4385C306.458 75.3734 306.514 75.3094 306.573 75.247L306.593 75.2342C306.532 75.2977 306.474 75.3622 306.417 75.4283L306.402 75.4385Z" fill="#008E8E"/>
<path d="M306.191 75.6855C306.152 75.6855 306.113 75.677 306.078 75.6605C306.167 75.5927 306.259 75.5272 306.354 75.4642L306.393 75.4386C306.325 75.5192 306.258 75.6013 306.195 75.6855C306.194 75.6855 306.192 75.6855 306.191 75.6855Z" fill="#4CA4A4"/>
<path d="M306.199 75.6855C306.263 75.6013 306.329 75.5192 306.397 75.4386L306.412 75.4285C306.341 75.5122 306.272 75.5981 306.206 75.6855C306.203 75.6855 306.201 75.6855 306.199 75.6855Z" fill="#008E8E"/>
<path d="M312.953 84.2998L313.748 83.7739C313.74 83.7857 313.733 83.7974 313.726 83.8097L312.969 84.2902C312.964 84.2939 312.958 84.2966 312.953 84.2998Z" fill="#008888"/>
<path d="M312.574 84.1426C312.54 84.0311 312.583 83.9063 312.686 83.8407L315.03 82.3506C314.672 82.6306 314.356 82.9479 314.085 83.2946L313.624 83.6002C313.288 83.8226 312.936 84.0028 312.574 84.1426Z" fill="#009B9A"/>
<path d="M312.7 84.2988C312.661 84.278 312.628 84.2476 312.603 84.2082C312.6 84.2028 312.596 84.1975 312.594 84.1927C312.602 84.1698 312.61 84.1474 312.618 84.1244C312.729 84.0802 312.84 84.0322 312.95 83.9799C312.862 84.0834 312.779 84.19 312.7 84.2988Z" fill="#008E8E"/>
<path d="M312.596 84.1934C312.586 84.1768 312.58 84.1603 312.574 84.1427C312.589 84.1368 312.604 84.1315 312.62 84.1251C312.612 84.148 312.604 84.1704 312.596 84.1934Z" fill="#008484"/>
<path d="M312.827 84.332C312.782 84.332 312.738 84.3208 312.699 84.2995C312.778 84.1907 312.861 84.084 312.949 83.9806C313.179 83.8712 313.403 83.7448 313.621 83.6003L314.083 83.2947C313.963 83.4488 313.851 83.6094 313.749 83.7742L312.954 84.3C312.914 84.3219 312.87 84.332 312.827 84.332Z" fill="#008383"/>
<path d="M313.625 83.5996L314.087 83.294L313.625 83.5996Z" fill="#008E8E"/>
<path d="M322.391 77.9863C322.507 77.8829 322.619 77.7746 322.725 77.6626C322.75 77.6813 322.771 77.7047 322.789 77.7325C322.827 77.7922 322.839 77.8615 322.826 77.9255C322.681 77.9399 322.535 77.9602 322.391 77.9863Z" fill="#81AEAA"/>
<path d="M321.535 78.2148L322.424 77.6506C322.468 77.6218 322.518 77.6085 322.567 77.6085C322.569 77.6085 322.571 77.6085 322.573 77.6085C322.544 77.6506 322.513 77.6927 322.483 77.7343L322.517 77.7119L321.954 78.0847C321.813 78.1226 321.673 78.1658 321.535 78.2148Z" fill="#009B9A"/>
<path d="M321.953 78.085L322.651 77.6226C322.678 77.6316 322.704 77.645 322.726 77.6626C322.62 77.7746 322.509 77.8828 322.392 77.9863C322.245 78.013 322.098 78.046 321.953 78.085Z" fill="#4D9A97"/>
<path d="M321.953 78.085L322.516 77.7122L322.651 77.6226C322.651 77.6226 322.651 77.6226 322.652 77.6226L321.954 78.085C321.953 78.085 321.953 78.085 321.953 78.085Z" fill="#008E8E"/>
<path d="M313.73 83.8096C313.737 83.7973 313.745 83.7856 313.752 83.7738C313.855 83.609 313.966 83.4485 314.087 83.2944C314.357 82.9477 314.673 82.6304 315.031 82.3504L321.538 78.2149C321.676 78.1658 321.816 78.1226 321.957 78.0848C321.957 78.0848 321.957 78.0848 321.957 78.0848C322.102 78.0458 322.249 78.0128 322.396 77.9861C322.541 77.96 322.686 77.9397 322.832 77.9253C322.831 77.9269 322.831 77.928 322.831 77.9296C322.642 77.9482 322.455 77.977 322.269 78.0154C321.939 78.4069 321.552 78.7605 321.105 79.0565L320.065 79.7445C320.1 79.7354 320.133 79.7269 320.167 79.7184L313.73 83.8096Z" fill="#009B9A"/>
<path d="M322.484 77.7344C322.515 77.6928 322.545 77.6506 322.575 77.6085C322.601 77.609 322.628 77.6138 322.653 77.6224L322.519 77.712L322.484 77.7344Z" fill="#009898"/>
<path d="M322.516 77.7119L322.651 77.6223L322.516 77.7119Z" fill="#008D8D"/>
<path d="M320.062 79.7441L321.102 79.0561C321.549 78.7601 321.936 78.4065 322.266 78.0151C322.452 77.9767 322.64 77.9479 322.828 77.9292C322.814 77.9975 322.773 78.0599 322.71 78.0999L320.164 79.718C320.13 79.7265 320.097 79.7351 320.062 79.7441Z" fill="#009898"/>
<path d="M261.802 114.021L258.605 136.658L261.802 114.021Z" fill="#D2F5F6"/>
<path d="M258.872 136.696L258.344 136.621L261.54 113.984L262.068 114.059L258.872 136.696Z" fill="#BAE2E2"/>
<path d="M238.886 76.7607L242.489 71.0999C243.209 71.7997 243.651 72.7394 243.655 73.7736C243.655 73.7778 243.655 73.7821 243.655 73.7864C243.655 74.884 243.159 75.8754 242.361 76.5901C241.414 76.6802 240.221 76.7565 238.886 76.7607ZM237.633 76.7432C237.228 76.7298 236.814 76.7096 236.393 76.6802C235.54 75.9645 235 74.9437 234.996 73.8039C234.996 73.7997 234.996 73.7954 234.996 73.7911C234.997 71.6237 236.926 69.8621 239.312 69.853C239.318 69.853 239.323 69.853 239.329 69.853C239.33 69.853 239.332 69.853 239.334 69.853C240.178 69.8541 240.967 70.0749 241.633 70.4573L237.633 76.7432Z" fill="#709697"/>
<path d="M185.151 71.9502C184.001 71.6425 182.844 71.347 181.688 71.0675C182.077 70.7529 182.562 70.5854 183.051 70.5854C183.441 70.5854 183.833 70.6921 184.18 70.915C184.534 71.1427 184.883 71.5182 185.151 71.9502Z" fill="#FDEBE4"/>
<path d="M184.5 74.6553C183.767 74.6553 182.832 74.2371 182.066 74.1865C180.448 74.0803 180.607 72.5065 181.258 71.5406C181.381 71.3582 181.528 71.1998 181.692 71.0675C182.848 71.347 184.005 71.6425 185.155 71.9502C185.616 72.6942 185.835 73.6062 185.424 74.2169C185.202 74.5449 184.878 74.6553 184.5 74.6553Z" fill="#FEE3DB"/>
<path d="M165.106 70.6662C165.2 70.6897 165.302 70.6924 165.404 70.671C165.766 70.5942 165.998 70.238 165.921 69.8764L164.331 62.3713C164.253 62.0086 163.897 61.7782 163.535 61.8545C163.173 61.9308 162.942 62.287 163.019 62.6492L164.61 70.1537C164.664 70.4139 164.864 70.607 165.106 70.6662Z" fill="#004B51"/>
<path d="M161.666 62.5877C161.391 63.7066 162.074 64.8368 163.193 65.112C164.312 65.3872 165.442 64.7034 165.718 63.5845C165.993 62.4661 165.309 61.336 164.19 61.0608C163.071 60.7856 161.942 61.4688 161.666 62.5877Z" fill="#00B7B6"/>
<path d="M160.199 92.4486C160.512 92.5254 160.845 92.3665 160.976 92.0587L163.786 85.4358C163.93 85.095 163.772 84.7014 163.431 84.5569C163.09 84.4113 162.696 84.5713 162.552 84.9121L159.741 91.535C159.597 91.8758 159.756 92.2694 160.096 92.4139L160.199 92.4486Z" fill="#004B51"/>
<path d="M161.945 92.8183C162.757 92.1063 162.84 90.87 162.128 90.0578C161.416 89.2444 160.179 89.1628 159.367 89.8748C158.554 90.5868 158.472 91.8226 159.184 92.6354C159.896 93.4482 161.132 93.5298 161.945 92.8183Z" fill="#00B7B6"/>
<path d="M160.745 74.7309C161.004 74.7943 161.288 74.6983 161.452 74.4674C161.666 74.1655 161.595 73.7469 161.293 73.533L153.844 68.2466C153.542 68.0322 153.123 68.1031 152.909 68.405C152.695 68.7068 152.766 69.1255 153.068 69.3399L160.517 74.6263C160.588 74.6765 160.665 74.7111 160.745 74.7309Z" fill="#004B51"/>
<path d="M151.758 70.4852C152.42 71.6873 153.931 72.1246 155.132 71.4628C156.333 70.8009 156.771 69.29 156.109 68.0884C155.448 66.8873 153.937 66.4494 152.735 67.1113C151.533 67.7732 151.096 69.2841 151.758 70.4852Z" fill="#00B7B6"/>
<path d="M176.182 89.4335C176.37 89.4799 176.576 89.4447 176.744 89.3204C177.041 89.0986 177.102 88.6788 176.881 88.3818L171.424 81.057C171.202 80.7604 170.781 80.6986 170.485 80.9199C170.188 81.1412 170.126 81.5615 170.348 81.858L175.805 89.1834C175.902 89.313 176.037 89.3978 176.182 89.4335Z" fill="#004B51"/>
<path d="M178.482 87.6964C178.223 86.3492 176.92 85.4676 175.573 85.7268C174.226 85.9865 173.344 87.2884 173.604 88.6356C173.863 89.9828 175.165 90.8644 176.513 90.6052C177.859 90.3454 178.741 89.0436 178.482 87.6964Z" fill="#00B7B6"/>
<path d="M174.307 73.3448C174.488 73.3891 174.686 73.3587 174.852 73.2435L178.637 70.5976C178.94 70.3859 179.014 69.9672 178.801 69.6643C178.591 69.3603 178.173 69.2862 177.868 69.4984L174.084 72.1443C173.78 72.3566 173.706 72.7747 173.918 73.0776C174.015 73.2168 174.154 73.307 174.307 73.3448Z" fill="#004B51"/>
<path d="M177.74 68.9506C177.055 69.061 176.589 69.7058 176.7 70.3906C176.81 71.0749 177.455 71.5405 178.139 71.4301C178.824 71.3197 179.29 70.6749 179.179 69.9906C179.069 69.3058 178.424 68.8402 177.74 68.9506Z" fill="#00B7B6"/>
<path d="M151.756 78.2298C151.808 78.2426 151.862 78.249 151.918 78.249L156.536 78.2341C156.907 78.233 157.206 77.9322 157.204 77.5621C157.203 77.1914 156.902 76.8917 156.532 76.8938L151.914 76.9082C151.544 76.9093 151.245 77.2101 151.246 77.5807C151.247 77.8949 151.464 78.1578 151.756 78.2298Z" fill="#004B51"/>
<path d="M151.713 78.7738C152.339 79.0736 153.089 78.8096 153.388 78.1845C153.688 77.5589 153.424 76.809 152.799 76.5093C152.174 76.209 151.423 76.473 151.124 77.0986C150.824 77.7242 151.088 78.4741 151.713 78.7738Z" fill="#00B7B6"/>
<path d="M156.389 74.9127C155.055 80.333 158.368 85.8082 163.788 87.1415C169.208 88.4749 174.683 85.1624 176.016 79.7426C177.35 74.3224 174.037 68.8477 168.618 67.5143C163.198 66.1805 157.723 69.493 156.389 74.9127Z" fill="#00B7B6"/>
<path d="M173.588 77.5449C173.461 77.5449 173.332 77.53 173.203 77.498C172.356 77.29 171.836 76.4468 172.041 75.6153C172.214 74.9102 172.853 74.4398 173.559 74.4398C173.683 74.4398 173.81 74.4542 173.937 74.4846C173.869 74.4686 173.801 74.4612 173.734 74.4612C173.349 74.4612 173 74.7177 172.905 75.1022C172.794 75.5561 173.077 76.0164 173.539 76.1295C173.61 76.1471 173.68 76.1551 173.749 76.1551C174.135 76.1551 174.483 75.8985 174.578 75.514C174.69 75.0617 174.408 74.6041 173.949 74.4878C174.793 74.6985 175.311 75.5396 175.106 76.3695C174.932 77.0745 174.294 77.5449 173.588 77.5449Z" fill="#36C7C7"/>
<path d="M173.95 74.4883C173.948 74.4877 173.947 74.4872 173.944 74.4872C173.947 74.4872 173.948 74.4877 173.95 74.4883ZM173.944 74.4872C173.942 74.4861 173.94 74.4856 173.938 74.4851C173.94 74.4856 173.942 74.4861 173.944 74.4872Z" fill="#36C7C7"/>
<path d="M173.747 76.1553C173.678 76.1553 173.608 76.1473 173.537 76.1297C173.075 76.0166 172.792 75.5563 172.903 75.1025C172.998 74.7179 173.347 74.4614 173.732 74.4614C173.799 74.4614 173.867 74.4689 173.935 74.4849C173.937 74.4854 173.939 74.4859 173.942 74.487C173.944 74.487 173.945 74.4875 173.947 74.4881C174.406 74.6043 174.688 75.0619 174.576 75.5142C174.481 75.8987 174.133 76.1553 173.747 76.1553Z" fill="#50CECF"/>
<path d="M172.468 73.6396C172.168 73.6396 171.874 73.4871 171.707 73.2108C171.452 72.7906 171.587 72.2439 172.007 71.9895C172.151 71.902 172.31 71.861 172.467 71.861C172.768 71.861 173.061 72.0135 173.228 72.2898C173.483 72.71 173.348 73.2572 172.928 73.5111C172.784 73.5986 172.625 73.6396 172.468 73.6396Z" fill="#36C7C7"/>
<path d="M169.378 78.6299C169.219 78.6299 169.058 78.6112 168.898 78.5718C167.799 78.3014 167.134 77.1712 167.41 76.047C167.647 75.0875 168.493 74.4427 169.419 74.4427C169.577 74.4427 169.738 74.4619 169.899 74.5014C170.998 74.7718 171.663 75.9019 171.386 77.0256C171.15 77.9851 170.304 78.6299 169.378 78.6299Z" fill="#36C7C7"/>
<path d="M164.652 74.0898C164.343 74.0898 164.025 74.0525 163.705 73.9736C161.975 73.548 160.849 72.0797 161.19 70.6936C161.468 69.5645 162.634 68.8392 163.991 68.8392C164.3 68.8392 164.619 68.8765 164.939 68.9549C166.669 69.3805 167.795 70.8493 167.453 72.2349C167.176 73.364 166.01 74.0898 164.652 74.0898ZM162.678 69.7085C161.957 69.7085 161.338 70.0941 161.19 70.6936C161.009 71.4296 161.606 72.2099 162.525 72.436C162.695 72.4776 162.865 72.4978 163.028 72.4978C163.75 72.4978 164.369 72.1122 164.517 71.5122C164.698 70.7762 164.1 69.996 163.181 69.7704C163.011 69.7283 162.842 69.7085 162.678 69.7085Z" fill="#36C7C7"/>
<path d="M163.027 72.498C162.863 72.498 162.694 72.4778 162.524 72.4362C161.605 72.2101 161.007 71.4298 161.189 70.6938C161.336 70.0943 161.956 69.7087 162.677 69.7087C162.841 69.7087 163.01 69.7285 163.18 69.7706C164.099 69.9962 164.696 70.7764 164.516 71.5124C164.368 72.1124 163.749 72.498 163.027 72.498Z" fill="#50CECF"/>
<path d="M172.552 82.7012C172.423 82.7012 172.291 82.6852 172.158 82.6532C171.377 82.4601 170.88 81.7465 171.049 81.058C171.189 80.4857 171.746 80.1113 172.379 80.1113C172.508 80.1113 172.64 80.1268 172.772 80.1593C173.554 80.3518 174.051 81.0665 173.882 81.755C173.741 82.3268 173.185 82.7012 172.552 82.7012Z" fill="#36C7C7"/>
<path d="M159.345 81.626C159.264 81.626 159.18 81.6158 159.096 81.595C158.631 81.4804 158.33 81.0782 158.423 80.6969C158.501 80.3844 158.818 80.1828 159.186 80.1828C159.267 80.1828 159.351 80.1924 159.436 80.2132C159.901 80.3278 160.201 80.73 160.108 81.1113C160.031 81.4238 159.713 81.626 159.345 81.626Z" fill="#36C7C7"/>
<path d="M168.919 83.457C168.838 83.457 168.754 83.4474 168.67 83.4266C168.205 83.312 167.904 82.9104 167.998 82.5285C168.075 82.216 168.393 82.0138 168.761 82.0138C168.842 82.0138 168.926 82.024 169.01 82.0448C169.474 82.1594 169.776 82.5616 169.682 82.9429C169.605 83.2554 169.287 83.457 168.919 83.457Z" fill="#36C7C7"/>
<path d="M72.2848 30.7204C72.2848 32.9247 70.4976 34.7119 68.2933 34.7119C66.0885 34.7119 64.3008 32.9247 64.3008 30.7204C64.3008 28.5162 66.0885 26.729 68.2933 26.729C70.4976 26.729 72.2848 28.5162 72.2848 30.7204Z" fill="#FFB1A8"/>
<path d="M68.3981 26.57C68.3981 27.4367 67.6946 28.1396 66.8279 28.1396C65.9607 28.1396 65.2578 27.4367 65.2578 26.57C65.2578 25.7028 65.9607 24.9999 66.8279 24.9999C67.6946 24.9999 68.3981 25.7028 68.3981 26.57Z" fill="#FFB1A8"/>
<path d="M65.3733 30.9325C65.3733 31.5879 64.8421 32.1191 64.1872 32.1191C63.5312 32.1191 63 31.5879 63 30.9325C63 30.2775 63.5312 29.7458 64.1872 29.7458C64.8421 29.7458 65.3733 30.2775 65.3733 30.9325Z" fill="#FFB1A8"/>
<path d="M72.5291 28.1575C72.5291 28.8135 71.9978 29.3447 71.3429 29.3447C70.6869 29.3447 70.1562 28.8135 70.1562 28.1575C70.1562 27.5026 70.6869 26.9714 71.3429 26.9714C71.9978 26.9714 72.5291 27.5026 72.5291 28.1575Z" fill="#FFB1A8"/>
<path d="M68.8767 34.9129C68.8767 35.5684 68.3455 36.0996 67.6906 36.0996C67.0351 36.0996 66.5039 35.5684 66.5039 34.9129C66.5039 34.2575 67.0351 33.7263 67.6906 33.7263C68.3455 33.7263 68.8767 34.2575 68.8767 34.9129Z" fill="#FFB1A8"/>
<path d="M73.1085 32.54C73.1085 33.3763 72.4301 34.0547 71.5933 34.0547C70.7571 34.0547 70.0781 33.3763 70.0781 32.54C70.0781 31.7027 70.7571 31.0248 71.5933 31.0248C72.4301 31.0248 73.1085 31.7027 73.1085 32.54Z" fill="#FFB1A8"/>
</g>
<defs>
<clipPath id="clip0_5527_21876">
<rect width="361" height="129" fill="white"/>
</clipPath>
</defs>
</svg>
