{
  "$schema": "../../node_modules/nx/schemas/project-schema.json",
  "projectType": "application",
  "sourceRoot": "apps/user/src",
  "targets": {
    "build": {
      "executor": "@nx-plus/nuxt:browser",
      "options": {
        "buildDir": "dist/apps/user"
      },
      "configurations": {
        "production": {}
      }
    },
    "serve": {
      "executor": "@nx-plus/nuxt:server",
      "options": {
        "browserTarget": "user:build",
        "dev": true
      },
      "configurations": {
        "production": {
          "browserTarget": "user:build:production",
          "dev": false
        }
      }
    },
    "static": {
      "executor": "@nx-plus/nuxt:static",
      "options": {
        "browserTarget": "user:build:production"
      }
    },
    "lint": {
      "executor": "@nrwl/linter:eslint",
      "outputs": ["{options.outputFile}"],
      "options": {
        "lintFilePatterns": ["apps/user/**/*.{ts,tsx,vue}"]
      }
    },
    "test": {
      "executor": "@nrwl/jest:jest",
      "outputs": ["coverage/apps/user"],
      "options": {
        "jestConfig": "apps/user/jest.config.ts",
        "passWithNoTests": true
      }
    },
    "deploy": {
      "executor": "./tools/executors/deploy:deploy",
      "options": {
        "deployType": "frontend-csr",
        "subdomain": {
          "production": "app",
          "staging": "dev-user"
        }
      }
    }
  },
  "tags": [],
  "implicitDependencies": ["shared-api-nuxt", "shared-ui"]
}
