{
  "collection": "@nestjs/schematics",
  "sourceRoot": "apps/main/src",
  "monorepo": true,
  "compilerOptions": {
    "webpack": true
  },
  "projects": {
    "user": {
      "type": "application",
      "root": "apps/user",
      "entryFile": "main",
      "sourceRoot": "apps/user/src",
      "compilerOptions": {
        "tsConfigPath": "apps/user/tsconfig.app.json"
      }
    },
    "authentication": {
      "type": "library",
      "root": "libs/authentication",
      "entryFile": "index",
      "sourceRoot": "libs/authentication/src",
      "compilerOptions": {
        "tsConfigPath": "libs/authentication/tsconfig.lib.json"
      }
    },
    "ref": {
      "type": "application",
      "root": "apps/ref",
      "entryFile": "main",
      "sourceRoot": "apps/ref/src",
      "compilerOptions": {
        "tsConfigPath": "apps/ref/tsconfig.app.json"
      }
    },
    "database": {
      "type": "library",
      "root": "libs/database",
      "entryFile": "index",
      "sourceRoot": "libs/database/src",
      "compilerOptions": {
        "tsConfigPath": "libs/database/tsconfig.lib.json"
      }
    },
    "lab": {
      "type": "application",
      "root": "apps/lab",
      "entryFile": "main",
      "sourceRoot": "apps/lab/src",
      "compilerOptions": {
        "tsConfigPath": "apps/lab/tsconfig.app.json"
      }
    },
    "account": {
      "type": "library",
      "root": "libs/account",
      "entryFile": "index",
      "sourceRoot": "libs/account/src",
      "compilerOptions": {
        "tsConfigPath": "libs/account/tsconfig.lib.json"
      }
    },
    "common": {
      "type": "library",
      "root": "libs/common",
      "entryFile": "index",
      "sourceRoot": "libs/common/src",
      "compilerOptions": {
        "tsConfigPath": "libs/common/tsconfig.lib.json"
      }
    },
    "kemenkes-nar": {
      "type": "library",
      "root": "libs/kemenkes-nar",
      "entryFile": "index",
      "sourceRoot": "libs/kemenkes-nar/src",
      "compilerOptions": {
        "tsConfigPath": "libs/kemenkes-nar/tsconfig.lib.json"
      }
    },
    "report-pdf": {
      "type": "library",
      "root": "libs/report-pdf",
      "entryFile": "index",
      "sourceRoot": "libs/report-pdf/src",
      "compilerOptions": {
        "tsConfigPath": "libs/report-pdf/tsconfig.lib.json"
      }
    },
    "admin": {
      "type": "application",
      "root": "apps/admin",
      "entryFile": "main",
      "sourceRoot": "apps/admin/src",
      "compilerOptions": {
        "tsConfigPath": "apps/admin/tsconfig.app.json"
      }
    },
    "payment": {
      "type": "library",
      "root": "libs/payment",
      "entryFile": "index",
      "sourceRoot": "libs/payment/src",
      "compilerOptions": {
        "tsConfigPath": "libs/payment/tsconfig.lib.json"
      }
    },
    "aws": {
      "type": "library",
      "root": "libs/aws",
      "entryFile": "index",
      "sourceRoot": "libs/aws/src",
      "compilerOptions": {
        "tsConfigPath": "libs/aws/tsconfig.lib.json"
      }
    },
    "email-service": {
      "type": "library",
      "root": "libs/email-service",
      "entryFile": "index",
      "sourceRoot": "libs/email-service/src",
      "compilerOptions": {
        "tsConfigPath": "libs/email-service/tsconfig.lib.json"
      }
    },
    "logger-activity": {
      "type": "library",
      "root": "libs/logger-activity",
      "entryFile": "index",
      "sourceRoot": "libs/logger-activity/src",
      "compilerOptions": {
        "tsConfigPath": "libs/logger-activity/tsconfig.lib.json"
      }
    },
    "config-app": {
      "type": "library",
      "root": "libs/config-app",
      "entryFile": "index",
      "sourceRoot": "libs/config-app/src",
      "compilerOptions": {
        "tsConfigPath": "libs/config-app/tsconfig.lib.json"
      }
    },
    "apotek": {
      "type": "application",
      "root": "apps/apotek",
      "entryFile": "main",
      "sourceRoot": "apps/apotek/src",
      "compilerOptions": {
        "tsConfigPath": "apps/apotek/tsconfig.app.json"
      }
    },
    "apotek-group": {
      "type": "application",
      "root": "apps/apotek-group",
      "entryFile": "main",
      "sourceRoot": "apps/apotek-group/src",
      "compilerOptions": {
        "tsConfigPath": "apps/apotek-group/tsconfig.app.json"
      }
    },
    "chat": {
      "type": "library",
      "root": "libs/chat",
      "entryFile": "index",
      "sourceRoot": "libs/chat/src",
      "compilerOptions": {
        "tsConfigPath": "libs/chat/tsconfig.lib.json"
      }
    },
    "data": {
      "type": "application",
      "root": "apps/data",
      "entryFile": "main",
      "sourceRoot": "apps/data/src",
      "compilerOptions": {
        "tsConfigPath": "apps/data/tsconfig.app.json"
      }
    },
    "file": {
      "type": "library",
      "root": "libs/file",
      "entryFile": "index",
      "sourceRoot": "libs/file/src",
      "compilerOptions": {
        "tsConfigPath": "libs/file/tsconfig.lib.json"
      }
    }
  }
}