Fluorescence\Time [hh:mm:ss]	00:11:25	00:11:26	00:12:44	00:12:45	00:14:04	00:14:05	00:15:23	00:15:25	00:16:43	00:16:44	00:18:03	00:18:04	00:19:22	00:19:23	00:20:42	00:20:43	00:22:01	00:22:02	00:23:21	00:23:22	00:24:40	00:24:42	00:26:00	00:26:01	00:27:20	00:27:21	00:28:39	00:28:40	00:29:59	00:30:00	00:31:18	00:31:19	00:32:38	00:32:39	00:33:57	00:33:59	00:35:17	00:35:18	00:36:37	00:36:38	00:37:56	00:37:57	00:39:16	00:39:17	00:40:35	00:40:37	00:41:55	00:41:56	00:43:15	00:43:16	00:44:34	00:44:35	00:45:54	00:45:55	00:47:13	00:47:15	00:48:33	00:48:34	00:49:53	00:49:54	00:51:12	00:51:13	00:52:32	00:52:33	00:53:51	00:53:53	00:55:11	00:55:12	00:56:31	00:56:32	00:57:50	00:57:51	00:59:10	00:59:11	01:00:29	01:00:31	01:01:49	01:01:50	01:03:09	01:03:10	01:04:28	01:04:29	01:05:48	01:05:49	01:07:07	01:07:08	01:08:27	01:08:28	01:09:46	01:09:48
A1 Cy5		0.022582		0.0245238		0.0264138		0.0276005		0.0289259		0.0302348		0.0318128		0.0330901		0.0333926		0.0335215		0.0337635		0.0338066		0.0340137		0.0341793		0.0342943		0.0344361		0.0344412		0.0345889		0.0348085		0.0349496		0.0350728		0.0351892		0.035366		0.0354482		0.0355755		0.0356918		0.0358342		0.0361882		0.0365719		0.0372999		0.0384067		0.0403275		0.0431009		0.0470651		0.0513725		0.0559967		0.0598913		0.0628619		0.0651629		0.0666155		0.0676752		0.0684918		0.0690207		0.0695274		0.0701045
A1 FAM	0.297359		0.324619		0.351299		0.36808		0.384357		0.402245		0.424383		0.442644		0.445022		0.446102		0.447417		0.447739		0.448888		0.448735		0.449437		0.450796		0.45258		0.451625		0.452243		0.452658		0.455054		0.453815		0.453828		0.455583		0.456719		0.45614		0.456511		0.457016		0.457829		0.458652		0.458933		0.459646		0.459823		0.460305		0.46043		0.461426		0.461935		0.462154		0.46198		0.463213		0.463522		0.464131		0.464706		0.464317		0.464555	
A2 Cy5		0.0354781		0.0359025		0.0359892		0.0362917		0.0364628		0.036588		0.0368144		0.0369068		0.0371571		0.0372799		0.0374972		0.0375532		0.0378139		0.0378931		0.0380159		0.0382154		0.0382574		0.038425		0.0385729		0.0386966		0.0389032		0.0390455		0.0391639		0.039256		0.0394662		0.0396003		0.0399156		0.0402996		0.0410164		0.0421957		0.0441685		0.0471657		0.0509538		0.0551119		0.0589762		0.0624706		0.0650713		0.0671958		0.0688609		0.0701708		0.0712497		0.0722304		0.0731689		0.0739639		0.0746041
A2 FAM	0.455011		0.456864		0.457997		0.458903		0.461279		0.461266		0.46196		0.463761		0.465125		0.466108		0.466844		0.467789		0.467365		0.469411		0.47051		0.470461		0.470546		0.472128		0.472139		0.472973		0.473045		0.474376		0.476254		0.475989		0.475469		0.477071		0.476059		0.476882		0.478101		0.47831		0.478688		0.479228		0.479625		0.480098		0.480177		0.48099		0.481352		0.481751		0.482583		0.482749		0.482456		0.483041		0.483503		0.483046		0.483988	
A3 Cy5		0.0320618		0.0323329		0.0324675		0.0325913		0.0328342		0.0330528		0.0332319		0.0333636		0.033512		0.033732		0.0338722		0.0340055		0.0342185		0.0343019		0.0344447		0.0346262		0.0347166		0.0348953		0.0350474		0.0350828		0.035309		0.0354126		0.0355507		0.0357667		0.035996		0.0362621		0.0368283		0.0374867		0.0389348		0.0413995		0.0455061		0.0517117		0.0593539		0.0673892		0.0745812		0.0804883		0.0849463		0.0879594		0.0899549		0.0911612		0.0919957		0.0924887		0.0930138		0.0935607		0.0939054
A3 FAM	0.427002		0.426936		0.429167		0.429884		0.431063		0.432635		0.434428		0.435812		0.436767		0.43703		0.438838		0.43899		0.440981		0.440648		0.440943		0.441979		0.442829		0.44384		0.444802		0.444849		0.445594		0.446271		0.44657		0.447487		0.447885		0.44807		0.448595		0.449836		0.450693		0.449846		0.451382		0.45186		0.452114		0.452389		0.453332		0.452794		0.454053		0.454122		0.455371		0.455233		0.454747		0.456187		0.45688		0.456879		0.456689	
A4 Cy5		0.0376179		0.0373642		0.0372584		0.0372671		0.0374213		0.0375376		0.0376607		0.0377551		0.0379627		0.0379685		0.0381882		0.0383474		0.0383867		0.0385426		0.0386239		0.0387687		0.0389089		0.039167		0.0392382		0.039444		0.0395204		0.0396223		0.0397069		0.0399317		0.0401323		0.0403839		0.0408149		0.041408		0.0423714		0.0440911		0.0470599		0.0515633		0.0570848		0.0632264		0.0688694		0.0736459		0.0772406		0.0801377		0.0823472		0.0839151		0.0851165		0.0860423		0.0868723		0.0876483		0.0883859
A4 FAM	0.476378		0.472305		0.471701		0.47131		0.472802		0.473491		0.473156		0.47358		0.475519		0.475261		0.477286		0.476671		0.478599		0.478176		0.478693		0.480029		0.480491		0.480529		0.481685		0.481271		0.482166		0.482311		0.482849		0.484098		0.484209		0.484393		0.485902		0.485646		0.486965		0.486745		0.487044		0.487818		0.488227		0.488946		0.489213		0.489163		0.490383		0.490355		0.492006		0.493025		0.492665		0.49334		0.494156		0.494491		0.494191	
A5 Cy5		0.0348957		0.034718		0.03462		0.0346439		0.0346611		0.0346317		0.0347475		0.0348868		0.0349794		0.035238		0.0353572		0.0354779		0.0356947		0.0356814		0.0358545		0.0359451		0.0361638		0.0362686		0.0364507		0.0365235		0.0366601		0.0368449		0.0369258		0.0370701		0.0372374		0.0373426		0.0376081		0.0378006		0.0381887		0.0387004		0.0394423		0.0409965		0.0430539		0.0459954		0.0493682		0.0529146		0.0561344		0.0586877		0.0605508		0.0618921		0.0629262		0.0636448		0.0644807		0.0651046		0.06581
A5 FAM	0.458282		0.45506		0.454298		0.453897		0.453495		0.452726		0.453755		0.455195		0.454728		0.455385		0.456468		0.456205		0.458259		0.45741		0.45808		0.458231		0.459014		0.460253		0.460686		0.460932		0.461355		0.462169		0.462462		0.462309		0.462246		0.46358		0.463128		0.464322		0.465367		0.464805		0.465393		0.465913		0.466497		0.465845		0.467036		0.466907		0.468346		0.468394		0.469461		0.469403		0.470128		0.470324		0.471507		0.470293		0.471556	
A8 Cy5		0.0384737		0.0388033		0.0390334		0.0391159		0.0393059		0.0395292		0.0396715		0.0397724		0.0399191		0.0400756		0.0401055		0.0402981		0.040397		0.0406289		0.0407259		0.0410046		0.0411441		0.041428		0.0415654		0.0417452		0.04202		0.0421673		0.0423174		0.0424789		0.0428045		0.0430193		0.043179		0.0435899		0.0442225		0.0452156		0.046984		0.0501552		0.0555736		0.0647236		0.0756518		0.0859744		0.0939534		0.100151		0.105097		0.10913		0.112285		0.115274		0.117911		0.120339		0.122566
A8 FAM	0.282113		0.283761		0.284012		0.28472		0.285296		0.287233		0.287024		0.287262		0.287903		0.288316		0.28921		0.288934		0.289781		0.291007		0.290482		0.291773		0.291196		0.291849		0.292888		0.293034		0.292959		0.293046		0.294141		0.294174		0.294769		0.294616		0.295461		0.295252		0.296013		0.297002		0.297057		0.296781		0.296683		0.29681		0.296978		0.297461		0.298246		0.298287		0.298344		0.299146		0.299095		0.299506		0.299414		0.299712		0.300048	
A9 Cy5		0.0395382		0.0396604		0.0396586		0.0397956		0.039865		0.0399173		0.0400226		0.0401584		0.0401935		0.0403255		0.0404411		0.0405328		0.0406338		0.040883		0.040923		0.0410669		0.0412739		0.0414468		0.0414856		0.041596		0.0417772		0.0419398		0.0420476		0.0422349		0.0424634		0.0427003		0.0432618		0.0438798		0.045186		0.0472311		0.0510759		0.0575492		0.0665557		0.0768254		0.0861305		0.0934608		0.0991549		0.103491		0.106658		0.109595		0.111811		0.113798		0.115562		0.117214		0.118746
A9 FAM	0.269132		0.269645		0.270005		0.270181		0.270745		0.271021		0.271467		0.271731		0.272179		0.272744		0.272145		0.27257		0.273316		0.273056		0.273843		0.27371		0.274011		0.274509		0.27486		0.274286		0.273836		0.274567		0.275163		0.275368		0.275475		0.275895		0.276559		0.275872		0.276577		0.276291		0.276595		0.276405		0.276371		0.276463		0.277226		0.277509		0.277232		0.277278		0.277664		0.277892		0.277759		0.27777		0.278814		0.278475		0.278783	
A10 Cy5		0.0376196		0.0370553		0.0369333		0.0368639		0.0369837		0.0370254		0.0371617		0.0373378		0.0373114		0.03746		0.0375014		0.0375373		0.0377148		0.0377463		0.0377979		0.0380744		0.0382289		0.0383039		0.0385554		0.0386453		0.0389196		0.038958		0.0391809		0.0394036		0.0396383		0.0400566		0.0407399		0.0418222		0.0438019		0.0474576		0.0538379		0.064067		0.0773581		0.0903767		0.100426		0.107872		0.113449		0.117827		0.121625		0.124783		0.127666		0.130046		0.132636		0.134821		0.137211
A10 FAM	0.257924		0.25489		0.253707		0.252817		0.252844		0.253576		0.252797		0.25335		0.253576		0.253401		0.253583		0.254214		0.254217		0.2549		0.254823		0.254849		0.255139		0.255516		0.256576		0.255869		0.256515		0.256861		0.25749		0.257579		0.256893		0.257066		0.258462		0.257836		0.257988		0.258258		0.258096		0.258385		0.259327		0.259149		0.258702		0.258874		0.260086		0.260399		0.259982		0.260784		0.26095		0.26075		0.260637		0.260538		0.260385	
A11 Cy5		0.0452334		0.0459335		0.0462216		0.0464096		0.0468272		0.0468933		0.0470581		0.0471835		0.0473464		0.0474358		0.0476146		0.0476557		0.0479309		0.0480596		0.0482932		0.0484703		0.0486084		0.0489275		0.0489952		0.0491658		0.0493051		0.0496223		0.0497635		0.0499137		0.0501381		0.0505364		0.0511385		0.0520544		0.0537958		0.0567921		0.0620073		0.0707099		0.082332		0.0954224		0.107157		0.116629		0.124009		0.129469		0.134009		0.137402		0.140477		0.142897		0.14506		0.14711		0.148794
A11 FAM	0.310385		0.312416		0.314008		0.315178		0.315831		0.316761		0.316947		0.318492		0.318655		0.320071		0.320037		0.321071		0.322041		0.32096		0.32155		0.322679		0.322833		0.322976		0.32353		0.323287		0.325206		0.325029		0.324485		0.325012		0.324534		0.325882		0.326026		0.326405		0.326467		0.327055		0.327585		0.327255		0.32784		0.328135		0.327254		0.328481		0.328576		0.328193		0.328956		0.329463		0.329623		0.33004		0.330372		0.329756		0.329711	
A12 Cy5		0.0377447		0.0381634		0.0382258		0.0384525		0.0385647		0.038787		0.0388335		0.0389924		0.039119		0.0392516		0.0394671		0.0396685		0.0399089		0.0400393		0.0402727		0.0405167		0.0405544		0.0408487		0.0408266		0.0410727		0.0412478		0.0414191		0.0415303		0.0417681		0.0420461		0.0422219		0.0424216		0.0427408		0.0433902		0.044173		0.0456772		0.0484789		0.0533017		0.0610568		0.0707576		0.0796988		0.0867843		0.0925217		0.0969697		0.100958		0.104271		0.107233		0.110166		0.112697		0.115097
A12 FAM	0.257928		0.259488		0.260145		0.261449		0.262294		0.261998		0.263252		0.26455		0.264713		0.264823		0.264596		0.265991		0.266702		0.266635		0.266935		0.267141		0.267671		0.268186		0.267674		0.268408		0.268933		0.268854		0.269211		0.27048		0.270211		0.270619		0.270991		0.270769		0.271446		0.271512		0.271968		0.272199		0.272428		0.27244		0.273092		0.272728		0.273135		0.27409		0.273025		0.274657		0.273952		0.274689		0.27495		0.274853		0.274257	
B1 Cy5		0.0345146		0.0345398		0.0346942		0.0347702		0.0347571		0.035016		0.035247		0.0353955		0.0354908		0.0356826		0.0357852		0.0357926		0.0359963		0.0360942		0.0362465		0.0364294		0.0364216		0.0365991		0.0367725		0.0369014		0.037053		0.0371377		0.0373728		0.0375405		0.037876		0.0382999		0.039161		0.0408426		0.0436394		0.0483696		0.0556259		0.0650205		0.0748065		0.0835444		0.0906134		0.0958376		0.0996902		0.102102		0.103594		0.104469		0.105193		0.105796		0.106173		0.106694		0.107029
B1 FAM	0.489412		0.48889		0.490561		0.490801		0.491997		0.494241		0.494574		0.496168		0.496916		0.497707		0.497699		0.498047		0.49907		0.500081		0.500617		0.501431		0.502692		0.503062		0.502709		0.503177		0.50464		0.504886		0.505228		0.506203		0.506846		0.507045		0.507644		0.508732		0.508687		0.509586		0.509789		0.511153		0.510547		0.512046		0.512196		0.512737		0.513501		0.513606		0.514201		0.514683		0.515816		0.515445		0.516875		0.516111		0.517434	
B2 Cy5		0.0353411		0.035779		0.0360001		0.0361746		0.0363686		0.0366402		0.0367868		0.0369125		0.0370855		0.0372595		0.0374433		0.0376626		0.0377247		0.0378352		0.0379829		0.038247		0.0383841		0.0384381		0.0386149		0.038773		0.0389069		0.0390703		0.0393613		0.039823		0.0402331		0.0411729		0.042729		0.0457351		0.0509069		0.0587904		0.0696179		0.0811936		0.0915076		0.0999928		0.106348		0.111077		0.114267		0.11616		0.11751		0.118084		0.118832		0.119438		0.119836		0.120127		0.120675
B2 FAM	0.487689		0.490299		0.492417		0.493484		0.495192		0.496067		0.497628		0.49889		0.499966		0.501254		0.501357		0.502556		0.502739		0.503902		0.505232		0.505478		0.507327		0.506946		0.507549		0.50794		0.510047		0.50911		0.510567		0.510914		0.511288		0.511877		0.512394		0.512847		0.513124		0.514238		0.515078		0.515431		0.5159		0.516641		0.516724		0.516733		0.518046		0.518471		0.518087		0.518719		0.518997		0.519713		0.52034		0.52098		0.520428	
B3 Cy5		0.029998		0.0299948		0.0299693		0.0300643		0.0300636		0.0301631		0.0301664		0.0302927		0.0303716		0.0305005		0.0306341		0.0307672		0.0310288		0.0311472		0.0312069		0.0313232		0.0314468		0.0315829		0.0317874		0.0317		0.0318227		0.032025		0.0320503		0.0322649		0.0323115		0.0324492		0.0324951		0.0326274		0.0328981		0.0330571		0.0334025		0.0339901		0.0348895		0.0362755		0.0379847		0.0402547		0.0426182		0.0446748		0.0464		0.0476779		0.048504		0.0490417		0.0495965		0.0498821		0.0502354
B3 FAM	0.409003		0.408446		0.408904		0.409502		0.410005		0.410958		0.411005		0.412039		0.412709		0.413365		0.414667		0.414397		0.417845		0.417985		0.418551		0.418908		0.419105		0.420241		0.420643		0.421112		0.420992		0.421555		0.423228		0.422604		0.423412		0.423839		0.423761		0.424858		0.426032		0.425257		0.426473		0.426247		0.426811		0.427003		0.427523		0.428735		0.428502		0.428842		0.429626		0.429789		0.42961		0.430535		0.431375		0.431779		0.431853	
B4 Cy5		0.0334398		0.0332101		0.0332007		0.0333797		0.0333836		0.0335798		0.0336831		0.033847		0.0339446		0.0340851		0.0342355		0.0343508		0.0344425		0.0345573		0.0346839		0.0348695		0.0348642		0.0350385		0.0352564		0.0353414		0.035387		0.0355855		0.0357554		0.0357824		0.0359326		0.0360883		0.0362125		0.0365088		0.0366904		0.0369594		0.0375711		0.0385513		0.0400206		0.0420874		0.0448719		0.0481192		0.0512202		0.0541258		0.0561982		0.0575674		0.0585156		0.0592136		0.0598418		0.0603423		0.0607703
B4 FAM	0.457322		0.453729		0.452949		0.45312		0.454016		0.452993		0.455916		0.455479		0.457018		0.456834		0.458247		0.458145		0.460102		0.459734		0.460622		0.46086		0.461337		0.461703		0.463222		0.463356		0.463418		0.464758		0.465261		0.465524		0.464537		0.467486		0.46807		0.467862		0.467853		0.468954		0.468951		0.469706		0.471005		0.470726		0.470422		0.471874		0.472088		0.472217		0.47233		0.473871		0.474014		0.473726		0.473956		0.473952		0.47535	
B5 Cy5		0.0312868		0.0308739		0.0306341		0.0306734		0.0306988		0.0308466		0.0308978		0.031006		0.031083		0.0311444		0.0312996		0.0314318		0.0315163		0.0316144		0.0317502		0.0318993		0.0319554		0.0320501		0.0322731		0.0323271		0.0324529		0.0326685		0.0326951		0.0328627		0.0330799		0.0332873		0.0336758		0.0342421		0.0353136		0.0371062		0.0404373		0.0452915		0.0515562		0.05842		0.0649683		0.0703784		0.0744968		0.0775202		0.0796871		0.0809508		0.0819692		0.0827067		0.083273		0.083715		0.0842001
B5 FAM	0.427512		0.423018		0.420741		0.421226		0.421239		0.420796		0.422072		0.422609		0.422749		0.423287		0.424156		0.424125		0.424771		0.425552		0.425021		0.425566		0.426269		0.426312		0.427103		0.427713		0.42896		0.428525		0.428966		0.429525		0.430273		0.430718		0.431133		0.432002		0.432092		0.432353		0.433056		0.434531		0.434084		0.434994		0.435135		0.435445		0.436898		0.43623		0.437258		0.438061		0.438947		0.439094		0.438603		0.439031		0.439825	
B8 Cy5		0.0395161		0.0398023		0.0399657		0.0399192		0.0408321		0.0407783		0.0408536		0.0411086		0.0412164		0.041434		0.0416158		0.0419275		0.0420057		0.0423165		0.0425504		0.0427513		0.0429438		0.0432824		0.0433993		0.0436511		0.0438765		0.0441877		0.0444529		0.0448906		0.0454007		0.0462691		0.0477544		0.0503238		0.0550612		0.0629602		0.0754789		0.0915318		0.107791		0.121461		0.131471		0.138357		0.14345		0.147216		0.150229		0.152935		0.155085		0.157089		0.158956		0.160605		0.162418
B8 FAM	0.290479		0.292456		0.292944		0.291838		0.296393		0.29616		0.29686		0.297083		0.298593		0.298595		0.300288		0.301127		0.300988		0.30248		0.301827		0.303119		0.303532		0.304108		0.30447		0.305209		0.305561		0.305869		0.306797		0.306971		0.307009		0.306662		0.308109		0.308789		0.308732		0.308804		0.309167		0.310055		0.310029		0.310061		0.310355		0.311084		0.310925		0.312437		0.312291		0.312137		0.312665		0.312494		0.312372		0.313168		0.313164	
B9 Cy5		0.0364101		0.0362306		0.0361661		0.0361721		0.036158		0.0362047		0.0362628		0.0363579		0.0363759		0.0365529		0.0366352		0.036861		0.0369788		0.0370836		0.0372355		0.0374466		0.0375441		0.0377164		0.0379503		0.0380483		0.0382298		0.0385366		0.0388053		0.0393245		0.0400346		0.0413703		0.0436412		0.0478568		0.0550068		0.0661855		0.0810108		0.0965717		0.110183		0.12038		0.127495		0.132641		0.136115		0.138809		0.141089		0.142855		0.144547		0.145829		0.147238		0.148451		0.149544
B9 FAM	0.26629		0.266138		0.2662		0.266403		0.266309		0.26674		0.266865		0.267054		0.267895		0.267999		0.268148		0.268911		0.268617		0.269157		0.269024		0.269443		0.269818		0.27009		0.270538		0.270572		0.2712		0.27124		0.272099		0.271862		0.272143		0.272355		0.27243		0.273231		0.273711		0.274001		0.273958		0.274659		0.274427		0.273743		0.274637		0.275337		0.275687		0.275674		0.276203		0.275955		0.27644		0.276865		0.277045		0.276781		0.276325	
B10 Cy5		0.0342538		0.0341154		0.0341682		0.0342204		0.0344378		0.0345479		0.0346321		0.0346871		0.034842		0.0349591		0.0349463		0.0350727		0.0351065		0.0351962		0.0352926		0.0354228		0.0356219		0.0357216		0.0358525		0.0360597		0.0361566		0.0363262		0.0363683		0.0366462		0.0367483		0.0368369		0.0371895		0.0372594		0.037524		0.037857		0.0384641		0.0393692		0.0410288		0.0442878		0.0490269		0.0543827		0.0593967		0.06356		0.0672581		0.0704939		0.0735757		0.0764231		0.0791883		0.082017		0.08489
B10 FAM	0.247187		0.245182		0.244965		0.245715		0.246054		0.246733		0.246448		0.246704		0.247291		0.247861		0.248013		0.247963		0.247934		0.24825		0.248578		0.249309		0.248969		0.249594		0.249379		0.249392		0.250125		0.250838		0.250888		0.250891		0.251447		0.25186		0.252083		0.25214		0.252197		0.252809		0.252882		0.253624		0.252941		0.25397		0.253568		0.254039		0.254268		0.254432		0.25535		0.254907		0.255289		0.255914		0.256494		0.2554		0.256829	
B11 Cy5		0.036288		0.036492		0.0366208		0.0367534		0.0369535		0.0370467		0.0373246		0.0373619		0.0377078		0.0378709		0.0379727		0.0381945		0.0382865		0.0385336		0.0386968		0.0389168		0.0390063		0.0392752		0.0394452		0.0396134		0.039896		0.0401385		0.0402036		0.0403242		0.0405449		0.0407471		0.041126		0.0413479		0.0417581		0.0423709		0.0433578		0.0451604		0.0482891		0.0540412		0.0624224		0.0715471		0.0795539		0.0859624		0.0912642		0.0954994		0.0994093		0.102779		0.10567		0.108635		0.117462
B11 FAM	0.26602		0.266955		0.267096		0.268515		0.268783		0.26935		0.270011		0.271139		0.272883		0.273116		0.273868		0.274513		0.27515		0.275523		0.275926		0.276872		0.277623		0.278517		0.278334		0.278782		0.279005		0.279971		0.2796		0.280758		0.281076		0.281287		0.282106		0.282439		0.283247		0.283682		0.283532		0.284458		0.284061		0.285081		0.285034		0.286168		0.285961		0.286841		0.286995		0.287073		0.288855		0.288146		0.288059		0.288125		0.30293	
B12 Cy5		0.0348985		0.03488		0.035023		0.0351584		0.035359		0.0354778		0.035668		0.0358456		0.0360339		0.0362629		0.0364661		0.0365206		0.0368663		0.037007		0.0370554		0.0372097		0.0373335		0.0376054		0.0377951		0.0378436		0.0380986		0.0382095		0.0384185		0.0387225		0.0388369		0.0392735		0.0398391		0.040848		0.0427957		0.0461171		0.0519112		0.0613415		0.0741121		0.0869535		0.097022		0.104219		0.109534		0.113589		0.116964		0.119783		0.122105		0.12435		0.126326		0.128178		0.129886
B12 FAM	0.254349		0.254349		0.255161		0.255877		0.256536		0.257852		0.258071		0.259259		0.259595		0.260378		0.26017		0.261265		0.262039		0.262015		0.262577		0.262106		0.263633		0.262751		0.264881		0.26438		0.265288		0.264717		0.265259		0.265641		0.266207		0.266334		0.266948		0.266859		0.267656		0.267485		0.26826		0.267804		0.268607		0.269479		0.268468		0.269162		0.269756		0.269638		0.270754		0.269887		0.270202		0.270797		0.271189		0.270842		0.271218	
C1 Cy5		0.0322297		0.0320803		0.0321797		0.0322627		0.0323722		0.0324824		0.032727		0.0329668		0.033095		0.0332826		0.0333287		0.0334963		0.0336427		0.0336357		0.0338872		0.033925		0.0341386		0.0342117		0.0343502		0.0344648		0.0345669		0.0347386		0.0348048		0.0348824		0.0350358		0.0350854		0.0351368		0.0352667		0.0353298		0.0355082		0.0355605		0.0357712		0.0359325		0.0362441		0.0363873		0.0368026		0.0371193		0.0374892		0.037877		0.038233		0.0383387		0.03856		0.0387585		0.0388395		0.0389294
C1 FAM	0.453607		0.451251		0.452413		0.454014		0.454781		0.454712		0.4561		0.457389		0.458462		0.459869		0.460642		0.461352		0.462344		0.463256		0.463547		0.464702		0.46409		0.465339		0.4667		0.467041		0.467697		0.467154		0.468562		0.467818		0.469375		0.469746		0.469794		0.470569		0.470644		0.470514		0.471162		0.471925		0.471836		0.471968		0.47199		0.473047		0.47337		0.474688		0.47447		0.473892		0.475439		0.474985		0.475933		0.475558		0.47663	
C2 Cy5		0.0326914		0.0326153		0.0325485		0.032475		0.0324609		0.0325432		0.0326476		0.0328214		0.0328314		0.0330077		0.0330966		0.0331721		0.0332396		0.0333996		0.0334175		0.0336321		0.033616		0.033786		0.0338536		0.0339706		0.0340831		0.0342042		0.0342863		0.0344357		0.0347762		0.0351334		0.035818		0.0370124		0.039064		0.0426306		0.0476254		0.0537984		0.0595905		0.0648162		0.068767		0.0718537		0.0742052		0.0758811		0.0772562		0.0783594		0.0795208		0.080263		0.0809977		0.0816793		0.0824028
C2 FAM	0.427745		0.428879		0.428867		0.42769		0.427727		0.428309		0.429131		0.429477		0.429455		0.429952		0.431301		0.431685		0.431714		0.432617		0.432865		0.434009		0.434464		0.433785		0.435368		0.435071		0.435524		0.436019		0.436606		0.436475		0.43732		0.438037		0.437829		0.438191		0.43829		0.439001		0.439228		0.439981		0.439977		0.440258		0.441787		0.441119		0.44103		0.442118		0.44162		0.44168		0.44173		0.442349		0.441735		0.442984		0.442919	
C3 Cy5		0.0240946		0.0273522		0.0315529		0.0317963		0.0319136		0.0319764		0.0321243		0.0322012		0.0323204		0.0324106		0.0324233		0.0324297		0.0325799		0.0325716		0.0327188		0.0327936		0.0327736		0.0328808		0.0329658		0.0331177		0.0331597		0.0332445		0.0334002		0.0335091		0.0335832		0.0340241		0.0345043		0.0353616		0.036837		0.0392527		0.0428898		0.0471459		0.0514243		0.0552241		0.0580722		0.0604852		0.0623509		0.06385		0.0651146		0.0660868		0.0670866		0.0678925		0.068594		0.0693601		0.0699675
C3 FAM	0.291978		0.337259		0.399561		0.404604		0.40546		0.405658		0.40662		0.40682		0.407069		0.407236		0.408003		0.408528		0.408184		0.409442		0.409272		0.409809		0.410559		0.410523		0.410993		0.411311		0.412607		0.412222		0.413252		0.413356		0.413286		0.414244		0.414119		0.415084		0.415683		0.415514		0.416224		0.416511		0.417611		0.417255		0.418378		0.418613		0.418639		0.41905		0.41828		0.419651		0.419358		0.419305		0.419793		0.420006		0.420749	
C4 Cy5		0.033125		0.0331364		0.033075		0.033115		0.033162		0.0332833		0.0334108		0.0335945		0.0337897		0.0339285		0.0340367		0.0342148		0.0343235		0.0344586		0.0345752		0.0348219		0.0348402		0.0349402		0.0351206		0.0352992		0.035393		0.0356181		0.0357536		0.0359814		0.0363814		0.0369257		0.037908		0.0394054		0.0424469		0.0473337		0.0549689		0.0650353		0.0749564		0.0837383		0.0909087		0.0961541		0.0999477		0.102305		0.104		0.104816		0.105743		0.106113		0.106778		0.107084		0.107528
C4 FAM	0.452485		0.45377		0.453654		0.453553		0.454155		0.45472		0.456616		0.457863		0.458195		0.458944		0.461067		0.460594		0.462019		0.462728		0.462337		0.464631		0.4648		0.466174		0.465832		0.466833		0.467534		0.467582		0.468723		0.469291		0.469283		0.470877		0.470711		0.471237		0.47225		0.472871		0.473295		0.474127		0.474936		0.475046		0.474931		0.475954		0.476946		0.477095		0.477191		0.478748		0.47732		0.478789		0.479104		0.480052		0.48061	
C5 Cy5		0.0389453		0.0389615		0.0390035		0.0393672		0.0393845		0.0395435		0.0396152		0.0398114		0.0399461		0.0401053		0.0402587		0.0403977		0.0405964		0.0406616		0.0407997		0.0410054		0.0411018		0.0412818		0.0413752		0.0415773		0.04167		0.0418464		0.0420269		0.0422294		0.042259		0.0423065		0.0425184		0.0426343		0.0428549		0.0429568		0.0430883		0.0433621		0.0434355		0.0436709		0.0439032		0.0439875		0.0441958		0.044316		0.0444511		0.0446055		0.04468		0.0448009		0.0448924		0.0451273		0.0451416
C5 FAM	0.520871		0.521102		0.521107		0.522216		0.522781		0.522194		0.523606		0.525411		0.524752		0.52613		0.526711		0.527231		0.528052		0.529377		0.528727		0.529161		0.530671		0.530856		0.531322		0.532065		0.532358		0.532993		0.532824		0.533791		0.53384		0.534145		0.534512		0.53448		0.535683		0.536943		0.536024		0.536941		0.537796		0.537854		0.538379		0.539277		0.538948		0.539492		0.539622		0.540499		0.541296		0.54151		0.541372		0.541302		0.541815	
C8 Cy5		0.0372962		0.0371693		0.0370794		0.0370491		0.0372737		0.0372365		0.0373822		0.0374562		0.037523		0.0376648		0.03778		0.0377976		0.0379779		0.0380262		0.0380629		0.0382235		0.0382761		0.0384106		0.0385666		0.0386673		0.0388784		0.0390697		0.039166		0.0392583		0.0395274		0.0396623		0.0398287		0.0399483		0.0408208		0.0409453		0.0411193		0.0412805		0.041606		0.0420981		0.0429506		0.0439711		0.0453911		0.0467417		0.0479147		0.0491633		0.0502372		0.0512423		0.05226		0.0533504		0.0543695
C8 FAM	0.272886		0.272894		0.27199		0.272047		0.272382		0.273134		0.27334		0.272912		0.27372		0.273849		0.274107		0.274252		0.275455		0.275018		0.2751		0.275637		0.276663		0.276058		0.277536		0.277552		0.277165		0.277934		0.278658		0.278274		0.279029		0.279247		0.27993		0.279406		0.282859		0.282466		0.282788		0.282858		0.283554		0.283699		0.283716		0.283924		0.283637		0.283989		0.285502		0.284965		0.285021		0.285693		0.285616		0.284983		0.285447	
C9 Cy5		0.0386805		0.0388208		0.0390653		0.0392397		0.0395639		0.0398177		0.0398953		0.0401708		0.0403419		0.0405729		0.0407581		0.0408699		0.0411147		0.0412844		0.0414452		0.041622		0.0417855		0.0419437		0.0420835		0.0422855		0.0425517		0.0427747		0.042987		0.0432832		0.0438472		0.0447441		0.0463464		0.0491605		0.0541474		0.0618564		0.0723507		0.0834024		0.0933445		0.101623		0.107842		0.112932		0.11683		0.120002		0.122585		0.124651		0.126385		0.128084		0.129682		0.13086		0.131873
C9 FAM	0.270446		0.270515		0.270716		0.271684		0.272431		0.272924		0.272614		0.273326		0.273374		0.274762		0.273933		0.274584		0.275725		0.275171		0.27547		0.275323		0.276102		0.276617		0.277124		0.276923		0.277797		0.277587		0.277383		0.278413		0.27827		0.278779		0.279393		0.278005		0.278588		0.278606		0.279613		0.279724		0.279933		0.280357		0.280051		0.279937		0.280601		0.280473		0.281107		0.280842		0.281087		0.281289		0.281792		0.281383		0.28163	
C10 Cy5		0.0461398		0.0461902		0.0462538		0.0463825		0.0466077		0.0466982		0.0467758		0.0469439		0.0470914		0.0471647		0.0472203		0.0473759		0.0476034		0.0478186		0.0480399		0.0481524		0.0483337		0.0485283		0.0487658		0.0488904		0.0491101		0.0493864		0.0495577		0.0498923		0.0504233		0.0512456		0.0527591		0.0552694		0.0597925		0.0672115		0.0777732		0.0902745		0.102276		0.11267		0.12111		0.128063		0.133575		0.138258		0.141834		0.144649		0.14724		0.149452		0.151215		0.15279		0.154447
C10 FAM	0.312837		0.311401		0.31159		0.3116		0.31204		0.313159		0.313217		0.314379		0.314533		0.315314		0.315828		0.315796		0.316303		0.316717		0.317351		0.317677		0.317576		0.318423		0.319176		0.319241		0.319159		0.319623		0.320569		0.320877		0.320327		0.321163		0.322248		0.322108		0.32272		0.322338		0.322422		0.323573		0.323638		0.323644		0.323829		0.324919		0.324426		0.324376		0.325448		0.325216		0.325506		0.325389		0.325244		0.325697		0.326142	
C11 Cy5		0.0339808		0.0339327		0.0340848		0.0341794		0.0343538		0.0345884		0.0347228		0.0348443		0.0348277		0.0350626		0.0352079		0.0353465		0.0356271		0.0356883		0.0358607		0.0360253		0.0361466		0.036311		0.0364975		0.0366539		0.036762		0.0370086		0.0372051		0.0374926		0.0380913		0.0388523		0.0403685		0.0430715		0.0477547		0.0556295		0.0676292		0.0823418		0.0965755		0.108093		0.116219		0.122079		0.125953		0.128998		0.131539		0.133502		0.135287		0.136938		0.138463		0.13994		0.141094
C11 FAM	0.247373		0.247071		0.246984		0.247492		0.248716		0.249747		0.249601		0.251143		0.251119		0.251386		0.252129		0.252629		0.252331		0.253042		0.253188		0.253881		0.253053		0.253576		0.254473		0.254465		0.254948		0.255924		0.255272		0.255937		0.255863		0.256042		0.256676		0.256744		0.257284		0.257053		0.257561		0.258056		0.258325		0.258296		0.258361		0.258647		0.258868		0.259039		0.258567		0.259126		0.259172		0.259511		0.259807		0.25937		0.259607	
C12 Cy5		0.0406106		0.0411617		0.0415576		0.0417561		0.0424714		0.0427767		0.043075		0.0433664		0.0436794		0.0440538		0.0442645		0.0444907		0.0447911		0.0450922		0.0452608		0.0455031		0.0458177		0.0460417		0.0463053		0.0466101		0.0467253		0.0470801		0.0472398		0.0474551		0.047688		0.0479326		0.0481377		0.0483274		0.0486191		0.0488152		0.0490756		0.0493168		0.0494877		0.0497881		0.0500937		0.0503864		0.0505375		0.0507847		0.0510646		0.0511299		0.0513545		0.0515452		0.0518018		0.0519352		0.0520944
C12 FAM	0.274742		0.275954		0.277838		0.279642		0.281597		0.282662		0.282977		0.285043		0.28527		0.286359		0.286618		0.287937		0.289121		0.288763		0.289382		0.290346		0.291802		0.291779		0.292319		0.292254		0.293746		0.294586		0.294543		0.295301		0.296503		0.296689		0.297044		0.297359		0.296986		0.298565		0.298645		0.299279		0.29952		0.300191		0.300471		0.300989		0.300706		0.301349		0.301668		0.302204		0.301769		0.302822		0.303728		0.30389		0.304037	
D1 Cy5		0.0283995		0.0284243		0.028443		0.0284936		0.0286004		0.0287472		0.0288927		0.0290058		0.0291415		0.0291922		0.0292934		0.0292483		0.0294617		0.0294999		0.0295353		0.0296133		0.0297687		0.0297364		0.0299412		0.0299503		0.0300747		0.0301008		0.0301415		0.0302385		0.030335		0.0304759		0.0305933		0.0306997		0.030988		0.0314498		0.0321856		0.0335268		0.0353725		0.0381649		0.0416446		0.0453411		0.0487315		0.0517691		0.0537365		0.0550712		0.0560621		0.0567094		0.0573342		0.0577999		0.0580729
D1 FAM	0.396492		0.396065		0.396544		0.397113		0.397617		0.39754		0.398864		0.39839		0.399227		0.39968		0.399828		0.400654		0.400485		0.400609		0.401055		0.400849		0.401603		0.401976		0.401478		0.401267		0.401843		0.402193		0.402871		0.402331		0.401808		0.402346		0.401989		0.402722		0.403133		0.403283		0.403575		0.403794		0.404162		0.403663		0.404009		0.403493		0.404703		0.40573		0.404829		0.406189		0.405866		0.407487		0.406712		0.406558		0.406404	
D2 Cy5		0.0358322		0.0358289		0.035872		0.0359354		0.0359211		0.0358341		0.0358557		0.03596		0.0359506		0.0359951		0.036061		0.0361941		0.0362614		0.0364223		0.0366026		0.0366198		0.036761		0.0368779		0.0369696		0.0370274		0.0371889		0.0372187		0.0372606		0.0373997		0.0376036		0.037624		0.0377869		0.03789		0.0381816		0.038539		0.0391023		0.0400998		0.0415829		0.0437575		0.0463306		0.0490762		0.051381		0.0531977		0.0545748		0.0555062		0.0564587		0.0570536		0.0577428		0.0582271		0.0588973
D2 FAM	0.469403		0.469288		0.470512		0.470212		0.469947		0.470691		0.471819		0.471842		0.470881		0.472005		0.472033		0.472911		0.473325		0.474523		0.474502		0.475343		0.474864		0.475352		0.47618		0.476665		0.477018		0.476967		0.477148		0.477704		0.478256		0.478383		0.479762		0.479068		0.479074		0.479028		0.480466		0.480607		0.481479		0.480904		0.48142		0.482014		0.482713		0.482926		0.482825		0.483241		0.48435		0.483574		0.48483		0.48531		0.485284	
D3 Cy5		0.0305971		0.0301794		0.030229		0.0301797		0.0302097		0.0302397		0.0302585		0.0303133		0.030536		0.0305663		0.030669		0.0308106		0.0308715		0.0310335		0.0310514		0.0312157		0.0312946		0.0313645		0.0315105		0.031658		0.0317507		0.0318807		0.0320746		0.0322984		0.0326744		0.0332715		0.0342705		0.0361856		0.0395244		0.0451128		0.0530889		0.0626392		0.0717474		0.0792418		0.0850969		0.0894092		0.0924362		0.0942183		0.0956625		0.0963985		0.0970181		0.09737		0.0978172		0.0981809		0.0985202
D3 FAM	0.419577		0.415111		0.414911		0.415107		0.415374		0.416102		0.416775		0.417241		0.418287		0.41756		0.418601		0.419471		0.419587		0.420515		0.420495		0.421806		0.422107		0.422302		0.423077		0.423136		0.423725		0.425459		0.424647		0.42521		0.425386		0.425803		0.426002		0.42633		0.427119		0.427939		0.428336		0.428561		0.428777		0.429473		0.430366		0.430174		0.431252		0.430727		0.431904		0.431607		0.433048		0.432467		0.432892		0.433068		0.433621	
D4 Cy5		0.0309349		0.0308473		0.0307438		0.0308353		0.0308332		0.0309129		0.03101		0.0310816		0.031235		0.0312949		0.0315043		0.0315875		0.0317691		0.0319443		0.0319827		0.0322255		0.0322451		0.0323908		0.0325996		0.0326499		0.0328178		0.0328925		0.0330805		0.0332241		0.0333411		0.0334863		0.0336469		0.0338393		0.0339979		0.0343286		0.0348328		0.0357289		0.0369589		0.0390269		0.0416564		0.044899		0.0482148		0.051331		0.0537258		0.0553596		0.0564479		0.0571161		0.0577487		0.0582064		0.0584995
D4 FAM	0.424174		0.422115		0.422335		0.4228		0.423488		0.423325		0.423708		0.424785		0.425434		0.426859		0.427006		0.427777		0.429487		0.429905		0.430142		0.430528		0.431877		0.432586		0.432254		0.433126		0.433729		0.435822		0.435581		0.435729		0.436504		0.437168		0.438053		0.437484		0.438095		0.438735		0.439842		0.440209		0.440323		0.44171		0.442098		0.442021		0.44269		0.4433		0.444389		0.444716		0.44478		0.445452		0.44493		0.445419		0.446635	
D5 Cy5		0.0330001		0.0324608		0.0323525		0.0323498		0.03237		0.0324412		0.0324599		0.0325416		0.0326295		0.03269		0.0327852		0.0327496		0.0328384		0.0328503		0.0329869		0.0331549		0.0330901		0.033224		0.0332921		0.0333557		0.0335275		0.033513		0.0336766		0.0337052		0.0337985		0.0338458		0.0339287		0.0340525		0.0341198		0.0341444		0.0343223		0.0345582		0.0345126		0.0347386		0.0348702		0.0349813		0.0351655		0.0352631		0.0353833		0.0354927		0.0355648		0.0356763		0.0358521		0.0359036		0.0359349
D5 FAM	0.440212		0.433862		0.433437		0.433198		0.434045		0.433724		0.433618		0.434212		0.435509		0.435454		0.435726		0.436887		0.436501		0.437747		0.436411		0.437383		0.437374		0.438187		0.438046		0.438711		0.440197		0.440053		0.440975		0.442135		0.442128		0.44328		0.445079		0.448908		0.454195		0.465736		0.483361		0.512875		0.550869		0.592233		0.626329		0.654226		0.674286		0.687585		0.697646		0.705718		0.710732		0.715201		0.718387		0.719871		0.722546	
D8 Cy5		0.0366766		0.0369564		0.0370423		0.0371578		0.0372581		0.0374186		0.0374579		0.0376673		0.0377764		0.037811		0.0378594		0.0380316		0.0380626		0.0382649		0.0383739		0.0385303		0.0387112		0.0388256		0.0391068		0.0392788		0.0393656		0.0395588		0.0397085		0.0398968		0.0400742		0.0403519		0.0406868		0.0410762		0.0416381		0.0426377		0.044306		0.0474581		0.0528443		0.0620882		0.0735738		0.084556		0.0928974		0.0995198		0.104719		0.108925		0.11275		0.116079		0.119301		0.122006		0.12476
D8 FAM	0.263705		0.264701		0.265068		0.266005		0.266873		0.266461		0.266256		0.268009		0.267814		0.268496		0.268153		0.268815		0.269235		0.269411		0.270282		0.270084		0.271112		0.271207		0.272327		0.271163		0.271999		0.271835		0.272159		0.272633		0.273319		0.273178		0.273407		0.273835		0.27412		0.27449		0.274222		0.275894		0.275235		0.275587		0.275891		0.276256		0.276165		0.276355		0.277412		0.277844		0.277776		0.278016		0.278079		0.277772		0.278252	
D9 Cy5		0.0398485		0.040052		0.0400739		0.0402647		0.0403782		0.0405232		0.0406482		0.0408808		0.0409913		0.0410313		0.0411746		0.0412264		0.0414161		0.0414341		0.0415468		0.0415072		0.0417171		0.0417		0.0418491		0.0420708		0.0422048		0.0423822		0.0425582		0.042669		0.0429036		0.043034		0.0432742		0.0434587		0.0437465		0.0443275		0.0452192		0.0468205		0.0495722		0.0545677		0.0618327		0.06962		0.0762098		0.0814156		0.0857411		0.0894301		0.0925398		0.0953282		0.097936		0.100102		0.102459
D9 FAM	0.276781		0.277478		0.277927		0.278811		0.278897		0.278827		0.279684		0.280848		0.280885		0.281104		0.281198		0.281899		0.281873		0.281659		0.282487		0.28218		0.282669		0.282506		0.283972		0.283414		0.283457		0.284202		0.284509		0.284107		0.28489		0.284702		0.285271		0.285762		0.286111		0.28582		0.285614		0.286018		0.286595		0.286513		0.286631		0.287061		0.287601		0.287734		0.287942		0.287629		0.287952		0.288706		0.287496		0.288409		0.288327	
D10 Cy5		0.0376426		0.0376754		0.0376236		0.0376557		0.0377695		0.0377938		0.0378261		0.0379877		0.0379902		0.0381207		0.0382882		0.0384492		0.0385352		0.0387441		0.0389037		0.0390843		0.0391912		0.0393347		0.0395285		0.0396618		0.0398614		0.0400471		0.0403855		0.0406811		0.0413464		0.0424681		0.0445103		0.0479879		0.0542003		0.0641943		0.0781105		0.0938671		0.107972		0.119007		0.126938		0.132411		0.136305		0.139333		0.141835		0.143799		0.145604		0.147259		0.148871		0.150023		0.151406
D10 FAM	0.266587		0.265469		0.265206		0.264982		0.26616		0.265417		0.266291		0.266828		0.266484		0.267441		0.267392		0.267544		0.268629		0.269312		0.268661		0.269707		0.269312		0.269641		0.271103		0.270378		0.270696		0.270915		0.271774		0.271391		0.272435		0.272202		0.272994		0.272854		0.273618		0.273335		0.273586		0.27402		0.274247		0.274374		0.274093		0.275013		0.274999		0.274646		0.27529		0.274754		0.275858		0.276091		0.275681		0.275232		0.275725	
D11 Cy5		0.0394275		0.039883		0.0401806		0.0403275		0.0407122		0.0407422		0.0409472		0.0411934		0.0412384		0.041338		0.0415217		0.0416051		0.0418169		0.041912		0.042056		0.0423282		0.0423312		0.0424943		0.0427888		0.0429419		0.0431391		0.0432149		0.0434026		0.0436205		0.043799		0.0439029		0.0441924		0.0442545		0.0447092		0.0452348		0.046065		0.0475939		0.050389		0.0555873		0.0637327		0.0727943		0.0808217		0.0876908		0.0931228		0.0978666		0.102128		0.105982		0.109511		0.113051		0.116471
D11 FAM	0.279086		0.280983		0.282415		0.28246		0.284303		0.285136		0.285421		0.286442		0.286725		0.287584		0.28814		0.288739		0.289812		0.289664		0.289846		0.290557		0.290812		0.290863		0.292528		0.291561		0.292595		0.293303		0.293545		0.293587		0.293612		0.294621		0.294736		0.293869		0.295305		0.29522		0.294851		0.295506		0.296084		0.296269		0.296348		0.296208		0.296345		0.296766		0.296397		0.296932		0.29682		0.297531		0.297671		0.297316		0.297717	
D12 Cy5		0.0334483		0.0336491		0.0339204		0.034041		0.0343292		0.0344253		0.034597		0.0347577		0.0348889		0.0350889		0.0350925		0.0352636		0.0355401		0.0355261		0.0355848		0.035675		0.0359003		0.0359288		0.0360434		0.0360946		0.0362854		0.0363717		0.0363765		0.0366107		0.0365738		0.0366738		0.036797		0.0368819		0.0369456		0.0370231		0.0372368		0.0372786		0.0374438		0.0375499		0.0376124		0.0377507		0.0379933		0.0380292		0.0381618		0.0381996		0.0383175		0.0383724		0.0385843		0.0386559		0.0386852
D12 FAM	0.250873		0.251791		0.253149		0.253253		0.254245		0.25522		0.254426		0.255356		0.255357		0.256165		0.257055		0.258462		0.257859		0.258385		0.258309		0.258772		0.258871		0.258652		0.25973		0.260409		0.260102		0.260934		0.26094		0.261301		0.262095		0.262525		0.26378		0.265057		0.267111		0.270026		0.274401		0.282013		0.29297		0.307702		0.328062		0.353168		0.380354		0.408986		0.433244		0.456337		0.475209		0.49134		0.506679		0.519893		0.53151	
E1 Cy5		0.0292385		0.0292448		0.0293113		0.0293812		0.0296044		0.0297453		0.0299249		0.0300171		0.0302006		0.0303587		0.0304452		0.0305222		0.0307027		0.0308474		0.0309265		0.0310191		0.0310916		0.0311923		0.031396		0.0315687		0.0315396		0.0317403		0.0319205		0.0321539		0.0325545		0.033184		0.0343015		0.0363214		0.0399031		0.0456943		0.0539243		0.0633589		0.0722759		0.079771		0.0854482		0.0896571		0.0925034		0.0944238		0.095479		0.0962609		0.0969657		0.0971845		0.0977611		0.0980087		0.0983003
E1 FAM	0.406677		0.407225		0.407367		0.408363		0.408999		0.411045		0.412843		0.413147		0.414056		0.415294		0.415721		0.416318		0.417464		0.417467		0.418731		0.419684		0.419104		0.419956		0.420958		0.42192		0.421339		0.421723		0.422414		0.423672		0.422918		0.42442		0.425081		0.424984		0.42516		0.425344		0.425976		0.42739		0.426499		0.427745		0.427656		0.427683		0.428843		0.428614		0.428366		0.429299		0.429642		0.430482		0.431137		0.430105		0.430395	
E2 Cy5		0.0338081		0.034106		0.0342996		0.0344218		0.0347699		0.0349737		0.0352809		0.0354431		0.0355751		0.0357696		0.0359373		0.0360716		0.0362612		0.0364913		0.0365632		0.0367189		0.0368311		0.0370043		0.0371707		0.0373006		0.0374013		0.0375748		0.0377317		0.0378557		0.0379582		0.0381351		0.0383566		0.0385188		0.038837		0.0391726		0.0398454		0.040994		0.0426489		0.0452219		0.0483589		0.0517752		0.0549598		0.0573405		0.0591205		0.060424		0.0614574		0.0622343		0.0629157		0.0635173		0.0640758
E2 FAM	0.444848		0.446163		0.446627		0.448798		0.450439		0.452951		0.453838		0.455712		0.456453		0.457205		0.459136		0.458964		0.461293		0.46224		0.462425		0.463418		0.464214		0.464063		0.46599		0.466391		0.467727		0.468		0.468948		0.469232		0.470166		0.469963		0.471872		0.471395		0.472618		0.473083		0.473807		0.47448		0.474197		0.475576		0.476174		0.47604		0.47614		0.478151		0.477944		0.47862		0.478982		0.481181		0.480913		0.481635		0.481767	
E3 Cy5		0.0332876		0.0335166		0.0336787		0.0338006		0.0338754		0.0340342		0.0343362		0.0345336		0.0346664		0.0348115		0.0349873		0.0350686		0.0352396		0.0353896		0.0354668		0.0356785		0.0356264		0.0357999		0.0359185		0.0360618		0.0361039		0.0362179		0.0363602		0.0364149		0.0366014		0.036732		0.0367408		0.0369763		0.0372216		0.0374576		0.0379642		0.0388047		0.0400259		0.0418112		0.0441756		0.046906		0.0496293		0.05199		0.0536996		0.0550329		0.0560096		0.0567323		0.0573973		0.0580273		0.0586454
E3 FAM	0.435233		0.43602		0.438153		0.439023		0.439388		0.440663		0.442086		0.443119		0.444847		0.445119		0.445895		0.44635		0.447172		0.447671		0.447207		0.448037		0.449343		0.449526		0.450055		0.450939		0.451709		0.451486		0.452396		0.453194		0.45278		0.452612		0.453716		0.454103		0.455388		0.45583		0.455463		0.457076		0.456821		0.456934		0.457863		0.45804		0.45833		0.458329		0.458968		0.45996		0.460522		0.461161		0.460536		0.461278		0.461901	
E4 Cy5		0.0339522		0.0337349		0.0338008		0.0337413		0.0338968		0.0339592		0.0339211		0.0340618		0.0341078		0.0343088		0.0344823		0.0345958		0.0347312		0.0349193		0.0350117		0.0352044		0.0352134		0.0354056		0.035601		0.0357346		0.0358649		0.0360307		0.0362459		0.0364401		0.0368047		0.0370961		0.0378214		0.0391762		0.0413245		0.0451815		0.0514268		0.0600734		0.0696237		0.0786867		0.0858784		0.0913904		0.0949822		0.0973641		0.0990031		0.0999916		0.100757		0.101388		0.10181		0.102339		0.102746
E4 FAM	0.45176		0.450487		0.449634		0.450529		0.450121		0.450238		0.45113		0.452853		0.452658		0.453637		0.454838		0.455385		0.456259		0.456795		0.457018		0.457492		0.458763		0.459317		0.459912		0.460889		0.461068		0.46157		0.462066		0.462928		0.463522		0.463944		0.464767		0.465491		0.465262		0.465946		0.466619		0.46774		0.467513		0.468038		0.467954		0.468915		0.469479		0.47045		0.470668		0.470805		0.471887		0.472042		0.472428		0.472373		0.47287	
E5 Cy5		0.0343793		0.0341697		0.0341071		0.034125		0.0342928		0.0344031		0.0345752		0.0347408		0.034862		0.034955		0.0351825		0.0352421		0.0354318		0.0355106		0.0356306		0.0358283		0.0359068		0.0361014		0.0362797		0.0363837		0.0365419		0.0366264		0.0368407		0.0369731		0.0371101		0.0371918		0.0375038		0.0376697		0.0381401		0.0387064		0.0397201		0.0413889		0.0439898		0.0475494		0.0518637		0.0563644		0.0610153		0.0643788		0.0666824		0.0683115		0.069361		0.0703514		0.0710774		0.0716871		0.0721766
E5 FAM	0.455978		0.452184		0.450179		0.451529		0.451531		0.452064		0.452655		0.453075		0.454266		0.455299		0.454464		0.456783		0.456056		0.457038		0.457858		0.458823		0.459585		0.459324		0.459912		0.461281		0.461271		0.461625		0.462708		0.46291		0.463068		0.465099		0.464108		0.464378		0.464936		0.466495		0.46647		0.467206		0.468252		0.467641		0.468202		0.469441		0.473126		0.474369		0.474513		0.475334		0.476214		0.47729		0.47727		0.479036		0.47976	
E8 Cy5		0.033697		0.0339222		0.0341631		0.034297		0.0346178		0.0347234		0.0348325		0.0348914		0.0350007		0.0354722		0.0355181		0.0356316		0.0357708		0.0359236		0.0361662		0.0363262		0.0365674		0.0366531		0.036837		0.0370637		0.0372953		0.0376081		0.0378084		0.0383402		0.0389413		0.0401344		0.0421912		0.0457157		0.0518804		0.0618653		0.0754582		0.0904137		0.10374		0.114117		0.121455		0.126578		0.130194		0.132969		0.135241		0.136742		0.138125		0.143941		0.144745		0.145761		0.147035
E8 FAM	0.244882		0.245159		0.246377		0.247467		0.247522		0.248842		0.249452		0.250089		0.250184		0.252651		0.252079		0.25288		0.252945		0.253704		0.253527		0.254215		0.255388		0.255519		0.255857		0.255853		0.256543		0.256712		0.25733		0.258044		0.258307		0.258733		0.258914		0.259763		0.25974		0.260658		0.260406		0.26191		0.262318		0.262955		0.262527		0.262975		0.263797		0.264107		0.264308		0.265833		0.265967		0.273449		0.271947		0.271638		0.271189	
E9 Cy5		0.0370118		0.0373648		0.037636		0.0377398		0.0380433		0.0380977		0.0382629		0.0383603		0.038512		0.0388144		0.0389678		0.0390988		0.0395105		0.0397143		0.0398089		0.0400104		0.0402619		0.0403536		0.0405588		0.0407467		0.04102		0.0411712		0.0412897		0.0415432		0.0417155		0.0418438		0.0421672		0.0424193		0.0427849		0.0432941		0.0441191		0.0456044		0.0481714		0.0529499		0.0597411		0.0668038		0.0731309		0.0781652		0.0824117		0.0860405		0.0891637		0.0920301		0.0947151		0.0970791		0.099313
E9 FAM	0.266076		0.267779		0.268187		0.268939		0.269672		0.271696		0.271357		0.272184		0.272107		0.273671		0.273206		0.274551		0.27539		0.275598		0.275811		0.276185		0.276522		0.276539		0.277343		0.277511		0.277231		0.278468		0.27891		0.278492		0.279459		0.280425		0.27953		0.280216		0.280166		0.281445		0.280454		0.281066		0.281637		0.281278		0.282173		0.282		0.282442		0.283057		0.28262		0.283813		0.284491		0.284022		0.283815		0.284268		0.284344	
E10 Cy5		0.0361725		0.0360153		0.0362111		0.0364362		0.0367064		0.0368918		0.0372919		0.0374603		0.0375923		0.0377847		0.0380689		0.0380967		0.0385223		0.0386288		0.0386542		0.0389992		0.0391274		0.0393076		0.0394872		0.0396573		0.039839		0.0400473		0.0402041		0.0404043		0.0405718		0.0407797		0.0409545		0.0412324		0.0415911		0.0421684		0.0433001		0.0449487		0.0478384		0.0532506		0.0612324		0.069846		0.077428		0.0838082		0.0891322		0.0935407		0.0972851		0.100772		0.103896		0.10681		0.10952
E10 FAM	0.251706		0.25104		0.251908		0.25226		0.252597		0.253847		0.254552		0.254224		0.25474		0.255197		0.255379		0.256555		0.257089		0.25726		0.257706		0.258035		0.258859		0.258332		0.259377		0.259275		0.260073		0.259797		0.260643		0.260719		0.260934		0.261879		0.261857		0.262038		0.263643		0.262527		0.262893		0.263495		0.263954		0.263934		0.263537		0.26391		0.26442		0.265744		0.265395		0.265272		0.265861		0.26614		0.266571		0.266872		0.26645	
E11 Cy5		0.0355012		0.0356781		0.0357101		0.0358115		0.0358646		0.0360407		0.036131		0.0362565		0.0363876		0.0364413		0.0365866		0.0365321		0.036661		0.0367759		0.0369128		0.0369836		0.0372825		0.0373208		0.0376293		0.0377273		0.0378543		0.0381142		0.0383273		0.0386673		0.0391471		0.0399763		0.0415875		0.0442618		0.0491848		0.0574836		0.0698906		0.0850775		0.0997962		0.111707		0.120171		0.126222		0.130352		0.133395		0.135787		0.137888		0.139657		0.141179		0.142659		0.14406		0.145233
E11 FAM	0.25597		0.256364		0.257264		0.257883		0.257993		0.25841		0.258372		0.259582		0.258923		0.259427		0.258941		0.259877		0.260934		0.260854		0.260463		0.26024		0.260505		0.261231		0.26156		0.26228		0.261918		0.262591		0.262932		0.263376		0.262458		0.263427		0.26329		0.263619		0.26356		0.263358		0.264148		0.264828		0.264159		0.264934		0.264466		0.264704		0.265498		0.265467		0.265416		0.26599		0.265834		0.26591		0.266039		0.26532		0.265529	
E12 Cy5		0.036015		0.0364389		0.0363563		0.0364645		0.0366395		0.0367757		0.0368406		0.0369373		0.0369804		0.0370709		0.0372031		0.0372912		0.0375802		0.0377032		0.0378224		0.0379837		0.038069		0.038274		0.0385543		0.038635		0.038826		0.0390205		0.0391213		0.0392554		0.039423		0.0397058		0.0399138		0.0402321		0.0408089		0.041578		0.0430355		0.0459252		0.0509786		0.058386		0.0662304		0.0730396		0.0787848		0.0835068		0.0879005		0.0916878		0.0954742		0.0991704		0.102639		0.106064		0.109661
E12 FAM	0.258126		0.261736		0.261546		0.261685		0.262224		0.26232		0.263037		0.263132		0.262934		0.26438		0.264021		0.264754		0.264877		0.264579		0.265288		0.26442		0.26484		0.265566		0.266914		0.266391		0.266298		0.267247		0.267322		0.267474		0.267212		0.267667		0.267417		0.268121		0.267838		0.268076		0.267954		0.268881		0.268408		0.269165		0.269338		0.270031		0.269804		0.269907		0.270224		0.270305		0.269743		0.270512		0.269749		0.270136		0.269814	
F1 Cy5		0.031735		0.0320114		0.0322685		0.0324867		0.0326935		0.0328903		0.0330285		0.0332251		0.0333999		0.0335175		0.0336929		0.0338636		0.0339403		0.0341213		0.034271		0.0343925		0.0343938		0.0345517		0.0346988		0.0348312		0.0350281		0.0351407		0.035197		0.0354153		0.0355187		0.0355442		0.0358523		0.0360765		0.0364996		0.0371215		0.0383195		0.0402346		0.0433185		0.0474748		0.0522778		0.0570172		0.0612416		0.0644974		0.0667325		0.068153		0.0692098		0.0699055		0.0704919		0.0709408		0.0711618
F1 FAM	0.438251		0.440614		0.442569		0.443645		0.445823		0.446555		0.448214		0.448622		0.451265		0.451741		0.451747		0.452212		0.453125		0.454118		0.454612		0.455323		0.456453		0.456821		0.457229		0.458192		0.458963		0.45869		0.45987		0.460226		0.459578		0.461078		0.461765		0.462246		0.462744		0.461616		0.462304		0.463548		0.464094		0.46362		0.4642		0.465491		0.466215		0.466167		0.466702		0.467641		0.467959		0.467749		0.467999		0.467963		0.468905	
F2 Cy5		0.0303325		0.0305536		0.0307384		0.0308756		0.0309819		0.0310657		0.0313068		0.0314115		0.0316069		0.0318367		0.0318266		0.0319479		0.0321027		0.0321386		0.0322768		0.0323651		0.0323783		0.032547		0.0326412		0.032797		0.0328714		0.0329271		0.0330541		0.0330957		0.0332513		0.0332009		0.0333869		0.0334611		0.0336412		0.0335843		0.033757		0.0339007		0.0340344		0.0342374		0.0343822		0.0345106		0.0345631		0.0346749		0.0347372		0.0348277		0.0349769		0.0349641		0.0351594		0.0351787		0.035292
F2 FAM	0.370759		0.372419		0.373642		0.376065		0.37609		0.377347		0.378571		0.380883		0.381211		0.382356		0.383346		0.384713		0.38502		0.385566		0.386876		0.386029		0.38699		0.388108		0.388497		0.389114		0.389972		0.389968		0.390483		0.390935		0.392677		0.392686		0.392556		0.392792		0.39366		0.393682		0.393863		0.39456		0.394629		0.395484		0.395076		0.395857		0.39559		0.395812		0.395976		0.397491		0.397331		0.397852		0.397612		0.398633		0.398501	
F3 Cy5		0.0287226		0.028651		0.0286942		0.0287681		0.0288424		0.0288928		0.0289375		0.0290685		0.0290242		0.0291277		0.029258		0.0294342		0.029577		0.0296458		0.029711		0.0297979		0.0299556		0.0300406		0.0301719		0.0302447		0.0304217		0.0305541		0.0306228		0.0308007		0.0308899		0.0311103		0.0314487		0.0319209		0.032658		0.0341652		0.0368416		0.0409436		0.0464892		0.0526848		0.0587033		0.0638304		0.0678391		0.0708946		0.0728591		0.0742494		0.0753594		0.0760278		0.0764038		0.0769338		0.0773418
F3 FAM	0.398034		0.397872		0.399406		0.399782		0.400659		0.402561		0.402391		0.403411		0.403714		0.405384		0.40552		0.40557		0.406314		0.407758		0.406953		0.408305		0.408118		0.40949		0.410003		0.411166		0.411943		0.411866		0.413244		0.413277		0.413071		0.414127		0.414594		0.414983		0.415465		0.415943		0.416806		0.417378		0.41671		0.418244		0.418317		0.419311		0.419951		0.420145		0.41998		0.420815		0.421145		0.422318		0.421478		0.422219		0.422849	
F4 Cy5		0.0375994		0.0371853		0.037075		0.0369963		0.037075		0.0371732		0.0371361		0.0374156		0.0374568		0.0375846		0.0376005		0.0377045		0.0378035		0.0378783		0.0380346		0.0382556		0.038368		0.0383799		0.0386452		0.0388521		0.0388815		0.039145		0.0393004		0.0395423		0.0399551		0.0406032		0.0416339		0.0436361		0.0470884		0.0527325		0.0617619		0.073047		0.0843565		0.0943702		0.102163		0.107788		0.111683		0.114151		0.115813		0.117016		0.117555		0.118398		0.118884		0.119255		0.119877
F4 FAM	0.503575		0.498222		0.498316		0.498123		0.49899		0.497577		0.499574		0.500532		0.501149		0.501996		0.502678		0.503539		0.504542		0.505695		0.505248		0.505451		0.507286		0.508469		0.507573		0.509476		0.510989		0.510786		0.513235		0.512474		0.513809		0.514202		0.514257		0.51579		0.515616		0.516106		0.517232		0.518966		0.518568		0.519398		0.519931		0.520087		0.521344		0.522159		0.521628		0.522783		0.523462		0.524272		0.523997		0.524432		0.526391	
F8 Cy5		0.020701		0.0210137		0.0212361		0.0214639		0.0217071		0.0219479		0.0220583		0.0222946		0.0225198		0.0226543		0.0228982		0.0231235		0.0232268		0.0233657		0.023449		0.023804		0.0239404		0.0240457		0.0242382		0.0244838		0.024681		0.0248104		0.0250284		0.0252473		0.0253384		0.0255885		0.0257704		0.0260055		0.0262095		0.0264743		0.0268037		0.0273745		0.0279415		0.0289744		0.0303593		0.0323706		0.0343151		0.0360402		0.0375845		0.038742		0.0398375		0.0406841		0.0415827		0.0422986		0.043076
F8 FAM	0.169422		0.170273		0.17172		0.17167		0.172798		0.173117		0.173259		0.174313		0.173952		0.174644		0.175226		0.176156		0.175963		0.176946		0.176838		0.177401		0.178347		0.178846		0.178849		0.179244		0.180075		0.180143		0.181608		0.181757		0.182078		0.182853		0.182735		0.183282		0.183785		0.184243		0.18565		0.186441		0.186312		0.186668		0.187274		0.187901		0.188767		0.189455		0.189084		0.19015		0.191051		0.191658		0.192283		0.192485		0.193761	
F9 Cy5		0.0431328		0.0436167		0.0437653		0.0442003		0.0445883		0.0448206		0.0450988		0.0453921		0.0455429		0.0458785		0.0460856		0.0462719		0.0465235		0.0467246		0.0470011		0.0472299		0.0474633		0.0476476		0.0477529		0.0480881		0.0483158		0.0484532		0.0487037		0.0488056		0.0491165		0.0493971		0.0496789		0.0501304		0.0507272		0.0515515		0.0528676		0.0547591		0.0573289		0.0603515		0.0636983		0.0670325		0.0700843		0.0728569		0.0754506		0.0778158		0.0798648		0.0816699		0.0833613		0.084943		0.0864967
F9 FAM	0.283468		0.285201		0.286961		0.287814		0.288397		0.289268		0.290056		0.291086		0.291387		0.292343		0.29256		0.292731		0.293273		0.293984		0.29381		0.295114		0.296021		0.295078		0.295864		0.296259		0.296515		0.296997		0.297708		0.297343		0.298027		0.297557		0.298097		0.298466		0.299137		0.299081		0.29956		0.299732		0.300216		0.300378		0.3002		0.300329		0.301051		0.300813		0.300823		0.300896		0.30191		0.302284		0.302146		0.301865		0.302574	
F10 Cy5		0.0349166		0.0345924		0.0346997		0.0347698		0.0348485		0.0350411		0.0351755		0.0352227		0.0353822		0.0354791		0.0355428		0.0357573		0.0358773		0.0360475		0.036209		0.0363143		0.036482		0.036627		0.0367949		0.0370183		0.0371391		0.0372646		0.0374296		0.0376637		0.037992		0.038364		0.0390772		0.0403939		0.042609		0.0464984		0.0534701		0.0641251		0.0773885		0.0902385		0.100047		0.107132		0.112132		0.116013		0.119102		0.121689		0.123888		0.126027		0.127904		0.129528		0.131203
F10 FAM	0.245555		0.243213		0.243705		0.243335		0.243929		0.24402		0.245633		0.246265		0.245492		0.24605		0.246482		0.247058		0.247641		0.24834		0.248351		0.248747		0.248916		0.249792		0.250145		0.250964		0.250462		0.251104		0.250868		0.251247		0.25136		0.25173		0.252288		0.252658		0.252431		0.253454		0.253436		0.253087		0.254616		0.254372		0.254626		0.255124		0.255612		0.255661		0.255163		0.255986		0.25662		0.256727		0.256629		0.257553		0.256897	
F11 Cy5		0.0361521		0.0364806		0.036589		0.0368002		0.0370747		0.0371964		0.037299		0.0375352		0.0377336		0.0378324		0.0379122		0.038057		0.0381237		0.0383005		0.0383412		0.0384881		0.0386882		0.0389163		0.039089		0.0392895		0.0394546		0.0397696		0.0400178		0.0404215		0.0410684		0.0418751		0.0436198		0.046651		0.0519		0.0607096		0.0737662		0.0892275		0.103827		0.115425		0.123935		0.129598		0.133745		0.136766		0.139262		0.141225		0.143094		0.144381		0.146006		0.147211		0.148567
F11 FAM	0.277186		0.278429		0.280081		0.280441		0.281501		0.281567		0.282151		0.28403		0.284189		0.284776		0.284335		0.285262		0.28572		0.285727		0.286294		0.287268		0.287379		0.287747		0.288044		0.288047		0.288519		0.288776		0.289855		0.29002		0.289987		0.290298		0.290455		0.290709		0.290774		0.291221		0.291031		0.292487		0.292008		0.293207		0.292473		0.292929		0.292745		0.293397		0.293127		0.293558		0.293802		0.293435		0.293587		0.293914		0.293572	
G1 Cy5		0.0324141		0.0325929		0.0327246		0.0327674		0.0329668		0.0331062		0.0332535		0.0334797		0.0336426		0.0338104		0.0339447		0.0340937		0.0342809		0.0343832		0.0344449		0.0346032		0.0346989		0.0348597		0.0350186		0.0351978		0.0353111		0.0354817		0.0356231		0.0356336		0.0359032		0.0360433		0.0361582		0.0364278		0.0369225		0.0375417		0.0388937		0.0411089		0.0445118		0.0489043		0.0540848		0.0592336		0.0637261		0.0672024		0.0696527		0.0711882		0.072254		0.0730397		0.0736842		0.0741878		0.0746627
G1 FAM	0.441794		0.442306		0.444891		0.445762		0.447228		0.447923		0.450184		0.451648		0.452065		0.453052		0.454444		0.455653		0.45559		0.456588		0.456716		0.457343		0.459289		0.459034		0.461075		0.460983		0.462431		0.461823		0.463054		0.463583		0.465208		0.465677		0.466367		0.466591		0.467446		0.467716		0.467913		0.468929		0.469758		0.470093		0.470467		0.470573		0.47143		0.472775		0.471693		0.473378		0.473338		0.474409		0.473695		0.47482		0.474599	
G2 Cy5		0.0235887		0.0271649		0.0271017		0.0272435		0.0271869		0.0272765		0.0273758		0.0275503		0.0276883		0.0278886		0.0280136		0.028106		0.0282724		0.028249		0.0284018		0.0285753		0.028619		0.0286543		0.0287747		0.0288795		0.0289241		0.0291343		0.0291418		0.0292754		0.0293553		0.0294485		0.0295445		0.0297531		0.0299204		0.0301088		0.0304247		0.0306952		0.0309287		0.0312228		0.0314042		0.0316291		0.0317935		0.0318343		0.0319861		0.0320336		0.0321919		0.0321779		0.0323101		0.0323723		0.0323984
G2 FAM	0.314407		0.360892		0.360894		0.36163		0.361456		0.361156		0.361762		0.36268		0.363766		0.365098		0.366175		0.366466		0.366922		0.367596		0.368131		0.368205		0.368885		0.368412		0.369731		0.369632		0.370862		0.371018		0.371446		0.371461		0.37238		0.372383		0.372929		0.374362		0.374009		0.374817		0.375472		0.375578		0.376168		0.377475		0.37901		0.378679		0.380468		0.381201		0.380711		0.381728		0.382201		0.382981		0.382641		0.382584		0.383932	
G3 Cy5		0.0228133		0.0231231		0.0232163		0.0232985		0.0233667		0.0234109		0.0234824		0.0235335		0.0235847		0.0237759		0.0239116		0.0239994		0.0240551		0.0242173		0.0242407		0.0244233		0.0245782		0.0245461		0.0246794		0.0247648		0.0248449		0.0249308		0.0250957		0.0251378		0.0252345		0.0254208		0.0255953		0.0258103		0.0263514		0.0270986		0.0285346		0.030693		0.0337274		0.0374641		0.0412315		0.0444941		0.0471989		0.0493745		0.0510196		0.0521273		0.0530974		0.053645		0.0542094		0.0547131		0.0550495
G3 FAM	0.304688		0.305891		0.307574		0.307756		0.308756		0.309692		0.310633		0.31096		0.310368		0.312708		0.312759		0.312653		0.313162		0.313802		0.31407		0.314686		0.315472		0.31553		0.316153		0.316995		0.316751		0.317778		0.31785		0.317941		0.318718		0.319241		0.319755		0.319985		0.320708		0.32132		0.320993		0.321401		0.320907		0.322817		0.322271		0.322769		0.322739		0.323526		0.32364		0.324869		0.324041		0.324301		0.32397		0.323977		0.324585	
G4 Cy5		0.0347637		0.034641		0.0344706		0.0344334		0.0343896		0.0344662		0.0345888		0.0347414		0.0349336		0.0350506		0.0352246		0.0354113		0.0356088		0.0356012		0.0357949		0.0359353		0.0360102		0.0362112		0.0364467		0.0364531		0.0367667		0.0368924		0.0369366		0.0371236		0.0372231		0.0374224		0.0376214		0.0379533		0.0383864		0.0391812		0.0404867		0.0425577		0.0454626		0.0493731		0.0534328		0.0572418		0.0602447		0.0626445		0.0644151		0.065672		0.066748		0.0675788		0.0683978		0.0690654		0.0697032
G4 FAM	0.445533		0.444324		0.441962		0.442374		0.442793		0.443841		0.443531		0.444283		0.445204		0.446283		0.447212		0.44848		0.448974		0.450348		0.450125		0.450661		0.450521		0.451901		0.452745		0.4528		0.454929		0.453685		0.455576		0.455749		0.455421		0.456419		0.456539		0.458239		0.457875		0.458871		0.459451		0.459298		0.459528		0.460092		0.460318		0.460892		0.461681		0.460912		0.462437		0.463008		0.46345		0.463555		0.463757		0.46396		0.464447	
G8 Cy5		0.0276104		0.0277509		0.0279483		0.0280312		0.0282398		0.0283264		0.0284164		0.028607		0.028665		0.0287418		0.0288772		0.0288308		0.0289985		0.029011		0.0291123		0.0291573		0.029191		0.0293337		0.0294277		0.0295308		0.029622		0.029758		0.0299368		0.0300163		0.0301665		0.0303227		0.030509		0.0307637		0.031302		0.032183		0.0338622		0.036759		0.0416241		0.0488189		0.0564426		0.0628826		0.0677044		0.0714228		0.0741832		0.076583		0.078582		0.0802775		0.0817821		0.0830135		0.0844596
G8 FAM	0.201319		0.202623		0.203604		0.204155		0.204721		0.205217		0.20601		0.206411		0.206698		0.20724		0.206825		0.208341		0.2083		0.208669		0.208257		0.208533		0.208433		0.209093		0.209262		0.209424		0.209899		0.209803		0.210399		0.210776		0.210972		0.211251		0.21105		0.211302		0.210884		0.211646		0.211275		0.212185		0.212061		0.212481		0.213084		0.212938		0.213309		0.213929		0.212909		0.213896		0.213674		0.214547		0.214279		0.21472		0.214668	
G9 Cy5		0.0398464		0.0402199		0.0405057		0.0408311		0.041036		0.0412219		0.0413569		0.0415609		0.04176		0.0418814		0.0420754		0.042164		0.0422212		0.0424431		0.04253		0.0425761		0.0425931		0.0427291		0.0429204		0.0430825		0.0431165		0.0431966		0.0434289		0.043665		0.0436956		0.0439774		0.044175		0.0443935		0.045004		0.045571		0.0468251		0.0492404		0.0532775		0.0604624		0.0704239		0.0803946		0.088752		0.0958715		0.101294		0.106215		0.110732		0.114515		0.118149		0.121698		0.125246
G9 FAM	0.278619		0.279287		0.28204		0.282526		0.283752		0.283877		0.285001		0.285543		0.285859		0.286878		0.287365		0.287748		0.28838		0.287981		0.288433		0.288516		0.288754		0.2893		0.290081		0.290285		0.291173		0.291298		0.291808		0.29195		0.291424		0.291924		0.293164		0.292094		0.292678		0.293031		0.293291		0.293935		0.29353		0.294099		0.294291		0.295119		0.294142		0.295611		0.29507		0.295584		0.295057		0.295316		0.295929		0.296062		0.296423	
G10 Cy5		0.0330537		0.0327543		0.0326095		0.0327142		0.0326781		0.0328059		0.0327802		0.0328998		0.0329839		0.0330274		0.0329793		0.0330803		0.0332834		0.0333988		0.0335172		0.0335509		0.0337529		0.0338566		0.0340233		0.0341266		0.0342562		0.0343864		0.0345004		0.0347212		0.0349751		0.0351997		0.0356179		0.0363117		0.0376315		0.0398095		0.0440238		0.0509002		0.0604923		0.071079		0.0797766		0.086069		0.0908296		0.0943402		0.0974472		0.0999126		0.102143		0.104022		0.105741		0.107433		0.109044
G10 FAM	0.233149		0.230475		0.229974		0.229885		0.229439		0.229523		0.229857		0.230661		0.2305		0.230629		0.230798		0.230849		0.231171		0.231322		0.231032		0.231837		0.231263		0.232344		0.232214		0.232618		0.232704		0.233005		0.233258		0.233266		0.233617		0.233908		0.233992		0.234697		0.23442		0.234203		0.235031		0.23538		0.235136		0.23589		0.236496		0.23634		0.23603		0.237107		0.23679		0.237135		0.237219		0.237629		0.237328		0.238198		0.238263	
G11 Cy5		0.0347712		0.0347826		0.0348913		0.034964		0.0350676		0.0351933		0.0352069		0.0353141		0.0354779		0.0356012		0.0356719		0.035739		0.0357611		0.0360667		0.0360651		0.0362079		0.0363757		0.0365126		0.0367399		0.0368955		0.0369927		0.037185		0.0373417		0.0375406		0.0375727		0.0378849		0.0382112		0.038587		0.0394108		0.0408001		0.0434241		0.0478529		0.0550977		0.0644084		0.0733905		0.0803391		0.0857444		0.089723		0.0931471		0.0959132		0.0983031		0.100398		0.102393		0.104035		0.105608
G11 FAM	0.2398		0.239328		0.23932		0.240212		0.239919		0.240736		0.240581		0.24196		0.240688		0.241626		0.241955		0.242103		0.242486		0.242404		0.242645		0.243191		0.243292		0.243738		0.243872		0.243791		0.244373		0.244493		0.244517		0.244613		0.245042		0.245495		0.245372		0.245527		0.245895		0.245589		0.246184		0.246695		0.246456		0.247349		0.247141		0.247037		0.247804		0.248418		0.247922		0.247006		0.248046		0.247634		0.248684		0.247714		0.248234	
H1 Cy5		0.0303666		0.0327005		0.0356004		0.0391074		0.0416775		0.0420162		0.0421187		0.0422016		0.0424367		0.04265		0.0427276		0.0428254		0.0429786		0.0430779		0.0432003		0.0433705		0.0432733		0.0434835		0.0436376		0.0437305		0.0437831		0.0439161		0.0439889		0.0440576		0.0442719		0.0443045		0.0444474		0.0446102		0.0446375		0.0446818		0.0449204		0.0450045		0.0450706		0.0452479		0.0453716		0.0455575		0.0457437		0.0457609		0.0457671		0.0458659		0.046008		0.0460121		0.0461405		0.0461421		0.0462251
H1 FAM	0.337995		0.364525		0.396972		0.440955		0.470009		0.471323		0.473735		0.47515		0.476112		0.477482		0.478759		0.479086		0.479814		0.480701		0.481042		0.481327		0.482886		0.482162		0.483948		0.484372		0.485204		0.485153		0.485986		0.486822		0.487606		0.486751		0.487664		0.488551		0.48919		0.488888		0.488717		0.490756		0.490205		0.490357		0.491028		0.491384		0.49166		0.491665		0.490936		0.492789		0.493343		0.493604		0.492822		0.493206		0.49416	
H2 Cy5		0.0295203		0.0296928		0.0298309		0.0299513		0.0300211		0.0301698		0.0301509		0.0302458		0.0303875		0.0305071		0.0306053		0.0307985		0.0309801		0.0310171		0.0311123		0.031318		0.0313416		0.0315395		0.031714		0.0317165		0.0318732		0.0319702		0.032087		0.0323173		0.0325527		0.032866		0.0334837		0.0343694		0.0361963		0.0390265		0.0437626		0.0502994		0.0577996		0.0649868		0.0711837		0.0759295		0.0795002		0.0817901		0.0832989		0.084326		0.0851099		0.0856188		0.0861418		0.0865256		0.0869807
H2 FAM	0.387728		0.389662		0.390672		0.391696		0.392374		0.393522		0.393922		0.395128		0.396046		0.396142		0.397586		0.398018		0.398675		0.398871		0.399454		0.401791		0.400993		0.40131		0.401713		0.403722		0.403416		0.404123		0.404775		0.405572		0.406274		0.406547		0.406986		0.407309		0.408159		0.408314		0.409818		0.40993		0.410236		0.410881		0.411253		0.412603		0.411716		0.412913		0.413834		0.413673		0.414456		0.414205		0.415293		0.415303		0.416455	
H3 Cy5		0.0254202		0.025727		0.0257304		0.0257627		0.0259407		0.0259735		0.026098		0.0261359		0.0263112		0.0264841		0.0266108		0.02671		0.0269198		0.0270068		0.0270936		0.0272047		0.0273058		0.0274665		0.0275458		0.0276441		0.0277134		0.0279315		0.0279768		0.0281988		0.0284731		0.028835		0.0294323		0.0305369		0.0326267		0.0361716		0.0417649		0.048784		0.0562594		0.0627066		0.0680653		0.0720118		0.0747762		0.0765634		0.0778364		0.0787144		0.079175		0.0796662		0.080132		0.0803493		0.0805962
H3 FAM	0.35157		0.352265		0.354062		0.354034		0.353988		0.355679		0.355454		0.356203		0.357493		0.35764		0.359837		0.359918		0.361335		0.361525		0.361915		0.362773		0.36376		0.363928		0.365383		0.365175		0.365864		0.366802		0.366863		0.366991		0.36764		0.36767		0.368352		0.368563		0.369628		0.369914		0.369984		0.370815		0.369606		0.371728		0.37109		0.371716		0.372077		0.371404		0.372311		0.371985		0.372669		0.372704		0.373282		0.373209		0.373401	
H4 Cy5		0.0334828		0.0333549		0.0334762		0.0333603		0.0336073		0.0335859		0.0336875		0.0338009		0.0338791		0.0339099		0.0340543		0.0341904		0.0343771		0.0345134		0.0345725		0.0347453		0.0348965		0.0350432		0.0351682		0.0353197		0.0354554		0.03565		0.035727		0.035869		0.0359917		0.0360991		0.0363207		0.0364764		0.036657		0.0366409		0.0368526		0.0371485		0.0373383		0.0376773		0.0381699		0.0387222		0.0394454		0.0399277		0.0403989		0.0408208		0.0410798		0.0414043		0.0415455		0.041814		0.0419497
H4 FAM	0.42826		0.425512		0.425918		0.426024		0.426945		0.427671		0.428047		0.428987		0.429572		0.429417		0.430813		0.431737		0.432712		0.433601		0.433697		0.434729		0.434753		0.435748		0.437246		0.436543		0.437961		0.437441		0.439078		0.439339		0.439917		0.440857		0.44184		0.441838		0.442907		0.443506		0.443319		0.444116		0.444188		0.442842		0.444567		0.445119		0.445832		0.446072		0.44734		0.447769		0.448013		0.447548		0.448784		0.448446		0.450068	
H8 Cy5		0.0454621		0.0461522		0.0466496		0.0513981		0.0510112		0.0507824		0.0512469		0.0514188		0.0516412		0.0517687		0.0519833		0.0519476		0.0521218		0.0523902		0.0524632		0.0527427		0.0527383		0.052895		0.0531328		0.0532413		0.0533205		0.0533725		0.053412		0.0536011		0.0538201		0.0539119		0.0539523		0.0540636		0.0542374		0.0543527		0.0544112		0.0547682		0.0547606		0.0549446		0.0550948		0.0552774		0.0554585		0.055438		0.0556334		0.0557797		0.0558751		0.0559601		0.0560547		0.0561183		0.0562562
H8 FAM	0.220663		0.223076		0.226492		0.243812		0.243617		0.242731		0.24517		0.2453		0.24501		0.245777		0.2465		0.2468		0.247365		0.247907		0.247957		0.248		0.2485		0.2487		0.248741		0.249075		0.249816		0.249724		0.249712		0.250215		0.249948		0.250297		0.251122		0.250921		0.251178		0.25118		0.251684		0.25141		0.252122		0.252538		0.252048		0.251939		0.252472		0.253094		0.252093		0.253656		0.253501		0.252693		0.253447		0.253927		0.253909	
H9 Cy5		0.0406423		0.0409792		0.0413404		0.0416212		0.0418711		0.042103		0.0423021		0.042589		0.0427666		0.0429128		0.0431595		0.043237		0.0434501		0.0434553		0.0435449		0.0438234		0.043781		0.0439958		0.0440431		0.0442724		0.0442972		0.044454		0.0446065		0.0449851		0.0453061		0.0458104		0.0470023		0.0487876		0.0519443		0.0578298		0.0675492		0.0816064		0.0977911		0.112602		0.123579		0.131611		0.137315		0.141736		0.145497		0.148667		0.15135		0.153622		0.156189		0.158227		0.160338
H9 FAM	0.274525		0.277385		0.277962		0.279393		0.280596		0.28106		0.281844		0.2819		0.283256		0.283157		0.283989		0.284659		0.284789		0.286004		0.285121		0.285482		0.286553		0.286644		0.286207		0.286265		0.288337		0.287584		0.289079		0.289151		0.288772		0.289778		0.289134		0.289866		0.289766		0.290221		0.291208		0.290462		0.290899		0.290837		0.291236		0.291678		0.292418		0.291921		0.292293		0.293127		0.293143		0.293642		0.292851		0.293937		0.293398	
H10 Cy5		0.0385307		0.0384418		0.0384414		0.0385525		0.0386237		0.0387131		0.0387858		0.0388708		0.0390178		0.0391304		0.0391895		0.0393679		0.0394992		0.0397477		0.0398745		0.0400055		0.0400563		0.0402733		0.0403311		0.0406195		0.0406279		0.0408809		0.0411696		0.0414134		0.0419372		0.0428568		0.0443863		0.0472597		0.0523163		0.0605858		0.0733077		0.0890849		0.104442		0.116825		0.125988		0.132358		0.136789		0.140437		0.143224		0.145438		0.147635		0.149503		0.15113		0.152677		0.154219
H10 FAM	0.269873		0.2677		0.26822		0.268747		0.26879		0.268488		0.269276		0.269821		0.26997		0.270038		0.270761		0.271021		0.271314		0.272352		0.272004		0.272521		0.272237		0.27329		0.27334		0.273611		0.274419		0.273538		0.274225		0.27532		0.275501		0.275303		0.274892		0.275965		0.275549		0.276461		0.275939		0.276843		0.277372		0.276462		0.27748		0.277084		0.277594		0.277913		0.277712		0.278019		0.278737		0.278202		0.27832		0.278658		0.278326	
H11 Cy5		0.0373015		0.0375495		0.0380555		0.0381841		0.0384308		0.0386681		0.0388922		0.0389696		0.0392281		0.0394		0.0394614		0.0395996		0.0397732		0.0399809		0.0399814		0.0400503		0.0401698		0.0401296		0.0403771		0.0404963		0.0406373		0.0408745		0.041019		0.0411817		0.0414044		0.041456		0.0416155		0.0417916		0.0419806		0.0420529		0.042317		0.0425193		0.042664		0.0428873		0.0429774		0.0433118		0.0433601		0.0435279		0.0437021		0.043899		0.0440183		0.0441552		0.0443688		0.0444181		0.0445765
H11 FAM	0.252919		0.253822		0.255324		0.256175		0.257236		0.258249		0.25849		0.259344		0.259687		0.260585		0.260794		0.260381		0.261275		0.262014		0.26225		0.26266		0.263298		0.263302		0.263264		0.263259		0.264011		0.264499		0.263695		0.264687		0.265002		0.265477		0.26546		0.26595		0.266071		0.265522		0.26576		0.267081		0.267127		0.26742		0.266904		0.267293		0.267328		0.267665		0.267033		0.268705		0.269301		0.268598		0.268378		0.26893		0.269586	
