<svg width="150" height="150" viewBox="0 0 150 150" fill="none" xmlns="http://www.w3.org/2000/svg">
<ellipse cx="75" cy="104.625" rx="40" ry="16.0938" fill="#76C893"/>
<rect x="47.1875" y="59.3125" width="54.8438" height="43.9062" fill="#168AAD"/>
<path d="M87.1875 101.812H62.0312V86.1875C62.0312 81.6875 65.4688 80.5104 67.1875 80.4844H81.875C85.75 80.4844 87.0312 84.2865 87.1875 86.1875V101.812Z" fill="#EBF2FA"/>
<path d="M75 29L109.641 59.5859H40.359L75 29Z" fill="#168AAD"/>
<ellipse cx="74.3711" cy="69.4688" rx="8.82812" ry="8.90625" fill="#EBF2FA"/>
<path d="M82.3398 107.125H67.1055V94.7812H82.3398V107.125Z" fill="#EBF2FA"/>
</svg>
