{
  "$schema": "../../node_modules/nx/schemas/project-schema.json",
  "sourceRoot": "libs/nar-api-unofficial/src",
  "projectType": "library",
  "targets": {
    "build": {
      "executor": "@nrwl/js:tsc",
      "outputs": ["{options.outputPath}"],
      "options": {
        "outputPath": "dist/libs/nar-api-unofficial",
        "main": "libs/nar-api-unofficial/index.ts",
        "tsConfig": "libs/nar-api-unofficial/tsconfig.lib.json",
        "assets": ["libs/nar-api-unofficial/*.md"]
      }
    },
    "lint": {
      "executor": "@nrwl/linter:eslint",
      "outputs": ["{options.outputFile}"],
      "options": {
        "lintFilePatterns": ["libs/nar-api-unofficial/**/*.ts"]
      }
    },
    "test": {
      "executor": "@nrwl/jest:jest",
      "outputs": ["coverage/libs/nar-api-unofficial"],
      "options": {
        "jestConfig": "libs/nar-api-unofficial/jest.config.ts",
        "passWithNoTests": true
      }
    }
  },
  "tags": []
}
