<svg width="401" height="350" viewBox="0 0 401 350" fill="none" xmlns="http://www.w3.org/2000/svg">
<path d="M219.961 222.417C220.232 211.283 225.989 185.268 246.845 170.278" stroke="#A5BE00"/>
<path d="M232.992 281.072C232.992 281.616 232.503 283.028 230.548 284.331C228.593 285.635 216.699 284.874 210.996 284.331L227.289 268.038H237.065C238.695 268.038 239.509 268.852 239.509 269.667C239.509 270.482 238.695 271.296 237.88 272.111C237.228 272.763 230.548 272.926 227.289 272.926C226.475 273.469 225.171 274.555 226.475 274.555C228.104 274.555 235.436 273.74 237.88 274.555C240.324 275.37 237.88 277.814 237.065 277.814H226.475C226.475 278.357 227.126 279.443 229.733 279.443C232.34 279.443 232.992 280.529 232.992 281.072Z" fill="#C4C4C4"/>
<path d="M210.996 284.331C210.996 284.331 210.996 284.331 210.996 284.331ZM210.996 284.331C216.699 284.874 228.593 285.635 230.548 284.331C232.503 283.028 232.992 281.616 232.992 281.072C232.992 280.529 232.34 279.443 229.733 279.443C227.126 279.443 226.475 278.357 226.475 277.814C229.733 277.814 236.414 277.814 237.065 277.814C237.88 277.814 240.324 275.37 237.88 274.555C235.436 273.74 228.104 274.555 226.475 274.555C225.171 274.555 226.475 273.469 227.289 272.926C230.548 272.926 237.228 272.763 237.88 272.111C238.695 271.296 239.509 270.482 239.509 269.667C239.509 268.852 238.695 268.038 237.065 268.038C235.762 268.038 230.005 268.038 227.289 268.038L210.996 284.331Z" stroke="white" stroke-width="0.5"/>
<path d="M228.108 305.512V261.52H218.332V305.512C218.332 306.816 219.418 308.228 219.961 308.771H226.479C227.13 308.771 227.836 306.599 228.108 305.512Z" fill="white" stroke="white" stroke-width="0.5"/>
<path d="M216.699 253.374V261.52H229.734V253.374H216.699Z" fill="#A5BE00" stroke="white" stroke-width="0.5"/>
<path d="M249.29 180.869L253.363 181.683L264.768 187.386L257.436 192.274L252.548 193.089C252.277 192.546 251.571 191.459 250.919 191.459C250.104 191.459 249.29 189.83 249.29 189.015C249.289 188.364 252.548 187.658 254.177 187.386C253.091 186.571 250.593 184.942 249.29 184.942C247.987 184.942 248.747 182.227 249.29 180.869Z" fill="#A48474"/>
<path d="M181.672 305.512L143.383 327.508V303.068C155.06 299.267 179.065 291.5 181.672 290.848C184.931 290.034 198.78 265.594 201.224 263.15C203.668 260.706 233.811 263.15 236.254 263.15C238.698 263.15 237.884 265.594 237.884 266.408C237.884 267.007 231.692 267.197 224.849 267.223C224.463 266.837 224.13 266.552 223.842 266.347C224.61 267.232 224.849 269.166 224.849 270.482L210.185 285.146C207.198 288.676 200.572 296.388 197.965 298.995C195.358 301.602 186.017 304.426 181.672 305.512Z" fill="#C4C4C4"/>
<path d="M221.591 266.408C224.197 264.453 224.849 268.309 224.849 270.482L210.185 285.146C207.198 288.676 200.572 296.388 197.965 298.995C195.358 301.602 186.017 304.426 181.672 305.512L143.383 327.508V303.068C155.06 299.267 179.065 291.5 181.672 290.848C184.931 290.034 198.78 265.594 201.224 263.15C203.668 260.706 233.811 263.15 236.254 263.15C238.698 263.15 237.884 265.594 237.884 266.408C237.884 267.007 231.692 267.197 224.849 267.223C222.405 264.779 222.122 266.408 221.591 266.408ZM221.591 266.408C218.332 268.852 211.815 273.74 210.185 273.74C208.556 273.74 207.741 270.482 207.741 268.852C207.741 267.223 219.147 267.223 219.961 267.223C220.613 267.223 221.319 266.408 221.591 266.408Z" stroke="white" stroke-width="0.5"/>
<path d="M285.132 236.266L327.494 226.49V246.042C327.494 253.863 334.012 259.076 337.27 260.706L378.003 292.478L399.999 349.504H259.062C266.394 330.495 281.71 290.848 284.317 284.331C286.924 277.814 285.946 249.572 285.132 236.266Z" fill="white" stroke="white" stroke-width="0.5"/>
<path d="M266.393 157.243C270.303 155.288 278.341 145.024 281.871 140.136L300.609 133.618L334.01 171.093L339.713 206.938L326.678 227.305L285.945 236.266C286.216 238.71 286.271 240.828 284.315 229.749C281.871 215.899 277.798 215.085 272.91 211.826C268.022 208.567 254.173 206.938 252.544 205.309C250.914 203.679 252.544 194.718 252.544 193.089C252.544 191.785 258.518 189.287 261.505 188.201L250.1 180.869C250.914 179.783 252.544 177.121 252.544 175.166C252.544 172.722 249.285 169.463 247.656 168.649C246.026 167.834 246.026 164.575 247.656 162.946C249.285 161.317 261.505 159.687 266.393 157.243Z" fill="#D6987A" stroke="#D6987A" stroke-width="0.5"/>
<path d="M153.157 291.663L142.566 251.745L149.898 255.003C160.761 245.227 190.306 218.017 192.261 216.714C194.705 215.085 204.481 202.05 206.11 198.791C207.74 195.533 212.121 195.749 219.145 193.903C224.999 192.365 232.994 193.089 234.623 193.089C236.253 193.089 233.809 195.533 233.809 195.533C233.809 195.533 224.847 195.676 223.218 196.347C221.097 197.221 219.416 198.52 218.33 199.606C218.873 199.606 220.305 199.062 221.589 198.791C226.579 197.739 232.994 197.977 235.438 197.977C237.882 197.977 235.438 201.235 234.623 201.235C233.809 201.235 230.122 200.804 227.291 201.235C223.61 201.797 220.774 203.408 218.33 204.494C219.959 204.494 223.294 203.984 226.477 203.679C229.975 203.345 233.809 203.679 235.438 203.679C237.067 203.679 234.612 205.853 231.365 206.123C221.589 206.938 218.33 208.567 216.701 209.382C215.397 210.034 219.959 209.382 221.589 209.382H228.106C232.179 209.382 232.179 208.567 230.55 211.011C229.54 212.527 219.145 212.641 214.257 213.455C209.369 214.27 210.998 216.714 207.74 223.231C205.133 228.445 199.05 235.723 196.334 235.451L167.821 274.555L153.157 291.663Z" fill="#C4C4C4" stroke="#EEEEEE" stroke-width="0.4"/>
<path d="M55.3994 76.5918C56.7028 80.5022 69.5202 82.566 75.766 83.1091L170.266 57.8545C170.809 57.3114 173.362 53.7812 179.228 44.0052C186.559 31.7852 160.49 12.2333 149.9 5.71597C139.309 -0.801341 119.757 0.827987 109.166 2.45732C100.694 3.76078 94.2309 20.923 92.0585 29.3413C89.6145 29.0697 82.9344 29.0154 75.766 30.9706C66.8054 33.4146 55.3994 42.3759 51.326 50.5225C47.2527 58.6692 53.77 71.7038 55.3994 76.5918Z" fill="white"/>
<path d="M111.611 79.8504L75.766 83.1091M75.766 83.1091C69.5202 82.566 56.7028 80.5022 55.3994 76.5918C53.77 71.7038 47.2527 58.6692 51.326 50.5225C55.3994 42.3759 66.8054 33.4146 75.766 30.9706C82.9344 29.0154 89.6145 29.0697 92.0585 29.3413C94.2309 20.923 100.694 3.76078 109.166 2.45732C119.757 0.827987 139.309 -0.801341 149.9 5.71597C160.49 12.2333 186.559 31.7852 179.228 44.0052C173.362 53.7812 170.809 57.3114 170.266 57.8545L75.766 83.1091Z" stroke="white"/>
<path d="M342.134 123.029C310.529 104.129 285.517 124.387 276.961 136.879C290.81 142.581 305.474 160.504 307.918 167.836C309.873 173.701 308.733 180.056 307.918 182.5C309.004 182.228 312.48 180.708 317.694 176.797C324.211 171.909 326.655 184.129 326.655 186.573C326.655 189.017 316.879 195.534 317.694 198.793C318.509 202.052 347.837 289.221 359.242 297.367C370.647 305.514 393.458 285.147 397.531 270.484C401.605 255.82 376.35 224.862 368.203 215.086C361.686 207.266 365.488 191.19 368.203 184.129C372.682 171.638 373.739 141.93 342.134 123.029Z" fill="#184E77" stroke="#184E77"/>
<path d="M78.2078 84.1398L61.8328 104.427C69.5882 108.926 85.7568 125.363 92.8717 133.02L128.717 80.0665C135.234 83.3251 148.758 90.0054 150.713 90.6571C153.157 91.4718 159.674 86.5838 162.118 82.5105C164.725 80.5553 166.463 70.8336 167.006 66.2172C162.661 63.5016 153.483 57.7447 151.528 56.4412C149.084 54.8119 110.794 62.9585 107.536 62.1439C104.277 61.3292 102.648 58.8852 99.3891 59.6999C96.7821 60.3516 95.5873 67.0319 95.3157 70.2905C95.0442 71.6483 94.1752 74.8526 92.8717 76.8078C91.5683 78.763 82.5527 82.5105 78.2078 84.1398Z" fill="#D6987A"/>
<path d="M60.2852 103.692C60.5358 103.692 61.0693 103.949 61.8328 104.427M61.8328 104.427L78.2078 84.1398C82.5527 82.5105 91.5683 78.763 92.8717 76.8078C94.1752 74.8526 95.0442 71.6483 95.3157 70.2905C95.5873 67.0319 96.7821 60.3516 99.3891 59.6999C102.648 58.8852 104.277 61.3292 107.536 62.1439C110.794 62.9585 149.084 54.8119 151.528 56.4412C153.483 57.7447 162.661 63.5016 167.006 66.2172C166.463 70.8336 164.725 80.5553 162.118 82.5105C159.674 86.5838 153.157 91.4718 150.713 90.6571C148.758 90.0054 135.234 83.3251 128.717 80.0665L92.8717 133.02C85.7568 125.363 69.5882 108.926 61.8328 104.427Z" stroke="#D6987A"/>
<path d="M2.56873 316.102C2.56873 307.956 -8.83656 171.907 16.418 138.506C41.6726 105.105 57.1512 98.5877 59.5952 98.5877C66.2761 102.771 92.1191 124.615 98.6991 138.506C106.031 153.985 151.652 229.749 150.838 246.042C150.776 247.275 150.723 248.927 150.679 250.93L166.191 276.999L150.523 300.624C150.59 317.797 150.724 335.203 150.838 347.059H2.56873V316.102Z" fill="white"/>
<path d="M55.3984 232.193C60.8295 258.262 73.8098 312.192 82.2823 319.361C92.873 328.322 110.796 356.021 136.865 319.361C157.72 290.033 165.107 278.357 166.193 276.184L151.529 250.93L123.016 276.184C120.028 251.745 112.425 200.421 105.908 190.645C99.3903 180.869 93.4161 172.994 91.2437 170.278" stroke="black" stroke-opacity="0.3"/>
<path d="M166.191 65.1865L172.709 55.4105L94.5008 18.7506L91.2422 28.5266L166.191 65.1865Z" fill="#EEEEEE" stroke="#EEEEEE"/>
<path d="M158.044 107.549V80.6651C158.044 83.1091 157.23 88.6488 153.971 91.2557C150.712 93.8626 148.811 92.3419 148.268 91.2557L118.94 74.1478L103.462 96.9584C106.449 101.575 113.075 111.622 115.682 114.881C123.828 122.213 130.346 119.769 134.419 119.769C137.678 119.769 151.527 111.622 158.044 107.549Z" fill="white"/>
<path d="M103.462 96.9584C106.449 101.575 113.075 111.622 115.682 114.881C123.828 122.213 130.346 119.769 134.419 119.769C137.678 119.769 151.527 111.622 158.044 107.549V80.6651C158.044 83.1091 157.23 88.6488 153.971 91.2557C150.712 93.8626 148.811 92.3419 148.268 91.2557L118.94 74.1478M103.462 96.9584L92.8711 74.1478M103.462 96.9584L118.94 74.1478M118.94 74.1478L108.35 60.2985" stroke="#EEEEEE"/>
<path d="M185.74 55.4105L142.563 33.4146C138.49 41.8328 128.225 62.9054 119.753 79.8504C109.162 101.032 111.606 107.549 112.421 119.769C113.072 129.545 135.503 137.963 146.636 140.95L185.74 55.4105Z" fill="#EEEEEE" fill-opacity="0.2" stroke="#EEEEEE"/>
</svg>
